{
  "done": true,
  "metadata": {
    "@type": "type.googleapis.com/google.cloud.speech.v1.LongRunningRecognizeMetadata",
    "lastUpdateTime": "2021-03-11T20:28:27.029300Z",
    "progressPercent": 100,
    "startTime": "2021-03-11T20:27:51.755243Z",
    "uri": "gs://adresso/ADReSSo21-progression-test/progression/test-dist/audio/train/no_decline/adrsp382.wav"
  },
  "name": "5521532207800614757",
  "response": {
    "@type": "type.googleapis.com/google.cloud.speech.v1.LongRunningRecognizeResponse",
    "results": [
      {
        "alternatives": [
          {
            "confidence": 0.74422896,
            "transcript": "elephant driver",
            "words": [
              {
                "endTime": "5.500s",
                "startTime": "3.700s",
                "word": "elephant"
              },
              {
                "endTime": "6.600s",
                "startTime": "5.500s",
                "word": "driver"
              }
            ]
          }
        ]
      },
      {
        "alternatives": [
          {
            "confidence": 0.6918793,
            "transcript": " Behr Marquee",
            "words": [
              {
                "endTime": "9s",
                "startTime": "8.200s",
                "word": "Behr"
              },
              {
                "endTime": "10.200s",
                "startTime": "9s",
                "word": "Marquee"
              }
            ]
          }
        ]
      },
      {
        "alternatives": [
          {
            "confidence": 0.81238234,
            "transcript": " your ass",
            "words": [
              {
                "endTime": "13.700s",
                "startTime": "12.400s",
                "word": "your"
              },
              {
                "endTime": "14.200s",
                "startTime": "13.700s",
                "word": "ass"
              }
            ]
          }
        ]
      },
      {
        "alternatives": [
          {
            "confidence": 0.88568527,
            "transcript": " kangaroo",
            "words": [
              {
                "endTime": "19.600s",
                "startTime": "18.900s",
                "word": "kangaroo"
              }
            ]
          }
        ]
      },
      {
        "alternatives": [
          {
            "confidence": 0.4148513,
            "transcript": " camera",
            "words": [
              {
                "endTime": "21.700s",
                "startTime": "21s",
                "word": "camera"
              }
            ]
          }
        ]
      },
      {
        "alternatives": [
          {
            "confidence": 0.7942611,
            "transcript": " bear",
            "words": [
              {
                "endTime": "26.500s",
                "startTime": "25s",
                "word": "bear"
              }
            ]
          }
        ]
      },
      {
        "alternatives": [
          {
            "confidence": 0.38064143,
            "transcript": " find",
            "words": [
              {
                "endTime": "28.800s",
                "startTime": "27.800s",
                "word": "find"
              }
            ]
          }
        ]
      },
      {
        "alternatives": [
          {
            "confidence": 0.28123406,
            "transcript": " Elsa",
            "words": [
              {
                "endTime": "33.300s",
                "startTime": "32.500s",
                "word": "Elsa"
              }
            ]
          }
        ]
      },
      {
        "alternatives": [
          {
            "confidence": 0.785448,
            "transcript": " Tire",
            "words": [
              {
                "endTime": "37.400s",
                "startTime": "36.800s",
                "word": "Tire"
              }
            ]
          }
        ]
      },
      {
        "alternatives": [
          {
            "confidence": 0.7955485,
            "transcript": " draft",
            "words": [
              {
                "endTime": "46.400s",
                "startTime": "45.400s",
                "word": "draft"
              }
            ]
          }
        ]
      },
      {
        "alternatives": [
          {
            "confidence": 0.60139596,
            "transcript": " monkey",
            "words": [
              {
                "endTime": "49.700s",
                "startTime": "48.900s",
                "word": "monkey"
              }
            ]
          }
        ]
      },
      {
        "alternatives": [
          {
            "confidence": 0.41919485,
            "transcript": " horse",
            "words": [
              {
                "endTime": "57.400s",
                "startTime": "56.700s",
                "word": "horse"
              }
            ]
          }
        ]
      },
      {
        "alternatives": [
          {
            "confidence": 0.57960165,
            "transcript": " yo",
            "words": [
              {
                "endTime": "59.700s",
                "startTime": "59.100s",
                "word": "yo"
              }
            ]
          }
        ]
      },
      {
        "alternatives": [
          {
            "confidence": 0.46705246,
            "transcript": " Barney",
            "words": [
              {
                "endTime": "64.400s",
                "startTime": "63.800s",
                "word": "Barney"
              }
            ]
          }
        ]
      },
      {
        "alternatives": [
          {
            "confidence": 0.68864644,
            "transcript": " I took care of the horse sound",
            "words": [
              {
                "endTime": "66s",
                "startTime": "65.600s",
                "word": "I"
              },
              {
                "endTime": "66.300s",
                "startTime": "66s",
                "word": "took"
              },
              {
                "endTime": "66.400s",
                "startTime": "66.300s",
                "word": "care"
              },
              {
                "endTime": "66.600s",
                "startTime": "66.400s",
                "word": "of"
              },
              {
                "endTime": "66.600s",
                "startTime": "66.600s",
                "word": "the"
              },
              {
                "endTime": "67s",
                "startTime": "66.600s",
                "word": "horse"
              },
              {
                "endTime": "67.300s",
                "startTime": "67s",
                "word": "sound"
              }
            ]
          }
        ]
      },
      {
        "alternatives": [
          {
            "confidence": 0.8890796,
            "transcript": " what is the name for me as many words as you can think of the start with the letter f",
            "words": [
              {
                "endTime": "77s",
                "startTime": "76.700s",
                "word": "what"
              },
              {
                "endTime": "77.200s",
                "startTime": "77s",
                "word": "is"
              },
              {
                "endTime": "77.300s",
                "startTime": "77.200s",
                "word": "the"
              },
              {
                "endTime": "77.600s",
                "startTime": "77.300s",
                "word": "name"
              },
              {
                "endTime": "77.800s",
                "startTime": "77.600s",
                "word": "for"
              },
              {
                "endTime": "78s",
                "startTime": "77.800s",
                "word": "me"
              },
              {
                "endTime": "78.200s",
                "startTime": "78s",
                "word": "as"
              },
              {
                "endTime": "78.400s",
                "startTime": "78.200s",
                "word": "many"
              },
              {
                "endTime": "78.600s",
                "startTime": "78.400s",
                "word": "words"
              },
              {
                "endTime": "79s",
                "startTime": "78.600s",
                "word": "as"
              },
              {
                "endTime": "79.100s",
                "startTime": "79s",
                "word": "you"
              },
              {
                "endTime": "79.300s",
                "startTime": "79.100s",
                "word": "can"
              },
              {
                "endTime": "79.600s",
                "startTime": "79.300s",
                "word": "think"
              },
              {
                "endTime": "79.800s",
                "startTime": "79.600s",
                "word": "of"
              },
              {
                "endTime": "80s",
                "startTime": "79.800s",
                "word": "the"
              },
              {
                "endTime": "80.300s",
                "startTime": "80s",
                "word": "start"
              },
              {
                "endTime": "80.400s",
                "startTime": "80.300s",
                "word": "with"
              },
              {
                "endTime": "80.600s",
                "startTime": "80.400s",
                "word": "the"
              },
              {
                "endTime": "81s",
                "startTime": "80.600s",
                "word": "letter"
              },
              {
                "endTime": "81.300s",
                "startTime": "81s",
                "word": "f"
              }
            ]
          }
        ]
      },
      {
        "alternatives": [
          {
            "confidence": 0.931752,
            "transcript": " all of the words that come to mind that start with the letter F I want any proper names of people or fight and only one walk I wouldn't want you to give me walking and walked son funeral",
            "words": [
              {
                "endTime": "82.700s",
                "startTime": "82.400s",
                "word": "all"
              },
              {
                "endTime": "82.800s",
                "startTime": "82.700s",
                "word": "of"
              },
              {
                "endTime": "82.900s",
                "startTime": "82.800s",
                "word": "the"
              },
              {
                "endTime": "83.200s",
                "startTime": "82.900s",
                "word": "words"
              },
              {
                "endTime": "83.200s",
                "startTime": "83.200s",
                "word": "that"
              },
              {
                "endTime": "83.400s",
                "startTime": "83.200s",
                "word": "come"
              },
              {
                "endTime": "83.500s",
                "startTime": "83.400s",
                "word": "to"
              },
              {
                "endTime": "83.600s",
                "startTime": "83.500s",
                "word": "mind"
              },
              {
                "endTime": "83.900s",
                "startTime": "83.600s",
                "word": "that"
              },
              {
                "endTime": "84.300s",
                "startTime": "83.900s",
                "word": "start"
              },
              {
                "endTime": "84.500s",
                "startTime": "84.300s",
                "word": "with"
              },
              {
                "endTime": "84.700s",
                "startTime": "84.500s",
                "word": "the"
              },
              {
                "endTime": "85s",
                "startTime": "84.700s",
                "word": "letter"
              },
              {
                "endTime": "85.200s",
                "startTime": "85s",
                "word": "F"
              },
              {
                "endTime": "85.800s",
                "startTime": "85.200s",
                "word": "I"
              },
              {
                "endTime": "86s",
                "startTime": "85.800s",
                "word": "want"
              },
              {
                "endTime": "86.400s",
                "startTime": "86s",
                "word": "any"
              },
              {
                "endTime": "86.900s",
                "startTime": "86.400s",
                "word": "proper"
              },
              {
                "endTime": "87.400s",
                "startTime": "86.900s",
                "word": "names"
              },
              {
                "endTime": "87.700s",
                "startTime": "87.400s",
                "word": "of"
              },
              {
                "endTime": "88.100s",
                "startTime": "87.700s",
                "word": "people"
              },
              {
                "endTime": "88.400s",
                "startTime": "88.100s",
                "word": "or"
              },
              {
                "endTime": "88.700s",
                "startTime": "88.400s",
                "word": "fight"
              },
              {
                "endTime": "90.200s",
                "startTime": "88.700s",
                "word": "and"
              },
              {
                "endTime": "90.500s",
                "startTime": "90.200s",
                "word": "only"
              },
              {
                "endTime": "90.800s",
                "startTime": "90.500s",
                "word": "one"
              },
              {
                "endTime": "94.700s",
                "startTime": "90.800s",
                "word": "walk"
              },
              {
                "endTime": "95s",
                "startTime": "94.700s",
                "word": "I"
              },
              {
                "endTime": "95.400s",
                "startTime": "95s",
                "word": "wouldn't"
              },
              {
                "endTime": "95.600s",
                "startTime": "95.400s",
                "word": "want"
              },
              {
                "endTime": "95.700s",
                "startTime": "95.600s",
                "word": "you"
              },
              {
                "endTime": "95.800s",
                "startTime": "95.700s",
                "word": "to"
              },
              {
                "endTime": "96s",
                "startTime": "95.800s",
                "word": "give"
              },
              {
                "endTime": "96.100s",
                "startTime": "96s",
                "word": "me"
              },
              {
                "endTime": "96.500s",
                "startTime": "96.100s",
                "word": "walking"
              },
              {
                "endTime": "97s",
                "startTime": "96.500s",
                "word": "and"
              },
              {
                "endTime": "97.400s",
                "startTime": "97s",
                "word": "walked"
              },
              {
                "endTime": "107.100s",
                "startTime": "97.400s",
                "word": "son"
              },
              {
                "endTime": "108.300s",
                "startTime": "107.100s",
                "word": "funeral"
              }
            ]
          }
        ]
      },
      {
        "alternatives": [
          {
            "confidence": 0.36186454,
            "transcript": " fluke",
            "words": [
              {
                "endTime": "115.300s",
                "startTime": "114.600s",
                "word": "fluke"
              }
            ]
          }
        ]
      },
      {
        "alternatives": [
          {
            "confidence": 0.86607003,
            "transcript": " any word",
            "words": [
              {
                "endTime": "125.300s",
                "startTime": "124.800s",
                "word": "any"
              },
              {
                "endTime": "125.600s",
                "startTime": "125.300s",
                "word": "word"
              }
            ]
          }
        ]
      },
      {
        "alternatives": [
          {
            "confidence": 0.77233535,
            "transcript": " do you like if you are",
            "words": [
              {
                "endTime": "130.200s",
                "startTime": "129.800s",
                "word": "do"
              },
              {
                "endTime": "130.300s",
                "startTime": "130.200s",
                "word": "you"
              },
              {
                "endTime": "130.800s",
                "startTime": "130.300s",
                "word": "like"
              },
              {
                "endTime": "130.900s",
                "startTime": "130.800s",
                "word": "if"
              },
              {
                "endTime": "131s",
                "startTime": "130.900s",
                "word": "you"
              },
              {
                "endTime": "131.200s",
                "startTime": "131s",
                "word": "are"
              }
            ]
          }
        ]
      },
      {
        "alternatives": [
          {
            "confidence": 0.5999302,
            "transcript": " Viber",
            "words": [
              {
                "endTime": "135.500s",
                "startTime": "134s",
                "word": "Viber"
              }
            ]
          }
        ]
      },
      {
        "alternatives": [
          {
            "confidence": 0.4400016,
            "transcript": " fuel Maverick",
            "words": [
              {
                "endTime": "148.600s",
                "startTime": "147.900s",
                "word": "fuel"
              },
              {
                "endTime": "149.400s",
                "startTime": "148.600s",
                "word": "Maverick"
              }
            ]
          }
        ]
      },
      {
        "alternatives": [
          {
            "confidence": 0.84650326,
            "transcript": " Festival which is up there",
            "words": [
              {
                "endTime": "156.200s",
                "startTime": "155.300s",
                "word": "Festival"
              },
              {
                "endTime": "156.500s",
                "startTime": "156.200s",
                "word": "which"
              },
              {
                "endTime": "156.700s",
                "startTime": "156.500s",
                "word": "is"
              },
              {
                "endTime": "156.900s",
                "startTime": "156.700s",
                "word": "up"
              },
              {
                "endTime": "157s",
                "startTime": "156.900s",
                "word": "there"
              }
            ]
          }
        ]
      },
      {
        "alternatives": [
          {
            "confidence": 0.6507244,
            "transcript": " are peanuts a minute",
            "words": [
              {
                "endTime": "168.100s",
                "startTime": "167.700s",
                "word": "are"
              },
              {
                "endTime": "168.600s",
                "startTime": "168.100s",
                "word": "peanuts"
              },
              {
                "endTime": "168.600s",
                "startTime": "168.600s",
                "word": "a"
              },
              {
                "endTime": "168.900s",
                "startTime": "168.600s",
                "word": "minute"
              }
            ]
          }
        ]
      }
    ]
  }
}
