{
  "done": true,
  "metadata": {
    "@type": "type.googleapis.com/google.cloud.speech.v1.LongRunningRecognizeMetadata",
    "lastUpdateTime": "2021-03-11T20:28:16.803867Z",
    "progressPercent": 100,
    "startTime": "2021-03-11T20:27:53.091771Z",
    "uri": "gs://adresso/ADReSSo21-progression-test/progression/test-dist/audio/train/no_decline/adrsp384.wav"
  },
  "name": "8960504471553670639",
  "response": {
    "@type": "type.googleapis.com/google.cloud.speech.v1.LongRunningRecognizeResponse",
    "results": [
      {
        "alternatives": [
          {
            "confidence": 0.9722002,
            "transcript": "give me all the animals",
            "words": [
              {
                "endTime": "1.700s",
                "startTime": "1.300s",
                "word": "give"
              },
              {
                "endTime": "1.800s",
                "startTime": "1.700s",
                "word": "me"
              },
              {
                "endTime": "1.900s",
                "startTime": "1.800s",
                "word": "all"
              },
              {
                "endTime": "2s",
                "startTime": "1.900s",
                "word": "the"
              },
              {
                "endTime": "2.500s",
                "startTime": "2s",
                "word": "animals"
              }
            ]
          }
        ]
      },
      {
        "alternatives": [
          {
            "confidence": 0.85098445,
            "transcript": " cat dog",
            "words": [
              {
                "endTime": "7.100s",
                "startTime": "6.500s",
                "word": "cat"
              },
              {
                "endTime": "8.700s",
                "startTime": "7.100s",
                "word": "dog"
              }
            ]
          }
        ]
      },
      {
        "alternatives": [
          {
            "confidence": 0.3098942,
            "transcript": " beg",
            "words": [
              {
                "endTime": "11.300s",
                "startTime": "10.700s",
                "word": "beg"
              }
            ]
          }
        ]
      },
      {
        "alternatives": [
          {
            "confidence": 0.83971393,
            "transcript": " ear",
            "words": [
              {
                "endTime": "16.300s",
                "startTime": "15.800s",
                "word": "ear"
              }
            ]
          }
        ]
      },
      {
        "alternatives": [
          {
            "confidence": 0.543189,
            "transcript": " Dayton",
            "words": [
              {
                "endTime": "29.900s",
                "startTime": "29.200s",
                "word": "Dayton"
              }
            ]
          }
        ]
      },
      {
        "alternatives": [
          {
            "confidence": 0.97579265,
            "transcript": " I'm sorry what",
            "words": [
              {
                "endTime": "53.900s",
                "startTime": "52s",
                "word": "I'm"
              },
              {
                "endTime": "54.200s",
                "startTime": "53.900s",
                "word": "sorry"
              },
              {
                "endTime": "54.500s",
                "startTime": "54.200s",
                "word": "what"
              }
            ]
          }
        ]
      },
      {
        "alternatives": [
          {
            "confidence": 0.9861946,
            "transcript": " okay great that's a minute",
            "words": [
              {
                "endTime": "71.400s",
                "startTime": "70.800s",
                "word": "okay"
              },
              {
                "endTime": "71.700s",
                "startTime": "71.400s",
                "word": "great"
              },
              {
                "endTime": "72.100s",
                "startTime": "71.700s",
                "word": "that's"
              },
              {
                "endTime": "72.100s",
                "startTime": "72.100s",
                "word": "a"
              },
              {
                "endTime": "72.400s",
                "startTime": "72.100s",
                "word": "minute"
              }
            ]
          }
        ]
      },
      {
        "alternatives": [
          {
            "confidence": 0.9437465,
            "transcript": " now I'm going to give you another minute and in that minutes time I want you to name as many words as you can think of the start with the letter f",
            "words": [
              {
                "endTime": "73.900s",
                "startTime": "73.500s",
                "word": "now"
              },
              {
                "endTime": "74.100s",
                "startTime": "73.900s",
                "word": "I'm"
              },
              {
                "endTime": "74.200s",
                "startTime": "74.100s",
                "word": "going"
              },
              {
                "endTime": "74.400s",
                "startTime": "74.200s",
                "word": "to"
              },
              {
                "endTime": "74.500s",
                "startTime": "74.400s",
                "word": "give"
              },
              {
                "endTime": "74.700s",
                "startTime": "74.500s",
                "word": "you"
              },
              {
                "endTime": "74.900s",
                "startTime": "74.700s",
                "word": "another"
              },
              {
                "endTime": "75.400s",
                "startTime": "74.900s",
                "word": "minute"
              },
              {
                "endTime": "76.100s",
                "startTime": "75.400s",
                "word": "and"
              },
              {
                "endTime": "76.300s",
                "startTime": "76.100s",
                "word": "in"
              },
              {
                "endTime": "76.500s",
                "startTime": "76.300s",
                "word": "that"
              },
              {
                "endTime": "76.900s",
                "startTime": "76.500s",
                "word": "minutes"
              },
              {
                "endTime": "77.200s",
                "startTime": "76.900s",
                "word": "time"
              },
              {
                "endTime": "77.300s",
                "startTime": "77.200s",
                "word": "I"
              },
              {
                "endTime": "77.500s",
                "startTime": "77.300s",
                "word": "want"
              },
              {
                "endTime": "77.600s",
                "startTime": "77.500s",
                "word": "you"
              },
              {
                "endTime": "77.700s",
                "startTime": "77.600s",
                "word": "to"
              },
              {
                "endTime": "77.900s",
                "startTime": "77.700s",
                "word": "name"
              },
              {
                "endTime": "78.300s",
                "startTime": "77.900s",
                "word": "as"
              },
              {
                "endTime": "78.500s",
                "startTime": "78.300s",
                "word": "many"
              },
              {
                "endTime": "79.100s",
                "startTime": "78.500s",
                "word": "words"
              },
              {
                "endTime": "79.200s",
                "startTime": "79.100s",
                "word": "as"
              },
              {
                "endTime": "79.300s",
                "startTime": "79.200s",
                "word": "you"
              },
              {
                "endTime": "79.400s",
                "startTime": "79.300s",
                "word": "can"
              },
              {
                "endTime": "79.700s",
                "startTime": "79.400s",
                "word": "think"
              },
              {
                "endTime": "79.900s",
                "startTime": "79.700s",
                "word": "of"
              },
              {
                "endTime": "80.100s",
                "startTime": "79.900s",
                "word": "the"
              },
              {
                "endTime": "80.400s",
                "startTime": "80.100s",
                "word": "start"
              },
              {
                "endTime": "80.500s",
                "startTime": "80.400s",
                "word": "with"
              },
              {
                "endTime": "80.700s",
                "startTime": "80.500s",
                "word": "the"
              },
              {
                "endTime": "81s",
                "startTime": "80.700s",
                "word": "letter"
              },
              {
                "endTime": "81.400s",
                "startTime": "81s",
                "word": "f"
              }
            ]
          }
        ]
      },
      {
        "alternatives": [
          {
            "confidence": 0.9638965,
            "transcript": " all of the words that come to mind that start with the letter F no proper names of people or places",
            "words": [
              {
                "endTime": "82.800s",
                "startTime": "82.400s",
                "word": "all"
              },
              {
                "endTime": "83s",
                "startTime": "82.800s",
                "word": "of"
              },
              {
                "endTime": "83.100s",
                "startTime": "83s",
                "word": "the"
              },
              {
                "endTime": "83.400s",
                "startTime": "83.100s",
                "word": "words"
              },
              {
                "endTime": "83.400s",
                "startTime": "83.400s",
                "word": "that"
              },
              {
                "endTime": "83.700s",
                "startTime": "83.400s",
                "word": "come"
              },
              {
                "endTime": "83.800s",
                "startTime": "83.700s",
                "word": "to"
              },
              {
                "endTime": "83.800s",
                "startTime": "83.800s",
                "word": "mind"
              },
              {
                "endTime": "84.200s",
                "startTime": "83.800s",
                "word": "that"
              },
              {
                "endTime": "84.600s",
                "startTime": "84.200s",
                "word": "start"
              },
              {
                "endTime": "84.700s",
                "startTime": "84.600s",
                "word": "with"
              },
              {
                "endTime": "84.900s",
                "startTime": "84.700s",
                "word": "the"
              },
              {
                "endTime": "85.200s",
                "startTime": "84.900s",
                "word": "letter"
              },
              {
                "endTime": "85.500s",
                "startTime": "85.200s",
                "word": "F"
              },
              {
                "endTime": "86.200s",
                "startTime": "85.500s",
                "word": "no"
              },
              {
                "endTime": "86.700s",
                "startTime": "86.200s",
                "word": "proper"
              },
              {
                "endTime": "87.100s",
                "startTime": "86.700s",
                "word": "names"
              },
              {
                "endTime": "87.300s",
                "startTime": "87.100s",
                "word": "of"
              },
              {
                "endTime": "87.700s",
                "startTime": "87.300s",
                "word": "people"
              },
              {
                "endTime": "87.800s",
                "startTime": "87.700s",
                "word": "or"
              },
              {
                "endTime": "88s",
                "startTime": "87.800s",
                "word": "places"
              }
            ]
          }
        ]
      },
      {
        "alternatives": [
          {
            "confidence": 0.9413329,
            "transcript": " and only one form of the word princess if you can either work walk I want want to give me walking and walked also one form to word no proper name a word that starts with the letter f",
            "words": [
              {
                "endTime": "89.600s",
                "startTime": "89.200s",
                "word": "and"
              },
              {
                "endTime": "89.700s",
                "startTime": "89.600s",
                "word": "only"
              },
              {
                "endTime": "90.100s",
                "startTime": "89.700s",
                "word": "one"
              },
              {
                "endTime": "90.600s",
                "startTime": "90.100s",
                "word": "form"
              },
              {
                "endTime": "90.600s",
                "startTime": "90.600s",
                "word": "of"
              },
              {
                "endTime": "90.800s",
                "startTime": "90.600s",
                "word": "the"
              },
              {
                "endTime": "91s",
                "startTime": "90.800s",
                "word": "word"
              },
              {
                "endTime": "92.300s",
                "startTime": "91s",
                "word": "princess"
              },
              {
                "endTime": "92.500s",
                "startTime": "92.300s",
                "word": "if"
              },
              {
                "endTime": "92.600s",
                "startTime": "92.500s",
                "word": "you"
              },
              {
                "endTime": "92.800s",
                "startTime": "92.600s",
                "word": "can"
              },
              {
                "endTime": "93s",
                "startTime": "92.800s",
                "word": "either"
              },
              {
                "endTime": "93.300s",
                "startTime": "93s",
                "word": "work"
              },
              {
                "endTime": "93.900s",
                "startTime": "93.300s",
                "word": "walk"
              },
              {
                "endTime": "94.200s",
                "startTime": "93.900s",
                "word": "I"
              },
              {
                "endTime": "94.400s",
                "startTime": "94.200s",
                "word": "want"
              },
              {
                "endTime": "94.700s",
                "startTime": "94.400s",
                "word": "want"
              },
              {
                "endTime": "94.800s",
                "startTime": "94.700s",
                "word": "to"
              },
              {
                "endTime": "95s",
                "startTime": "94.800s",
                "word": "give"
              },
              {
                "endTime": "95.100s",
                "startTime": "95s",
                "word": "me"
              },
              {
                "endTime": "95.500s",
                "startTime": "95.100s",
                "word": "walking"
              },
              {
                "endTime": "95.900s",
                "startTime": "95.500s",
                "word": "and"
              },
              {
                "endTime": "96.400s",
                "startTime": "95.900s",
                "word": "walked"
              },
              {
                "endTime": "97.100s",
                "startTime": "96.400s",
                "word": "also"
              },
              {
                "endTime": "98.400s",
                "startTime": "97.100s",
                "word": "one"
              },
              {
                "endTime": "98.800s",
                "startTime": "98.400s",
                "word": "form"
              },
              {
                "endTime": "98.900s",
                "startTime": "98.800s",
                "word": "to"
              },
              {
                "endTime": "99.300s",
                "startTime": "98.900s",
                "word": "word"
              },
              {
                "endTime": "99.500s",
                "startTime": "99.300s",
                "word": "no"
              },
              {
                "endTime": "100s",
                "startTime": "99.500s",
                "word": "proper"
              },
              {
                "endTime": "100.300s",
                "startTime": "100s",
                "word": "name"
              },
              {
                "endTime": "100.900s",
                "startTime": "100.300s",
                "word": "a"
              },
              {
                "endTime": "101.500s",
                "startTime": "100.900s",
                "word": "word"
              },
              {
                "endTime": "101.600s",
                "startTime": "101.500s",
                "word": "that"
              },
              {
                "endTime": "102.400s",
                "startTime": "101.600s",
                "word": "starts"
              },
              {
                "endTime": "102.700s",
                "startTime": "102.400s",
                "word": "with"
              },
              {
                "endTime": "102.900s",
                "startTime": "102.700s",
                "word": "the"
              },
              {
                "endTime": "103s",
                "startTime": "102.900s",
                "word": "letter"
              },
              {
                "endTime": "103.600s",
                "startTime": "103s",
                "word": "f"
              }
            ]
          }
        ]
      },
      {
        "alternatives": [
          {
            "confidence": 0.6587008,
            "transcript": " can I give you minutes",
            "words": [
              {
                "endTime": "105s",
                "startTime": "104.500s",
                "word": "can"
              },
              {
                "endTime": "105s",
                "startTime": "105s",
                "word": "I"
              },
              {
                "endTime": "105.700s",
                "startTime": "105s",
                "word": "give"
              },
              {
                "endTime": "105.800s",
                "startTime": "105.700s",
                "word": "you"
              },
              {
                "endTime": "106.400s",
                "startTime": "105.800s",
                "word": "minutes"
              }
            ]
          }
        ]
      },
      {
        "alternatives": [
          {
            "confidence": 0.69798195,
            "transcript": " ready Beacon",
            "words": [
              {
                "endTime": "108.100s",
                "startTime": "107.500s",
                "word": "ready"
              },
              {
                "endTime": "109.400s",
                "startTime": "108.100s",
                "word": "Beacon"
              }
            ]
          }
        ]
      },
      {
        "alternatives": [
          {
            "confidence": 0.26111418,
            "transcript": " Roar",
            "words": [
              {
                "endTime": "111.800s",
                "startTime": "111.100s",
                "word": "Roar"
              }
            ]
          }
        ]
      },
      {
        "alternatives": [
          {
            "confidence": 0.889298,
            "transcript": " anything starts with s",
            "words": [
              {
                "endTime": "123.700s",
                "startTime": "123.100s",
                "word": "anything"
              },
              {
                "endTime": "124.200s",
                "startTime": "123.700s",
                "word": "starts"
              },
              {
                "endTime": "124.400s",
                "startTime": "124.200s",
                "word": "with"
              },
              {
                "endTime": "124.600s",
                "startTime": "124.400s",
                "word": "s"
              }
            ]
          }
        ]
      },
      {
        "alternatives": [
          {
            "confidence": 0.6449303,
            "transcript": " what",
            "words": [
              {
                "endTime": "140.900s",
                "startTime": "140.400s",
                "word": "what"
              }
            ]
          }
        ]
      },
      {
        "alternatives": [
          {
            "confidence": 0.6716714,
            "transcript": " Friday",
            "words": [
              {
                "endTime": "169.100s",
                "startTime": "168.500s",
                "word": "Friday"
              }
            ]
          }
        ]
      },
      {
        "alternatives": [
          {
            "confidence": 0.7426743,
            "transcript": " okay that's awesome",
            "words": [
              {
                "endTime": "172.800s",
                "startTime": "172.100s",
                "word": "okay"
              },
              {
                "endTime": "173.100s",
                "startTime": "172.800s",
                "word": "that's"
              },
              {
                "endTime": "173.200s",
                "startTime": "173.100s",
                "word": "awesome"
              }
            ]
          }
        ]
      }
    ]
  }
}
