{
  "done": true,
  "metadata": {
    "@type": "type.googleapis.com/google.cloud.speech.v1.LongRunningRecognizeMetadata",
    "lastUpdateTime": "2021-03-11T20:27:01.568263Z",
    "progressPercent": 100,
    "startTime": "2021-03-11T20:26:41.346535Z",
    "uri": "gs://adresso/ADReSSo21-progression-test/progression/test-dist/audio/train/no_decline/adrsp030.wav"
  },
  "name": "6258165318900635985",
  "response": {
    "@type": "type.googleapis.com/google.cloud.speech.v1.LongRunningRecognizeResponse",
    "results": [
      {
        "alternatives": [
          {
            "confidence": 0.71517175,
            "transcript": "dogs flying cebra",
            "words": [
              {
                "endTime": "6.900s",
                "startTime": "1.600s",
                "word": "dogs"
              },
              {
                "endTime": "7.800s",
                "startTime": "6.900s",
                "word": "flying"
              },
              {
                "endTime": "9.100s",
                "startTime": "7.800s",
                "word": "cebra"
              }
            ]
          }
        ]
      },
      {
        "alternatives": [
          {
            "confidence": 0.93854386,
            "transcript": " a horse",
            "words": [
              {
                "endTime": "24.600s",
                "startTime": "24.200s",
                "word": "a"
              },
              {
                "endTime": "25.200s",
                "startTime": "24.600s",
                "word": "horse"
              }
            ]
          }
        ]
      },
      {
        "alternatives": [
          {
            "confidence": 0.890852,
            "transcript": " donkey",
            "words": [
              {
                "endTime": "28.800s",
                "startTime": "28s",
                "word": "donkey"
              }
            ]
          }
        ]
      },
      {
        "alternatives": [
          {
            "confidence": 0.81397957,
            "transcript": " monkey",
            "words": [
              {
                "endTime": "40.500s",
                "startTime": "39.800s",
                "word": "monkey"
              }
            ]
          }
        ]
      },
      {
        "alternatives": [
          {
            "confidence": 0.63828564,
            "transcript": " cats cats",
            "words": [
              {
                "endTime": "59.600s",
                "startTime": "56.800s",
                "word": "cats"
              },
              {
                "endTime": "59.800s",
                "startTime": "59.600s",
                "word": "cats"
              }
            ]
          }
        ]
      },
      {
        "alternatives": [
          {
            "confidence": 0.89258957,
            "transcript": " okay",
            "words": [
              {
                "endTime": "67.100s",
                "startTime": "65.700s",
                "word": "okay"
              }
            ]
          }
        ]
      },
      {
        "alternatives": [
          {
            "confidence": 0.46372843,
            "transcript": " Frank",
            "words": [
              {
                "endTime": "75.200s",
                "startTime": "74.400s",
                "word": "Frank"
              }
            ]
          }
        ]
      },
      {
        "alternatives": [
          {
            "confidence": 0.9540819,
            "transcript": " freedom",
            "words": [
              {
                "endTime": "94.600s",
                "startTime": "93.700s",
                "word": "freedom"
              }
            ]
          }
        ]
      },
      {
        "alternatives": [
          {
            "confidence": 0.9515801,
            "transcript": " that's about all I can think of",
            "words": [
              {
                "endTime": "114.200s",
                "startTime": "112.700s",
                "word": "that's"
              },
              {
                "endTime": "114.400s",
                "startTime": "114.200s",
                "word": "about"
              },
              {
                "endTime": "114.700s",
                "startTime": "114.400s",
                "word": "all"
              },
              {
                "endTime": "114.900s",
                "startTime": "114.700s",
                "word": "I"
              },
              {
                "endTime": "115.100s",
                "startTime": "114.900s",
                "word": "can"
              },
              {
                "endTime": "115.200s",
                "startTime": "115.100s",
                "word": "think"
              },
              {
                "endTime": "115.600s",
                "startTime": "115.200s",
                "word": "of"
              }
            ]
          }
        ]
      },
      {
        "alternatives": [
          {
            "confidence": 0.9744847,
            "transcript": " father",
            "words": [
              {
                "endTime": "120.900s",
                "startTime": "120.200s",
                "word": "father"
              }
            ]
          }
        ]
      }
    ]
  }
}
