{
  "done": true,
  "metadata": {
    "@type": "type.googleapis.com/google.cloud.speech.v1.LongRunningRecognizeMetadata",
    "lastUpdateTime": "2021-03-11T20:27:32.819058Z",
    "progressPercent": 100,
    "startTime": "2021-03-11T20:27:15.154433Z",
    "uri": "gs://adresso/ADReSSo21-progression-test/progression/test-dist/audio/train/no_decline/adrsp195.wav"
  },
  "name": "1349647122385982140",
  "response": {
    "@type": "type.googleapis.com/google.cloud.speech.v1.LongRunningRecognizeResponse",
    "results": [
      {
        "alternatives": [
          {
            "confidence": 0.98762906,
            "transcript": "and you can begin now",
            "words": [
              {
                "endTime": "2.900s",
                "startTime": "2.500s",
                "word": "and"
              },
              {
                "endTime": "3s",
                "startTime": "2.900s",
                "word": "you"
              },
              {
                "endTime": "3.200s",
                "startTime": "3s",
                "word": "can"
              },
              {
                "endTime": "3.400s",
                "startTime": "3.200s",
                "word": "begin"
              },
              {
                "endTime": "4.400s",
                "startTime": "3.400s",
                "word": "now"
              }
            ]
          }
        ]
      },
      {
        "alternatives": [
          {
            "confidence": 0.63449174,
            "transcript": " horse style lamb",
            "words": [
              {
                "endTime": "6.400s",
                "startTime": "5.600s",
                "word": "horse"
              },
              {
                "endTime": "7.100s",
                "startTime": "6.400s",
                "word": "style"
              },
              {
                "endTime": "10.200s",
                "startTime": "7.100s",
                "word": "lamb"
              }
            ]
          }
        ]
      },
      {
        "alternatives": [
          {
            "confidence": 0.7961064,
            "transcript": " cat",
            "words": [
              {
                "endTime": "17.800s",
                "startTime": "17s",
                "word": "cat"
              }
            ]
          }
        ]
      },
      {
        "alternatives": [
          {
            "confidence": 0.9285367,
            "transcript": " dog",
            "words": [
              {
                "endTime": "19.500s",
                "startTime": "18.800s",
                "word": "dog"
              }
            ]
          }
        ]
      },
      {
        "alternatives": [
          {
            "confidence": 1,
            "transcript": " Pier",
            "words": [
              {
                "endTime": "23.400s",
                "startTime": "22.900s",
                "word": "Pier"
              }
            ]
          }
        ]
      },
      {
        "alternatives": [
          {
            "confidence": 0.5744659,
            "transcript": " Emmaus",
            "words": [
              {
                "endTime": "28.700s",
                "startTime": "27.900s",
                "word": "Emmaus"
              }
            ]
          }
        ]
      },
      {
        "alternatives": [
          {
            "confidence": 0.8082777,
            "transcript": " rat",
            "words": [
              {
                "endTime": "31.400s",
                "startTime": "30.600s",
                "word": "rat"
              }
            ]
          }
        ]
      },
      {
        "alternatives": [
          {
            "confidence": 0.91786397,
            "transcript": " a goat",
            "words": [
              {
                "endTime": "37.900s",
                "startTime": "36.500s",
                "word": "a"
              },
              {
                "endTime": "38.400s",
                "startTime": "37.900s",
                "word": "goat"
              }
            ]
          }
        ]
      },
      {
        "alternatives": [
          {
            "confidence": 0.62296647,
            "transcript": " lamb",
            "words": [
              {
                "endTime": "41.100s",
                "startTime": "40.300s",
                "word": "lamb"
              }
            ]
          }
        ]
      },
      {
        "alternatives": [
          {
            "confidence": 0.7681095,
            "transcript": " he said hoersten",
            "words": [
              {
                "endTime": "45.700s",
                "startTime": "45.200s",
                "word": "he"
              },
              {
                "endTime": "45.900s",
                "startTime": "45.700s",
                "word": "said"
              },
              {
                "endTime": "46.600s",
                "startTime": "45.900s",
                "word": "hoersten"
              }
            ]
          }
        ]
      },
      {
        "alternatives": [
          {
            "confidence": 0.95491457,
            "transcript": " Pig",
            "words": [
              {
                "endTime": "52.100s",
                "startTime": "51.400s",
                "word": "Pig"
              }
            ]
          }
        ]
      },
      {
        "alternatives": [
          {
            "confidence": 0.95547056,
            "transcript": " squirrel",
            "words": [
              {
                "endTime": "55.900s",
                "startTime": "55.100s",
                "word": "squirrel"
              }
            ]
          }
        ]
      },
      {
        "alternatives": [
          {
            "confidence": 0.89956886,
            "transcript": " snakes reptile okay that's fine I'm going to ask you do here",
            "words": [
              {
                "endTime": "63.300s",
                "startTime": "62.700s",
                "word": "snakes"
              },
              {
                "endTime": "63.900s",
                "startTime": "63.300s",
                "word": "reptile"
              },
              {
                "endTime": "64.800s",
                "startTime": "63.900s",
                "word": "okay"
              },
              {
                "endTime": "65.200s",
                "startTime": "64.800s",
                "word": "that's"
              },
              {
                "endTime": "65.400s",
                "startTime": "65.200s",
                "word": "fine"
              },
              {
                "endTime": "66.400s",
                "startTime": "65.400s",
                "word": "I'm"
              },
              {
                "endTime": "66.600s",
                "startTime": "66.400s",
                "word": "going"
              },
              {
                "endTime": "66.800s",
                "startTime": "66.600s",
                "word": "to"
              },
              {
                "endTime": "67s",
                "startTime": "66.800s",
                "word": "ask"
              },
              {
                "endTime": "67.300s",
                "startTime": "67s",
                "word": "you"
              },
              {
                "endTime": "72s",
                "startTime": "67.300s",
                "word": "do"
              },
              {
                "endTime": "72.300s",
                "startTime": "72s",
                "word": "here"
              }
            ]
          }
        ]
      },
      {
        "alternatives": [
          {
            "confidence": 0.40788528,
            "transcript": " feel",
            "words": [
              {
                "endTime": "74.900s",
                "startTime": "74.200s",
                "word": "feel"
              }
            ]
          }
        ]
      },
      {
        "alternatives": [
          {
            "confidence": 0.7277832,
            "transcript": " pants",
            "words": [
              {
                "endTime": "76.900s",
                "startTime": "76.200s",
                "word": "pants"
              }
            ]
          }
        ]
      },
      {
        "alternatives": [
          {
            "confidence": 0.94527024,
            "transcript": " food",
            "words": [
              {
                "endTime": "83.900s",
                "startTime": "83.200s",
                "word": "food"
              }
            ]
          }
        ]
      },
      {
        "alternatives": [
          {
            "confidence": 0.60422724,
            "transcript": " humble",
            "words": [
              {
                "endTime": "86.300s",
                "startTime": "85.500s",
                "word": "humble"
              }
            ]
          }
        ]
      },
      {
        "alternatives": [
          {
            "confidence": 0.88548416,
            "transcript": " fixture",
            "words": [
              {
                "endTime": "91.600s",
                "startTime": "90.800s",
                "word": "fixture"
              }
            ]
          }
        ]
      },
      {
        "alternatives": [
          {
            "confidence": 0.7825755,
            "transcript": " pork",
            "words": [
              {
                "endTime": "97.300s",
                "startTime": "96.700s",
                "word": "pork"
              }
            ]
          }
        ]
      },
      {
        "alternatives": [
          {
            "confidence": 0.9488531,
            "transcript": " friend",
            "words": [
              {
                "endTime": "100.900s",
                "startTime": "100.100s",
                "word": "friend"
              }
            ]
          }
        ]
      },
      {
        "alternatives": [
          {
            "confidence": 0.88470054,
            "transcript": " I said vinston",
            "words": [
              {
                "endTime": "122.700s",
                "startTime": "122.300s",
                "word": "I"
              },
              {
                "endTime": "123s",
                "startTime": "122.700s",
                "word": "said"
              },
              {
                "endTime": "123.600s",
                "startTime": "123s",
                "word": "vinston"
              }
            ]
          }
        ]
      },
      {
        "alternatives": [
          {
            "confidence": 0.26768512,
            "transcript": " ok Google",
            "words": [
              {
                "endTime": "129.200s",
                "startTime": "128.300s",
                "word": "ok"
              },
              {
                "endTime": "129.700s",
                "startTime": "129.200s",
                "word": "Google"
              }
            ]
          }
        ]
      }
    ]
  }
}
