{
  "done": true,
  "metadata": {
    "@type": "type.googleapis.com/google.cloud.speech.v1.LongRunningRecognizeMetadata",
    "lastUpdateTime": "2021-03-11T20:27:02.557806Z",
    "progressPercent": 100,
    "startTime": "2021-03-11T20:26:42.697497Z",
    "uri": "gs://adresso/ADReSSo21-progression-test/progression/test-dist/audio/train/no_decline/adrsp031.wav"
  },
  "name": "6720574348594570286",
  "response": {
    "@type": "type.googleapis.com/google.cloud.speech.v1.LongRunningRecognizeResponse",
    "results": [
      {
        "alternatives": [
          {
            "confidence": 0.49510804,
            "transcript": "dog cat",
            "words": [
              {
                "endTime": "4s",
                "startTime": "1.900s",
                "word": "dog"
              },
              {
                "endTime": "4.600s",
                "startTime": "4s",
                "word": "cat"
              }
            ]
          }
        ]
      },
      {
        "alternatives": [
          {
            "confidence": 0.8329296,
            "transcript": " elephants giraffes",
            "words": [
              {
                "endTime": "23.500s",
                "startTime": "22.600s",
                "word": "elephants"
              },
              {
                "endTime": "23.800s",
                "startTime": "23.500s",
                "word": "giraffes"
              }
            ]
          }
        ]
      },
      {
        "alternatives": [
          {
            "confidence": 0.60614467,
            "transcript": " Roosters Men's",
            "words": [
              {
                "endTime": "36.500s",
                "startTime": "35.500s",
                "word": "Roosters"
              },
              {
                "endTime": "37.300s",
                "startTime": "36.500s",
                "word": "Men's"
              }
            ]
          }
        ]
      },
      {
        "alternatives": [
          {
            "confidence": 0.80062705,
            "transcript": " squirrels",
            "words": [
              {
                "endTime": "40.900s",
                "startTime": "40.100s",
                "word": "squirrels"
              }
            ]
          }
        ]
      },
      {
        "alternatives": [
          {
            "confidence": 0.4978339,
            "transcript": " snakes",
            "words": [
              {
                "endTime": "51.200s",
                "startTime": "50.300s",
                "word": "snakes"
              }
            ]
          }
        ]
      },
      {
        "alternatives": [
          {
            "confidence": 0.7635289,
            "transcript": " Farm female sweats",
            "words": [
              {
                "endTime": "71.400s",
                "startTime": "66.400s",
                "word": "Farm"
              },
              {
                "endTime": "72.100s",
                "startTime": "71.400s",
                "word": "female"
              },
              {
                "endTime": "72.800s",
                "startTime": "72.100s",
                "word": "sweats"
              }
            ]
          }
        ]
      },
      {
        "alternatives": [
          {
            "confidence": 0.44692865,
            "transcript": " broccoli",
            "words": [
              {
                "endTime": "82.300s",
                "startTime": "81.500s",
                "word": "broccoli"
              }
            ]
          }
        ]
      },
      {
        "alternatives": [
          {
            "confidence": 0.9552618,
            "transcript": " family",
            "words": [
              {
                "endTime": "99.900s",
                "startTime": "99.200s",
                "word": "family"
              }
            ]
          }
        ]
      },
      {
        "alternatives": [
          {
            "confidence": 0.8342533,
            "transcript": " forest",
            "words": [
              {
                "endTime": "106.300s",
                "startTime": "105.500s",
                "word": "forest"
              }
            ]
          }
        ]
      },
      {
        "alternatives": [
          {
            "confidence": 0.7761197,
            "transcript": " that's all",
            "words": [
              {
                "endTime": "128.400s",
                "startTime": "127.900s",
                "word": "that's"
              },
              {
                "endTime": "128.700s",
                "startTime": "128.400s",
                "word": "all"
              }
            ]
          }
        ]
      }
    ]
  }
}
