{
  "done": true,
  "metadata": {
    "@type": "type.googleapis.com/google.cloud.speech.v1.LongRunningRecognizeMetadata",
    "lastUpdateTime": "2021-03-11T20:26:54.104343Z",
    "progressPercent": 100,
    "startTime": "2021-03-11T20:26:38.494413Z",
    "uri": "gs://adresso/ADReSSo21-progression-test/progression/test-dist/audio/train/no_decline/adrsp024.wav"
  },
  "name": "8089197925943610467",
  "response": {
    "@type": "type.googleapis.com/google.cloud.speech.v1.LongRunningRecognizeResponse",
    "results": [
      {
        "alternatives": [
          {
            "confidence": 0.48070976,
            "transcript": "cat",
            "words": [
              {
                "endTime": "3.400s",
                "startTime": "2.800s",
                "word": "cat"
              }
            ]
          }
        ]
      },
      {
        "alternatives": [
          {
            "confidence": 0.9253036,
            "transcript": " dog",
            "words": [
              {
                "endTime": "5.200s",
                "startTime": "4.500s",
                "word": "dog"
              }
            ]
          }
        ]
      },
      {
        "alternatives": [
          {
            "confidence": 0.9734839,
            "transcript": " chicken",
            "words": [
              {
                "endTime": "8.100s",
                "startTime": "7.400s",
                "word": "chicken"
              }
            ]
          }
        ]
      },
      {
        "alternatives": [
          {
            "confidence": 0.8765189,
            "transcript": " rooster",
            "words": [
              {
                "endTime": "11.300s",
                "startTime": "10.400s",
                "word": "rooster"
              }
            ]
          }
        ]
      },
      {
        "alternatives": [
          {
            "confidence": 0.43240702,
            "transcript": " dig",
            "words": [
              {
                "endTime": "14.100s",
                "startTime": "13.600s",
                "word": "dig"
              }
            ]
          }
        ]
      },
      {
        "alternatives": [
          {
            "confidence": 0.7600756,
            "transcript": " sheep",
            "words": [
              {
                "endTime": "16.900s",
                "startTime": "16s",
                "word": "sheep"
              }
            ]
          }
        ]
      },
      {
        "alternatives": [
          {
            "confidence": 0.47164047,
            "transcript": " goat",
            "words": [
              {
                "endTime": "19.400s",
                "startTime": "18.800s",
                "word": "goat"
              }
            ]
          }
        ]
      },
      {
        "alternatives": [
          {
            "confidence": 0.5320091,
            "transcript": " how",
            "words": [
              {
                "endTime": "21.800s",
                "startTime": "21.400s",
                "word": "how"
              }
            ]
          }
        ]
      },
      {
        "alternatives": [
          {
            "confidence": 0.948082,
            "transcript": " horse",
            "words": [
              {
                "endTime": "24.600s",
                "startTime": "24s",
                "word": "horse"
              }
            ]
          }
        ]
      },
      {
        "alternatives": [
          {
            "confidence": 0.8548816,
            "transcript": " pony",
            "words": [
              {
                "endTime": "27.800s",
                "startTime": "27.100s",
                "word": "pony"
              }
            ]
          }
        ]
      },
      {
        "alternatives": [
          {
            "confidence": 0.8929464,
            "transcript": " zebra",
            "words": [
              {
                "endTime": "31.500s",
                "startTime": "30.700s",
                "word": "zebra"
              }
            ]
          }
        ]
      },
      {
        "alternatives": [
          {
            "confidence": 0.85348034,
            "transcript": " lion",
            "words": [
              {
                "endTime": "34.900s",
                "startTime": "34.100s",
                "word": "lion"
              }
            ]
          }
        ]
      },
      {
        "alternatives": [
          {
            "confidence": 0.94028735,
            "transcript": " tiger",
            "words": [
              {
                "endTime": "38.400s",
                "startTime": "37.700s",
                "word": "tiger"
              }
            ]
          }
        ]
      },
      {
        "alternatives": [
          {
            "confidence": 0.60616565,
            "transcript": " answer",
            "words": [
              {
                "endTime": "42.200s",
                "startTime": "41.400s",
                "word": "answer"
              }
            ]
          }
        ]
      },
      {
        "alternatives": [
          {
            "confidence": 0.9527445,
            "transcript": " leopard",
            "words": [
              {
                "endTime": "45.700s",
                "startTime": "44.900s",
                "word": "leopard"
              }
            ]
          }
        ]
      },
      {
        "alternatives": [
          {
            "confidence": 0.7362762,
            "transcript": " Puma",
            "words": [
              {
                "endTime": "48.700s",
                "startTime": "48.100s",
                "word": "Puma"
              }
            ]
          }
        ]
      },
      {
        "alternatives": [
          {
            "confidence": 0.62442684,
            "transcript": " elephants",
            "words": [
              {
                "endTime": "51.600s",
                "startTime": "50.600s",
                "word": "elephants"
              }
            ]
          }
        ]
      },
      {
        "alternatives": [
          {
            "confidence": 0.98762906,
            "transcript": " water buffalo",
            "words": [
              {
                "endTime": "56.700s",
                "startTime": "56.100s",
                "word": "water"
              },
              {
                "endTime": "57.100s",
                "startTime": "56.700s",
                "word": "buffalo"
              }
            ]
          }
        ]
      },
      {
        "alternatives": [
          {
            "confidence": 0.94786674,
            "transcript": " gosh look at that",
            "words": [
              {
                "endTime": "66.300s",
                "startTime": "65.700s",
                "word": "gosh"
              },
              {
                "endTime": "66.600s",
                "startTime": "66.300s",
                "word": "look"
              },
              {
                "endTime": "66.700s",
                "startTime": "66.600s",
                "word": "at"
              },
              {
                "endTime": "66.900s",
                "startTime": "66.700s",
                "word": "that"
              }
            ]
          }
        ]
      },
      {
        "alternatives": [
          {
            "confidence": 0.887949,
            "transcript": " how about fruit",
            "words": [
              {
                "endTime": "69.700s",
                "startTime": "69.400s",
                "word": "how"
              },
              {
                "endTime": "69.900s",
                "startTime": "69.700s",
                "word": "about"
              },
              {
                "endTime": "70.500s",
                "startTime": "69.900s",
                "word": "fruit"
              }
            ]
          }
        ]
      },
      {
        "alternatives": [
          {
            "confidence": 0.5515302,
            "transcript": " Stan",
            "words": [
              {
                "endTime": "73.600s",
                "startTime": "72.800s",
                "word": "Stan"
              }
            ]
          }
        ]
      },
      {
        "alternatives": [
          {
            "confidence": 0.619291,
            "transcript": " fight",
            "words": [
              {
                "endTime": "79.400s",
                "startTime": "78.800s",
                "word": "fight"
              }
            ]
          }
        ]
      },
      {
        "alternatives": [
          {
            "confidence": 0.34023112,
            "transcript": " deer",
            "words": [
              {
                "endTime": "82.800s",
                "startTime": "82.200s",
                "word": "deer"
              }
            ]
          }
        ]
      },
      {
        "alternatives": [
          {
            "confidence": 0.9772207,
            "transcript": " find",
            "words": [
              {
                "endTime": "115.300s",
                "startTime": "114.700s",
                "word": "find"
              }
            ]
          }
        ]
      },
      {
        "alternatives": [
          {
            "confidence": 0.5098868,
            "transcript": " flag",
            "words": [
              {
                "endTime": "124.300s",
                "startTime": "123.600s",
                "word": "flag"
              }
            ]
          }
        ]
      }
    ]
  }
}
