{
  "done": true,
  "metadata": {
    "@type": "type.googleapis.com/google.cloud.speech.v1.LongRunningRecognizeMetadata",
    "lastUpdateTime": "2021-03-11T20:28:12.965417Z",
    "progressPercent": 100,
    "startTime": "2021-03-11T20:27:44.788591Z",
    "uri": "gs://adresso/ADReSSo21-progression-test/progression/test-dist/audio/train/no_decline/adrsp368.wav"
  },
  "name": "6720574348594571994",
  "response": {
    "@type": "type.googleapis.com/google.cloud.speech.v1.LongRunningRecognizeResponse",
    "results": [
      {
        "alternatives": [
          {
            "confidence": 0.92654574,
            "transcript": "example for a zebra kangaroo",
            "words": [
              {
                "endTime": "2.700s",
                "startTime": "1.100s",
                "word": "example"
              },
              {
                "endTime": "2.900s",
                "startTime": "2.700s",
                "word": "for"
              },
              {
                "endTime": "3s",
                "startTime": "2.900s",
                "word": "a"
              },
              {
                "endTime": "13.500s",
                "startTime": "3s",
                "word": "zebra"
              },
              {
                "endTime": "16s",
                "startTime": "13.500s",
                "word": "kangaroo"
              }
            ]
          }
        ]
      },
      {
        "alternatives": [
          {
            "confidence": 0.5148901,
            "transcript": " dog",
            "words": [
              {
                "endTime": "26.700s",
                "startTime": "21.700s",
                "word": "dog"
              }
            ]
          }
        ]
      },
      {
        "alternatives": [
          {
            "confidence": 0.9530851,
            "transcript": " giraffe",
            "words": [
              {
                "endTime": "43.100s",
                "startTime": "42.100s",
                "word": "giraffe"
              }
            ]
          }
        ]
      },
      {
        "alternatives": [
          {
            "confidence": 0.94978285,
            "transcript": " elephant tiger",
            "words": [
              {
                "endTime": "54.900s",
                "startTime": "54s",
                "word": "elephant"
              },
              {
                "endTime": "55.800s",
                "startTime": "54.900s",
                "word": "tiger"
              }
            ]
          }
        ]
      },
      {
        "alternatives": [
          {
            "confidence": 0.79571694,
            "transcript": " a route to save rabbit",
            "words": [
              {
                "endTime": "59.500s",
                "startTime": "59.200s",
                "word": "a"
              },
              {
                "endTime": "59.800s",
                "startTime": "59.500s",
                "word": "route"
              },
              {
                "endTime": "60s",
                "startTime": "59.800s",
                "word": "to"
              },
              {
                "endTime": "60.400s",
                "startTime": "60s",
                "word": "save"
              },
              {
                "endTime": "60.600s",
                "startTime": "60.400s",
                "word": "rabbit"
              }
            ]
          }
        ]
      },
      {
        "alternatives": [
          {
            "confidence": 0.70956105,
            "transcript": " all right that's very good",
            "words": [
              {
                "endTime": "64.100s",
                "startTime": "62.500s",
                "word": "all"
              },
              {
                "endTime": "64.300s",
                "startTime": "64.100s",
                "word": "right"
              },
              {
                "endTime": "64.400s",
                "startTime": "64.300s",
                "word": "that's"
              },
              {
                "endTime": "65.600s",
                "startTime": "64.400s",
                "word": "very"
              },
              {
                "endTime": "65.800s",
                "startTime": "65.600s",
                "word": "good"
              }
            ]
          }
        ]
      },
      {
        "alternatives": [
          {
            "confidence": 0.95382494,
            "transcript": " I'm going to give you another minute and in that minutes time I want for you to name as many words as you can think of the start with the letter F all the words with the letter F no proper names of people or places",
            "words": [
              {
                "endTime": "68.400s",
                "startTime": "67.100s",
                "word": "I'm"
              },
              {
                "endTime": "68.600s",
                "startTime": "68.400s",
                "word": "going"
              },
              {
                "endTime": "68.700s",
                "startTime": "68.600s",
                "word": "to"
              },
              {
                "endTime": "68.800s",
                "startTime": "68.700s",
                "word": "give"
              },
              {
                "endTime": "68.900s",
                "startTime": "68.800s",
                "word": "you"
              },
              {
                "endTime": "69.200s",
                "startTime": "68.900s",
                "word": "another"
              },
              {
                "endTime": "69.600s",
                "startTime": "69.200s",
                "word": "minute"
              },
              {
                "endTime": "70.200s",
                "startTime": "69.600s",
                "word": "and"
              },
              {
                "endTime": "70.400s",
                "startTime": "70.200s",
                "word": "in"
              },
              {
                "endTime": "70.600s",
                "startTime": "70.400s",
                "word": "that"
              },
              {
                "endTime": "71s",
                "startTime": "70.600s",
                "word": "minutes"
              },
              {
                "endTime": "71.300s",
                "startTime": "71s",
                "word": "time"
              },
              {
                "endTime": "71.400s",
                "startTime": "71.300s",
                "word": "I"
              },
              {
                "endTime": "71.700s",
                "startTime": "71.400s",
                "word": "want"
              },
              {
                "endTime": "71.800s",
                "startTime": "71.700s",
                "word": "for"
              },
              {
                "endTime": "71.900s",
                "startTime": "71.800s",
                "word": "you"
              },
              {
                "endTime": "72s",
                "startTime": "71.900s",
                "word": "to"
              },
              {
                "endTime": "72.300s",
                "startTime": "72s",
                "word": "name"
              },
              {
                "endTime": "72.700s",
                "startTime": "72.300s",
                "word": "as"
              },
              {
                "endTime": "72.800s",
                "startTime": "72.700s",
                "word": "many"
              },
              {
                "endTime": "73.500s",
                "startTime": "72.800s",
                "word": "words"
              },
              {
                "endTime": "73.500s",
                "startTime": "73.500s",
                "word": "as"
              },
              {
                "endTime": "73.600s",
                "startTime": "73.500s",
                "word": "you"
              },
              {
                "endTime": "73.800s",
                "startTime": "73.600s",
                "word": "can"
              },
              {
                "endTime": "74s",
                "startTime": "73.800s",
                "word": "think"
              },
              {
                "endTime": "74.200s",
                "startTime": "74s",
                "word": "of"
              },
              {
                "endTime": "74.400s",
                "startTime": "74.200s",
                "word": "the"
              },
              {
                "endTime": "74.800s",
                "startTime": "74.400s",
                "word": "start"
              },
              {
                "endTime": "74.900s",
                "startTime": "74.800s",
                "word": "with"
              },
              {
                "endTime": "75.100s",
                "startTime": "74.900s",
                "word": "the"
              },
              {
                "endTime": "75.500s",
                "startTime": "75.100s",
                "word": "letter"
              },
              {
                "endTime": "75.700s",
                "startTime": "75.500s",
                "word": "F"
              },
              {
                "endTime": "77.100s",
                "startTime": "75.700s",
                "word": "all"
              },
              {
                "endTime": "77.200s",
                "startTime": "77.100s",
                "word": "the"
              },
              {
                "endTime": "77.600s",
                "startTime": "77.200s",
                "word": "words"
              },
              {
                "endTime": "77.700s",
                "startTime": "77.600s",
                "word": "with"
              },
              {
                "endTime": "79.200s",
                "startTime": "77.700s",
                "word": "the"
              },
              {
                "endTime": "79.500s",
                "startTime": "79.200s",
                "word": "letter"
              },
              {
                "endTime": "79.800s",
                "startTime": "79.500s",
                "word": "F"
              },
              {
                "endTime": "80.900s",
                "startTime": "79.800s",
                "word": "no"
              },
              {
                "endTime": "81.400s",
                "startTime": "80.900s",
                "word": "proper"
              },
              {
                "endTime": "82.100s",
                "startTime": "81.400s",
                "word": "names"
              },
              {
                "endTime": "82.200s",
                "startTime": "82.100s",
                "word": "of"
              },
              {
                "endTime": "82.600s",
                "startTime": "82.200s",
                "word": "people"
              },
              {
                "endTime": "82.700s",
                "startTime": "82.600s",
                "word": "or"
              },
              {
                "endTime": "83s",
                "startTime": "82.700s",
                "word": "places"
              }
            ]
          }
        ]
      },
      {
        "alternatives": [
          {
            "confidence": 0.6495568,
            "transcript": " fruit",
            "words": [
              {
                "endTime": "108.600s",
                "startTime": "107.800s",
                "word": "fruit"
              }
            ]
          }
        ]
      },
      {
        "alternatives": [
          {
            "confidence": 0.8570488,
            "transcript": " Foreigner",
            "words": [
              {
                "endTime": "117.500s",
                "startTime": "115.500s",
                "word": "Foreigner"
              }
            ]
          }
        ]
      },
      {
        "alternatives": [
          {
            "confidence": 0.74628204,
            "transcript": " little flag",
            "words": [
              {
                "endTime": "122.300s",
                "startTime": "120.800s",
                "word": "little"
              },
              {
                "endTime": "124.500s",
                "startTime": "122.300s",
                "word": "flag"
              }
            ]
          }
        ]
      },
      {
        "alternatives": [
          {
            "confidence": 0.8298026,
            "transcript": " anything",
            "words": [
              {
                "endTime": "145.200s",
                "startTime": "144.500s",
                "word": "anything"
              }
            ]
          }
        ]
      },
      {
        "alternatives": [
          {
            "confidence": 0.9412206,
            "transcript": " I gave you a Frank Foreigner",
            "words": [
              {
                "endTime": "149.200s",
                "startTime": "148s",
                "word": "I"
              },
              {
                "endTime": "149.400s",
                "startTime": "149.200s",
                "word": "gave"
              },
              {
                "endTime": "149.500s",
                "startTime": "149.400s",
                "word": "you"
              },
              {
                "endTime": "149.600s",
                "startTime": "149.500s",
                "word": "a"
              },
              {
                "endTime": "149.900s",
                "startTime": "149.600s",
                "word": "Frank"
              },
              {
                "endTime": "153.100s",
                "startTime": "149.900s",
                "word": "Foreigner"
              }
            ]
          }
        ]
      },
      {
        "alternatives": [
          {
            "confidence": 0.61811745,
            "transcript": " frantic",
            "words": [
              {
                "endTime": "160.700s",
                "startTime": "160s",
                "word": "frantic"
              }
            ]
          }
        ]
      },
      {
        "alternatives": [
          {
            "confidence": 0.959397,
            "transcript": " fragile",
            "words": [
              {
                "endTime": "163.400s",
                "startTime": "162.200s",
                "word": "fragile"
              }
            ]
          }
        ]
      }
    ]
  }
}
