{
  "done": true,
  "metadata": {
    "@type": "type.googleapis.com/google.cloud.speech.v1.LongRunningRecognizeMetadata",
    "lastUpdateTime": "2021-03-11T20:27:59.368109Z",
    "progressPercent": 100,
    "startTime": "2021-03-11T20:27:39.273129Z",
    "uri": "gs://adresso/ADReSSo21-progression-test/progression/test-dist/audio/train/no_decline/adrsp349.wav"
  },
  "name": "7853205944030945492",
  "response": {
    "@type": "type.googleapis.com/google.cloud.speech.v1.LongRunningRecognizeResponse",
    "results": [
      {
        "alternatives": [
          {
            "confidence": 0.6772673,
            "transcript": "now fish",
            "words": [
              {
                "endTime": "1.400s",
                "startTime": "0s",
                "word": "now"
              },
              {
                "endTime": "6.800s",
                "startTime": "1.400s",
                "word": "fish"
              }
            ]
          }
        ]
      },
      {
        "alternatives": [
          {
            "confidence": 0.7688935,
            "transcript": " rhinoceros Tire line",
            "words": [
              {
                "endTime": "11.600s",
                "startTime": "8.900s",
                "word": "rhinoceros"
              },
              {
                "endTime": "12.500s",
                "startTime": "11.600s",
                "word": "Tire"
              },
              {
                "endTime": "13.200s",
                "startTime": "12.500s",
                "word": "line"
              }
            ]
          }
        ]
      },
      {
        "alternatives": [
          {
            "confidence": 0.96762013,
            "transcript": " hippopotamus zebra horse",
            "words": [
              {
                "endTime": "18.600s",
                "startTime": "17s",
                "word": "hippopotamus"
              },
              {
                "endTime": "19.900s",
                "startTime": "18.600s",
                "word": "zebra"
              },
              {
                "endTime": "20.600s",
                "startTime": "19.900s",
                "word": "horse"
              }
            ]
          }
        ]
      },
      {
        "alternatives": [
          {
            "confidence": 0.65456855,
            "transcript": " in",
            "words": [
              {
                "endTime": "23.900s",
                "startTime": "23.400s",
                "word": "in"
              }
            ]
          }
        ]
      },
      {
        "alternatives": [
          {
            "confidence": 0.8512434,
            "transcript": " chicken",
            "words": [
              {
                "endTime": "26.600s",
                "startTime": "25.600s",
                "word": "chicken"
              }
            ]
          }
        ]
      },
      {
        "alternatives": [
          {
            "confidence": 0.892743,
            "transcript": " chicken",
            "words": [
              {
                "endTime": "28.200s",
                "startTime": "27.500s",
                "word": "chicken"
              }
            ]
          }
        ]
      },
      {
        "alternatives": [
          {
            "confidence": 0.50605065,
            "transcript": " orangutan",
            "words": [
              {
                "endTime": "41.300s",
                "startTime": "40.400s",
                "word": "orangutan"
              }
            ]
          }
        ]
      },
      {
        "alternatives": [
          {
            "confidence": 0.90569776,
            "transcript": " Flying Tiger",
            "words": [
              {
                "endTime": "52.500s",
                "startTime": "50.700s",
                "word": "Flying"
              },
              {
                "endTime": "52.900s",
                "startTime": "52.500s",
                "word": "Tiger"
              }
            ]
          }
        ]
      },
      {
        "alternatives": [
          {
            "confidence": 0.854263,
            "transcript": " I said monkey",
            "words": [
              {
                "endTime": "56s",
                "startTime": "55.600s",
                "word": "I"
              },
              {
                "endTime": "56.700s",
                "startTime": "56s",
                "word": "said"
              },
              {
                "endTime": "57s",
                "startTime": "56.700s",
                "word": "monkey"
              }
            ]
          }
        ]
      },
      {
        "alternatives": [
          {
            "confidence": 0.8309947,
            "transcript": " okay tell me change directions tell me want you to do letter F and you can begin now",
            "words": [
              {
                "endTime": "61.200s",
                "startTime": "60.400s",
                "word": "okay"
              },
              {
                "endTime": "63s",
                "startTime": "61.200s",
                "word": "tell"
              },
              {
                "endTime": "63s",
                "startTime": "63s",
                "word": "me"
              },
              {
                "endTime": "63.500s",
                "startTime": "63s",
                "word": "change"
              },
              {
                "endTime": "64.100s",
                "startTime": "63.500s",
                "word": "directions"
              },
              {
                "endTime": "64.700s",
                "startTime": "64.100s",
                "word": "tell"
              },
              {
                "endTime": "64.800s",
                "startTime": "64.700s",
                "word": "me"
              },
              {
                "endTime": "65s",
                "startTime": "64.800s",
                "word": "want"
              },
              {
                "endTime": "65.100s",
                "startTime": "65s",
                "word": "you"
              },
              {
                "endTime": "65.200s",
                "startTime": "65.100s",
                "word": "to"
              },
              {
                "endTime": "65.400s",
                "startTime": "65.200s",
                "word": "do"
              },
              {
                "endTime": "65.600s",
                "startTime": "65.400s",
                "word": "letter"
              },
              {
                "endTime": "66s",
                "startTime": "65.600s",
                "word": "F"
              },
              {
                "endTime": "66.500s",
                "startTime": "66s",
                "word": "and"
              },
              {
                "endTime": "66.700s",
                "startTime": "66.500s",
                "word": "you"
              },
              {
                "endTime": "66.800s",
                "startTime": "66.700s",
                "word": "can"
              },
              {
                "endTime": "67s",
                "startTime": "66.800s",
                "word": "begin"
              },
              {
                "endTime": "67.400s",
                "startTime": "67s",
                "word": "now"
              }
            ]
          }
        ]
      },
      {
        "alternatives": [
          {
            "confidence": 0.9677976,
            "transcript": " for your phone",
            "words": [
              {
                "endTime": "70.700s",
                "startTime": "70s",
                "word": "for"
              },
              {
                "endTime": "71s",
                "startTime": "70.700s",
                "word": "your"
              },
              {
                "endTime": "72.200s",
                "startTime": "71s",
                "word": "phone"
              }
            ]
          }
        ]
      },
      {
        "alternatives": [
          {
            "confidence": 0.94961435,
            "transcript": " football",
            "words": [
              {
                "endTime": "74.200s",
                "startTime": "73.500s",
                "word": "football"
              }
            ]
          }
        ]
      },
      {
        "alternatives": [
          {
            "confidence": 0.6203468,
            "transcript": " furniture",
            "words": [
              {
                "endTime": "76.300s",
                "startTime": "75.300s",
                "word": "furniture"
              }
            ]
          }
        ]
      },
      {
        "alternatives": [
          {
            "confidence": 0.92440015,
            "transcript": " Ford",
            "words": [
              {
                "endTime": "79.200s",
                "startTime": "77.500s",
                "word": "Ford"
              }
            ]
          }
        ]
      },
      {
        "alternatives": [
          {
            "confidence": 0.7449384,
            "transcript": " freeway any word",
            "words": [
              {
                "endTime": "85.400s",
                "startTime": "83.600s",
                "word": "freeway"
              },
              {
                "endTime": "86.600s",
                "startTime": "85.400s",
                "word": "any"
              },
              {
                "endTime": "86.900s",
                "startTime": "86.600s",
                "word": "word"
              }
            ]
          }
        ]
      },
      {
        "alternatives": [
          {
            "confidence": 0.8877632,
            "transcript": " frisbee",
            "words": [
              {
                "endTime": "96.900s",
                "startTime": "96.100s",
                "word": "frisbee"
              }
            ]
          }
        ]
      },
      {
        "alternatives": [
          {
            "confidence": 0.57433903,
            "transcript": " recipes",
            "words": [
              {
                "endTime": "100.800s",
                "startTime": "99s",
                "word": "recipes"
              }
            ]
          }
        ]
      },
      {
        "alternatives": [
          {
            "confidence": 0.89217544,
            "transcript": " freeway",
            "words": [
              {
                "endTime": "111.300s",
                "startTime": "110.700s",
                "word": "freeway"
              }
            ]
          }
        ]
      },
      {
        "alternatives": [
          {
            "confidence": 0.9353156,
            "transcript": " Farm",
            "words": [
              {
                "endTime": "115.400s",
                "startTime": "114.700s",
                "word": "Farm"
              }
            ]
          }
        ]
      }
    ]
  }
}
