{
  "done": true,
  "metadata": {
    "@type": "type.googleapis.com/google.cloud.speech.v1.LongRunningRecognizeMetadata",
    "lastUpdateTime": "2021-03-11T20:27:28.562098Z",
    "progressPercent": 100,
    "startTime": "2021-03-11T20:27:01.175793Z",
    "uri": "gs://adresso/ADReSSo21-progression-test/progression/test-dist/audio/train/no_decline/adrsp128.wav"
  },
  "name": "582220567464119111",
  "response": {
    "@type": "type.googleapis.com/google.cloud.speech.v1.LongRunningRecognizeResponse",
    "results": [
      {
        "alternatives": [
          {
            "confidence": 0.99010324,
            "transcript": "Fawn f a w n",
            "words": [
              {
                "endTime": "14.800s",
                "startTime": "14.200s",
                "word": "Fawn"
              },
              {
                "endTime": "15.200s",
                "startTime": "14.800s",
                "word": "f"
              },
              {
                "endTime": "15.300s",
                "startTime": "15.200s",
                "word": "a"
              },
              {
                "endTime": "15.400s",
                "startTime": "15.300s",
                "word": "w"
              },
              {
                "endTime": "15.800s",
                "startTime": "15.400s",
                "word": "n"
              }
            ]
          }
        ]
      },
      {
        "alternatives": [
          {
            "confidence": 0.31428418,
            "transcript": " are",
            "words": [
              {
                "endTime": "21.300s",
                "startTime": "20.800s",
                "word": "are"
              }
            ]
          }
        ]
      },
      {
        "alternatives": [
          {
            "confidence": 0.437112,
            "transcript": " jackal",
            "words": [
              {
                "endTime": "25.600s",
                "startTime": "24.700s",
                "word": "jackal"
              }
            ]
          }
        ]
      },
      {
        "alternatives": [
          {
            "confidence": 0.9242065,
            "transcript": " kangaroo",
            "words": [
              {
                "endTime": "28.900s",
                "startTime": "28.300s",
                "word": "kangaroo"
              }
            ]
          }
        ]
      },
      {
        "alternatives": [
          {
            "confidence": 0.5609975,
            "transcript": " mayor",
            "words": [
              {
                "endTime": "32.900s",
                "startTime": "32.200s",
                "word": "mayor"
              }
            ]
          }
        ]
      },
      {
        "alternatives": [
          {
            "confidence": 0.9452172,
            "transcript": " opossum",
            "words": [
              {
                "endTime": "38.500s",
                "startTime": "37.700s",
                "word": "opossum"
              }
            ]
          }
        ]
      },
      {
        "alternatives": [
          {
            "confidence": 0.45853952,
            "transcript": " now",
            "words": [
              {
                "endTime": "68.400s",
                "startTime": "67.900s",
                "word": "now"
              }
            ]
          }
        ]
      },
      {
        "alternatives": [
          {
            "confidence": 0.9654677,
            "transcript": " but I want you to think of as many words beginning with the letter f",
            "words": [
              {
                "endTime": "69.900s",
                "startTime": "69.600s",
                "word": "but"
              },
              {
                "endTime": "70s",
                "startTime": "69.900s",
                "word": "I"
              },
              {
                "endTime": "70.200s",
                "startTime": "70s",
                "word": "want"
              },
              {
                "endTime": "70.300s",
                "startTime": "70.200s",
                "word": "you"
              },
              {
                "endTime": "70.400s",
                "startTime": "70.300s",
                "word": "to"
              },
              {
                "endTime": "70.700s",
                "startTime": "70.400s",
                "word": "think"
              },
              {
                "endTime": "71s",
                "startTime": "70.700s",
                "word": "of"
              },
              {
                "endTime": "71.100s",
                "startTime": "71s",
                "word": "as"
              },
              {
                "endTime": "71.300s",
                "startTime": "71.100s",
                "word": "many"
              },
              {
                "endTime": "71.800s",
                "startTime": "71.300s",
                "word": "words"
              },
              {
                "endTime": "72.200s",
                "startTime": "71.800s",
                "word": "beginning"
              },
              {
                "endTime": "72.400s",
                "startTime": "72.200s",
                "word": "with"
              },
              {
                "endTime": "72.400s",
                "startTime": "72.400s",
                "word": "the"
              },
              {
                "endTime": "72.800s",
                "startTime": "72.400s",
                "word": "letter"
              },
              {
                "endTime": "72.900s",
                "startTime": "72.800s",
                "word": "f"
              }
            ]
          }
        ]
      },
      {
        "alternatives": [
          {
            "confidence": 0.82969177,
            "transcript": " any word at all",
            "words": [
              {
                "endTime": "76.100s",
                "startTime": "75.600s",
                "word": "any"
              },
              {
                "endTime": "76.300s",
                "startTime": "76.100s",
                "word": "word"
              },
              {
                "endTime": "76.400s",
                "startTime": "76.300s",
                "word": "at"
              },
              {
                "endTime": "76.500s",
                "startTime": "76.400s",
                "word": "all"
              }
            ]
          }
        ]
      },
      {
        "alternatives": [
          {
            "confidence": 0.8072475,
            "transcript": " and also keep you do run run",
            "words": [
              {
                "endTime": "83s",
                "startTime": "82.600s",
                "word": "and"
              },
              {
                "endTime": "83.200s",
                "startTime": "83s",
                "word": "also"
              },
              {
                "endTime": "83.400s",
                "startTime": "83.200s",
                "word": "keep"
              },
              {
                "endTime": "83.600s",
                "startTime": "83.400s",
                "word": "you"
              },
              {
                "endTime": "83.700s",
                "startTime": "83.600s",
                "word": "do"
              },
              {
                "endTime": "83.900s",
                "startTime": "83.700s",
                "word": "run"
              },
              {
                "endTime": "85s",
                "startTime": "83.900s",
                "word": "run"
              }
            ]
          }
        ]
      },
      {
        "alternatives": [
          {
            "confidence": 0.9017878,
            "transcript": " we watched you think of as many words anything at all",
            "words": [
              {
                "endTime": "91.100s",
                "startTime": "90.800s",
                "word": "we"
              },
              {
                "endTime": "91.600s",
                "startTime": "91.100s",
                "word": "watched"
              },
              {
                "endTime": "91.700s",
                "startTime": "91.600s",
                "word": "you"
              },
              {
                "endTime": "92s",
                "startTime": "91.700s",
                "word": "think"
              },
              {
                "endTime": "92s",
                "startTime": "92s",
                "word": "of"
              },
              {
                "endTime": "92.200s",
                "startTime": "92s",
                "word": "as"
              },
              {
                "endTime": "92.300s",
                "startTime": "92.200s",
                "word": "many"
              },
              {
                "endTime": "93s",
                "startTime": "92.300s",
                "word": "words"
              },
              {
                "endTime": "93.700s",
                "startTime": "93s",
                "word": "anything"
              },
              {
                "endTime": "93.800s",
                "startTime": "93.700s",
                "word": "at"
              },
              {
                "endTime": "94.100s",
                "startTime": "93.800s",
                "word": "all"
              }
            ]
          }
        ]
      },
      {
        "alternatives": [
          {
            "confidence": 0.69323057,
            "transcript": " you say Frank",
            "words": [
              {
                "endTime": "99.800s",
                "startTime": "99.600s",
                "word": "you"
              },
              {
                "endTime": "100s",
                "startTime": "99.800s",
                "word": "say"
              },
              {
                "endTime": "100.400s",
                "startTime": "100s",
                "word": "Frank"
              }
            ]
          }
        ]
      },
      {
        "alternatives": [
          {
            "confidence": 0.47535256,
            "transcript": " f a i n",
            "words": [
              {
                "endTime": "106.600s",
                "startTime": "106.200s",
                "word": "f"
              },
              {
                "endTime": "106.700s",
                "startTime": "106.600s",
                "word": "a"
              },
              {
                "endTime": "106.900s",
                "startTime": "106.700s",
                "word": "i"
              },
              {
                "endTime": "107s",
                "startTime": "106.900s",
                "word": "n"
              }
            ]
          }
        ]
      },
      {
        "alternatives": [
          {
            "confidence": 0.8152721,
            "transcript": " Farm",
            "words": [
              {
                "endTime": "109.300s",
                "startTime": "108.300s",
                "word": "Farm"
              }
            ]
          }
        ]
      },
      {
        "alternatives": [
          {
            "confidence": 0.52532655,
            "transcript": " how do you say the word",
            "words": [
              {
                "endTime": "111.900s",
                "startTime": "111.500s",
                "word": "how"
              },
              {
                "endTime": "112s",
                "startTime": "111.900s",
                "word": "do"
              },
              {
                "endTime": "112.100s",
                "startTime": "112s",
                "word": "you"
              },
              {
                "endTime": "112.400s",
                "startTime": "112.100s",
                "word": "say"
              },
              {
                "endTime": "112.500s",
                "startTime": "112.400s",
                "word": "the"
              },
              {
                "endTime": "112.700s",
                "startTime": "112.500s",
                "word": "word"
              }
            ]
          }
        ]
      },
      {
        "alternatives": [
          {
            "confidence": 0.95461285,
            "transcript": " f u s t i o n",
            "words": [
              {
                "endTime": "120.500s",
                "startTime": "119.300s",
                "word": "f"
              },
              {
                "endTime": "120.700s",
                "startTime": "120.500s",
                "word": "u"
              },
              {
                "endTime": "120.800s",
                "startTime": "120.700s",
                "word": "s"
              },
              {
                "endTime": "121s",
                "startTime": "120.800s",
                "word": "t"
              },
              {
                "endTime": "121.200s",
                "startTime": "121s",
                "word": "i"
              },
              {
                "endTime": "121.300s",
                "startTime": "121.200s",
                "word": "o"
              },
              {
                "endTime": "121.600s",
                "startTime": "121.300s",
                "word": "n"
              }
            ]
          }
        ]
      },
      {
        "alternatives": [
          {
            "confidence": 0.7832221,
            "transcript": " Flamingo friendly luge fluke frenetic",
            "words": [
              {
                "endTime": "126.300s",
                "startTime": "124.200s",
                "word": "Flamingo"
              },
              {
                "endTime": "128.600s",
                "startTime": "126.300s",
                "word": "friendly"
              },
              {
                "endTime": "130.400s",
                "startTime": "128.600s",
                "word": "luge"
              },
              {
                "endTime": "131.900s",
                "startTime": "130.400s",
                "word": "fluke"
              },
              {
                "endTime": "137s",
                "startTime": "131.900s",
                "word": "frenetic"
              }
            ]
          }
        ]
      },
      {
        "alternatives": [
          {
            "confidence": 0.98762906,
            "transcript": " fistula",
            "words": [
              {
                "endTime": "139.800s",
                "startTime": "139s",
                "word": "fistula"
              }
            ]
          }
        ]
      },
      {
        "alternatives": [
          {
            "confidence": 0.8167918,
            "transcript": " Roshes",
            "words": [
              {
                "endTime": "141.900s",
                "startTime": "141.200s",
                "word": "Roshes"
              }
            ]
          }
        ]
      },
      {
        "alternatives": [
          {
            "confidence": 0.5500233,
            "transcript": " fenestra",
            "words": [
              {
                "endTime": "145.800s",
                "startTime": "144.800s",
                "word": "fenestra"
              }
            ]
          }
        ]
      },
      {
        "alternatives": [
          {
            "confidence": 0.5549193,
            "transcript": " fidelity",
            "words": [
              {
                "endTime": "149s",
                "startTime": "148.300s",
                "word": "fidelity"
              }
            ]
          }
        ]
      },
      {
        "alternatives": [
          {
            "confidence": 0.6553857,
            "transcript": " flamingo",
            "words": [
              {
                "endTime": "151.300s",
                "startTime": "150.500s",
                "word": "flamingo"
              }
            ]
          }
        ]
      }
    ]
  }
}
