{
  "done": true,
  "metadata": {
    "@type": "type.googleapis.com/google.cloud.speech.v1.LongRunningRecognizeMetadata",
    "lastUpdateTime": "2021-03-11T20:27:42.615923Z",
    "progressPercent": 100,
    "startTime": "2021-03-11T20:27:16.524707Z",
    "uri": "gs://adresso/ADReSSo21-progression-test/progression/test-dist/audio/train/no_decline/adrsp196.wav"
  },
  "name": "7853205944030946507",
  "response": {
    "@type": "type.googleapis.com/google.cloud.speech.v1.LongRunningRecognizeResponse",
    "results": [
      {
        "alternatives": [
          {
            "confidence": 0.9384283,
            "transcript": "and you can start now",
            "words": [
              {
                "endTime": "1.100s",
                "startTime": "0.200s",
                "word": "and"
              },
              {
                "endTime": "1.200s",
                "startTime": "1.100s",
                "word": "you"
              },
              {
                "endTime": "1.400s",
                "startTime": "1.200s",
                "word": "can"
              },
              {
                "endTime": "1.900s",
                "startTime": "1.400s",
                "word": "start"
              },
              {
                "endTime": "2.300s",
                "startTime": "1.900s",
                "word": "now"
              }
            ]
          }
        ]
      },
      {
        "alternatives": [
          {
            "confidence": 0.8252118,
            "transcript": " name me animals for me or I'm going to name an animal",
            "words": [
              {
                "endTime": "5s",
                "startTime": "4.400s",
                "word": "name"
              },
              {
                "endTime": "5.200s",
                "startTime": "5s",
                "word": "me"
              },
              {
                "endTime": "5.500s",
                "startTime": "5.200s",
                "word": "animals"
              },
              {
                "endTime": "5.800s",
                "startTime": "5.500s",
                "word": "for"
              },
              {
                "endTime": "6s",
                "startTime": "5.800s",
                "word": "me"
              },
              {
                "endTime": "10.700s",
                "startTime": "6s",
                "word": "or"
              },
              {
                "endTime": "10.900s",
                "startTime": "10.700s",
                "word": "I'm"
              },
              {
                "endTime": "11s",
                "startTime": "10.900s",
                "word": "going"
              },
              {
                "endTime": "11.200s",
                "startTime": "11s",
                "word": "to"
              },
              {
                "endTime": "11.600s",
                "startTime": "11.200s",
                "word": "name"
              },
              {
                "endTime": "11.700s",
                "startTime": "11.600s",
                "word": "an"
              },
              {
                "endTime": "12.100s",
                "startTime": "11.700s",
                "word": "animal"
              }
            ]
          }
        ]
      },
      {
        "alternatives": [
          {
            "confidence": 0.8405979,
            "transcript": " abor in a cast and a donkey and elk and the snow Falcon giraffe cam",
            "words": [
              {
                "endTime": "18.500s",
                "startTime": "17.200s",
                "word": "abor"
              },
              {
                "endTime": "19.300s",
                "startTime": "18.500s",
                "word": "in"
              },
              {
                "endTime": "19.400s",
                "startTime": "19.300s",
                "word": "a"
              },
              {
                "endTime": "20s",
                "startTime": "19.400s",
                "word": "cast"
              },
              {
                "endTime": "20.800s",
                "startTime": "20s",
                "word": "and"
              },
              {
                "endTime": "21.100s",
                "startTime": "20.800s",
                "word": "a"
              },
              {
                "endTime": "22.600s",
                "startTime": "21.100s",
                "word": "donkey"
              },
              {
                "endTime": "24s",
                "startTime": "22.600s",
                "word": "and"
              },
              {
                "endTime": "24.400s",
                "startTime": "24s",
                "word": "elk"
              },
              {
                "endTime": "25.600s",
                "startTime": "24.400s",
                "word": "and"
              },
              {
                "endTime": "26.100s",
                "startTime": "25.600s",
                "word": "the"
              },
              {
                "endTime": "29.700s",
                "startTime": "26.100s",
                "word": "snow"
              },
              {
                "endTime": "31.300s",
                "startTime": "29.700s",
                "word": "Falcon"
              },
              {
                "endTime": "34.100s",
                "startTime": "31.300s",
                "word": "giraffe"
              },
              {
                "endTime": "36.200s",
                "startTime": "34.100s",
                "word": "cam"
              }
            ]
          }
        ]
      },
      {
        "alternatives": [
          {
            "confidence": 0.8121233,
            "transcript": " am I",
            "words": [
              {
                "endTime": "40s",
                "startTime": "39s",
                "word": "am"
              },
              {
                "endTime": "40.300s",
                "startTime": "40s",
                "word": "I"
              }
            ]
          }
        ]
      },
      {
        "alternatives": [
          {
            "confidence": 0.8655001,
            "transcript": " Indian I",
            "words": [
              {
                "endTime": "43.500s",
                "startTime": "42.500s",
                "word": "Indian"
              },
              {
                "endTime": "43.700s",
                "startTime": "43.500s",
                "word": "I"
              }
            ]
          }
        ]
      },
      {
        "alternatives": [
          {
            "confidence": 0.93141973,
            "transcript": " ibex",
            "words": [
              {
                "endTime": "46.500s",
                "startTime": "45.400s",
                "word": "ibex"
              }
            ]
          }
        ]
      },
      {
        "alternatives": [
          {
            "confidence": 0.92926764,
            "transcript": " kangaroo lion",
            "words": [
              {
                "endTime": "53.300s",
                "startTime": "52.600s",
                "word": "kangaroo"
              },
              {
                "endTime": "55s",
                "startTime": "53.300s",
                "word": "lion"
              }
            ]
          }
        ]
      },
      {
        "alternatives": [
          {
            "confidence": 0.8467328,
            "transcript": " moose",
            "words": [
              {
                "endTime": "56.600s",
                "startTime": "55.900s",
                "word": "moose"
              }
            ]
          }
        ]
      },
      {
        "alternatives": [
          {
            "confidence": 0.6083581,
            "transcript": " animal are you",
            "words": [
              {
                "endTime": "67.400s",
                "startTime": "66.700s",
                "word": "animal"
              },
              {
                "endTime": "67.700s",
                "startTime": "67.400s",
                "word": "are"
              },
              {
                "endTime": "67.900s",
                "startTime": "67.700s",
                "word": "you"
              }
            ]
          }
        ]
      },
      {
        "alternatives": [
          {
            "confidence": 0.5126342,
            "transcript": " I am I am",
            "words": [
              {
                "endTime": "69.400s",
                "startTime": "68.900s",
                "word": "I"
              },
              {
                "endTime": "69.600s",
                "startTime": "69.400s",
                "word": "am"
              },
              {
                "endTime": "69.800s",
                "startTime": "69.600s",
                "word": "I"
              },
              {
                "endTime": "69.800s",
                "startTime": "69.800s",
                "word": "am"
              }
            ]
          }
        ]
      },
      {
        "alternatives": [
          {
            "confidence": 0.24041173,
            "transcript": " and",
            "words": [
              {
                "endTime": "73.600s",
                "startTime": "73.100s",
                "word": "and"
              }
            ]
          }
        ]
      },
      {
        "alternatives": [
          {
            "confidence": 0.76615226,
            "transcript": " okay Dominic change directions we can begin now talk",
            "words": [
              {
                "endTime": "75.700s",
                "startTime": "74.900s",
                "word": "okay"
              },
              {
                "endTime": "76.700s",
                "startTime": "75.700s",
                "word": "Dominic"
              },
              {
                "endTime": "77.100s",
                "startTime": "76.700s",
                "word": "change"
              },
              {
                "endTime": "77.900s",
                "startTime": "77.100s",
                "word": "directions"
              },
              {
                "endTime": "78s",
                "startTime": "77.900s",
                "word": "we"
              },
              {
                "endTime": "78.200s",
                "startTime": "78s",
                "word": "can"
              },
              {
                "endTime": "78.400s",
                "startTime": "78.200s",
                "word": "begin"
              },
              {
                "endTime": "79.300s",
                "startTime": "78.400s",
                "word": "now"
              },
              {
                "endTime": "80.200s",
                "startTime": "79.300s",
                "word": "talk"
              }
            ]
          }
        ]
      },
      {
        "alternatives": [
          {
            "confidence": 0.8036232,
            "transcript": " do I stop",
            "words": [
              {
                "endTime": "84.100s",
                "startTime": "83.800s",
                "word": "do"
              },
              {
                "endTime": "84.200s",
                "startTime": "84.100s",
                "word": "I"
              },
              {
                "endTime": "84.600s",
                "startTime": "84.200s",
                "word": "stop"
              }
            ]
          }
        ]
      },
      {
        "alternatives": [
          {
            "confidence": 0.64623564,
            "transcript": " any word at all the same thing",
            "words": [
              {
                "endTime": "98.600s",
                "startTime": "97.900s",
                "word": "any"
              },
              {
                "endTime": "98.800s",
                "startTime": "98.600s",
                "word": "word"
              },
              {
                "endTime": "98.900s",
                "startTime": "98.800s",
                "word": "at"
              },
              {
                "endTime": "99s",
                "startTime": "98.900s",
                "word": "all"
              },
              {
                "endTime": "99.300s",
                "startTime": "99s",
                "word": "the"
              },
              {
                "endTime": "99.500s",
                "startTime": "99.300s",
                "word": "same"
              },
              {
                "endTime": "99.500s",
                "startTime": "99.500s",
                "word": "thing"
              }
            ]
          }
        ]
      },
      {
        "alternatives": [
          {
            "confidence": 0.9018449,
            "transcript": " family",
            "words": [
              {
                "endTime": "104s",
                "startTime": "101.800s",
                "word": "family"
              }
            ]
          }
        ]
      },
      {
        "alternatives": [
          {
            "confidence": 0.73288125,
            "transcript": " fancy",
            "words": [
              {
                "endTime": "107.200s",
                "startTime": "106.300s",
                "word": "fancy"
              }
            ]
          }
        ]
      },
      {
        "alternatives": [
          {
            "confidence": 0.8800505,
            "transcript": " flower maybe I said Florida",
            "words": [
              {
                "endTime": "109.200s",
                "startTime": "108.600s",
                "word": "flower"
              },
              {
                "endTime": "109.700s",
                "startTime": "109.200s",
                "word": "maybe"
              },
              {
                "endTime": "109.800s",
                "startTime": "109.700s",
                "word": "I"
              },
              {
                "endTime": "110s",
                "startTime": "109.800s",
                "word": "said"
              },
              {
                "endTime": "110.500s",
                "startTime": "110s",
                "word": "Florida"
              }
            ]
          }
        ]
      },
      {
        "alternatives": [
          {
            "confidence": 1,
            "transcript": " fahrenheit",
            "words": [
              {
                "endTime": "117.100s",
                "startTime": "116.200s",
                "word": "fahrenheit"
              }
            ]
          }
        ]
      },
      {
        "alternatives": [
          {
            "confidence": 0.840821,
            "transcript": " Francis",
            "words": [
              {
                "endTime": "126.500s",
                "startTime": "125.100s",
                "word": "Francis"
              }
            ]
          }
        ]
      },
      {
        "alternatives": [
          {
            "confidence": 0.9497201,
            "transcript": " okay",
            "words": [
              {
                "endTime": "138.600s",
                "startTime": "137.900s",
                "word": "okay"
              }
            ]
          }
        ]
      }
    ]
  }
}
