{
  "done": true,
  "metadata": {
    "@type": "type.googleapis.com/google.cloud.speech.v1.LongRunningRecognizeMetadata",
    "lastUpdateTime": "2021-03-11T20:27:09.158275Z",
    "progressPercent": 100,
    "startTime": "2021-03-11T20:26:44.094932Z",
    "uri": "gs://adresso/ADReSSo21-progression-test/progression/test-dist/audio/train/no_decline/adrsp032.wav"
  },
  "name": "7889975131865262112",
  "response": {
    "@type": "type.googleapis.com/google.cloud.speech.v1.LongRunningRecognizeResponse",
    "results": [
      {
        "alternatives": [
          {
            "confidence": 0.94200736,
            "transcript": "you can begin now",
            "words": [
              {
                "endTime": "0.300s",
                "startTime": "0s",
                "word": "you"
              },
              {
                "endTime": "0.500s",
                "startTime": "0.300s",
                "word": "can"
              },
              {
                "endTime": "0.700s",
                "startTime": "0.500s",
                "word": "begin"
              },
              {
                "endTime": "1.600s",
                "startTime": "0.700s",
                "word": "now"
              }
            ]
          }
        ]
      },
      {
        "alternatives": [
          {
            "confidence": 0.42015165,
            "transcript": " anytime",
            "words": [
              {
                "endTime": "13.200s",
                "startTime": "10.900s",
                "word": "anytime"
              }
            ]
          }
        ]
      },
      {
        "alternatives": [
          {
            "confidence": 0.8688262,
            "transcript": " do birds or fish",
            "words": [
              {
                "endTime": "16.300s",
                "startTime": "15.900s",
                "word": "do"
              },
              {
                "endTime": "16.700s",
                "startTime": "16.300s",
                "word": "birds"
              },
              {
                "endTime": "16.800s",
                "startTime": "16.700s",
                "word": "or"
              },
              {
                "endTime": "17s",
                "startTime": "16.800s",
                "word": "fish"
              }
            ]
          }
        ]
      },
      {
        "alternatives": [
          {
            "confidence": 0.9682317,
            "transcript": " zebra lion",
            "words": [
              {
                "endTime": "34.300s",
                "startTime": "33.600s",
                "word": "zebra"
              },
              {
                "endTime": "35.800s",
                "startTime": "34.300s",
                "word": "lion"
              }
            ]
          }
        ]
      },
      {
        "alternatives": [
          {
            "confidence": 0.9293461,
            "transcript": " tiger elephant",
            "words": [
              {
                "endTime": "41.700s",
                "startTime": "41s",
                "word": "tiger"
              },
              {
                "endTime": "43s",
                "startTime": "41.700s",
                "word": "elephant"
              }
            ]
          }
        ]
      },
      {
        "alternatives": [
          {
            "confidence": 0.970606,
            "transcript": " that's good",
            "words": [
              {
                "endTime": "63.600s",
                "startTime": "63.100s",
                "word": "that's"
              },
              {
                "endTime": "64s",
                "startTime": "63.600s",
                "word": "good"
              }
            ]
          }
        ]
      },
      {
        "alternatives": [
          {
            "confidence": 0.8895287,
            "transcript": " okay",
            "words": [
              {
                "endTime": "73.700s",
                "startTime": "71.200s",
                "word": "okay"
              }
            ]
          }
        ]
      },
      {
        "alternatives": [
          {
            "confidence": 0.9169212,
            "transcript": " start as many words as you can think of beginning with the letter F and its derivatives of each other like if you couldn't say okay",
            "words": [
              {
                "endTime": "81.700s",
                "startTime": "79s",
                "word": "start"
              },
              {
                "endTime": "82.500s",
                "startTime": "81.700s",
                "word": "as"
              },
              {
                "endTime": "82.800s",
                "startTime": "82.500s",
                "word": "many"
              },
              {
                "endTime": "83.300s",
                "startTime": "82.800s",
                "word": "words"
              },
              {
                "endTime": "83.300s",
                "startTime": "83.300s",
                "word": "as"
              },
              {
                "endTime": "83.400s",
                "startTime": "83.300s",
                "word": "you"
              },
              {
                "endTime": "83.600s",
                "startTime": "83.400s",
                "word": "can"
              },
              {
                "endTime": "83.800s",
                "startTime": "83.600s",
                "word": "think"
              },
              {
                "endTime": "84.200s",
                "startTime": "83.800s",
                "word": "of"
              },
              {
                "endTime": "84.900s",
                "startTime": "84.200s",
                "word": "beginning"
              },
              {
                "endTime": "85s",
                "startTime": "84.900s",
                "word": "with"
              },
              {
                "endTime": "85.100s",
                "startTime": "85s",
                "word": "the"
              },
              {
                "endTime": "85.500s",
                "startTime": "85.100s",
                "word": "letter"
              },
              {
                "endTime": "86.100s",
                "startTime": "85.500s",
                "word": "F"
              },
              {
                "endTime": "90.500s",
                "startTime": "86.100s",
                "word": "and"
              },
              {
                "endTime": "90.600s",
                "startTime": "90.500s",
                "word": "its"
              },
              {
                "endTime": "91.800s",
                "startTime": "90.600s",
                "word": "derivatives"
              },
              {
                "endTime": "91.800s",
                "startTime": "91.800s",
                "word": "of"
              },
              {
                "endTime": "92s",
                "startTime": "91.800s",
                "word": "each"
              },
              {
                "endTime": "92.200s",
                "startTime": "92s",
                "word": "other"
              },
              {
                "endTime": "92.400s",
                "startTime": "92.200s",
                "word": "like"
              },
              {
                "endTime": "92.500s",
                "startTime": "92.400s",
                "word": "if"
              },
              {
                "endTime": "93s",
                "startTime": "92.500s",
                "word": "you"
              },
              {
                "endTime": "94.600s",
                "startTime": "93s",
                "word": "couldn't"
              },
              {
                "endTime": "94.700s",
                "startTime": "94.600s",
                "word": "say"
              },
              {
                "endTime": "96.600s",
                "startTime": "94.700s",
                "word": "okay"
              }
            ]
          }
        ]
      },
      {
        "alternatives": [
          {
            "confidence": 0.9289597,
            "transcript": " 50",
            "words": [
              {
                "endTime": "109.700s",
                "startTime": "109s",
                "word": "50"
              }
            ]
          }
        ]
      },
      {
        "alternatives": [
          {
            "confidence": 0.5644723,
            "transcript": " fruit",
            "words": [
              {
                "endTime": "116.100s",
                "startTime": "115.500s",
                "word": "fruit"
              }
            ]
          }
        ]
      },
      {
        "alternatives": [
          {
            "confidence": 0.7671582,
            "transcript": " funny",
            "words": [
              {
                "endTime": "143.400s",
                "startTime": "138.200s",
                "word": "funny"
              }
            ]
          }
        ]
      },
      {
        "alternatives": [
          {
            "confidence": 0.80121785,
            "transcript": " Florida",
            "words": [
              {
                "endTime": "153.800s",
                "startTime": "153.100s",
                "word": "Florida"
              }
            ]
          }
        ]
      },
      {
        "alternatives": [
          {
            "confidence": 0.5949757,
            "transcript": " fly",
            "words": [
              {
                "endTime": "155.800s",
                "startTime": "155.300s",
                "word": "fly"
              }
            ]
          }
        ]
      },
      {
        "alternatives": [
          {
            "confidence": 0.79721045,
            "transcript": " okay then",
            "words": [
              {
                "endTime": "163.500s",
                "startTime": "162.900s",
                "word": "okay"
              },
              {
                "endTime": "163.700s",
                "startTime": "163.500s",
                "word": "then"
              }
            ]
          }
        ]
      }
    ]
  }
}
