{
  "done": true,
  "metadata": {
    "@type": "type.googleapis.com/google.cloud.speech.v1.LongRunningRecognizeMetadata",
    "lastUpdateTime": "2021-03-11T20:28:05.196506Z",
    "progressPercent": 100,
    "startTime": "2021-03-11T20:27:46.156311Z",
    "uri": "gs://adresso/ADReSSo21-progression-test/progression/test-dist/audio/train/no_decline/adrsp377.wav"
  },
  "name": "6720574348594570020",
  "response": {
    "@type": "type.googleapis.com/google.cloud.speech.v1.LongRunningRecognizeResponse",
    "results": [
      {
        "alternatives": [
          {
            "confidence": 0.756161,
            "transcript": "I got up and you can start now cats dogmas horse zebra elephant",
            "words": [
              {
                "endTime": "0.700s",
                "startTime": "0.400s",
                "word": "I"
              },
              {
                "endTime": "1s",
                "startTime": "0.700s",
                "word": "got"
              },
              {
                "endTime": "1.100s",
                "startTime": "1s",
                "word": "up"
              },
              {
                "endTime": "1.300s",
                "startTime": "1.100s",
                "word": "and"
              },
              {
                "endTime": "1.400s",
                "startTime": "1.300s",
                "word": "you"
              },
              {
                "endTime": "1.600s",
                "startTime": "1.400s",
                "word": "can"
              },
              {
                "endTime": "2s",
                "startTime": "1.600s",
                "word": "start"
              },
              {
                "endTime": "2.400s",
                "startTime": "2s",
                "word": "now"
              },
              {
                "endTime": "3.800s",
                "startTime": "2.400s",
                "word": "cats"
              },
              {
                "endTime": "4.800s",
                "startTime": "3.800s",
                "word": "dogmas"
              },
              {
                "endTime": "5.400s",
                "startTime": "4.800s",
                "word": "horse"
              },
              {
                "endTime": "6.700s",
                "startTime": "5.400s",
                "word": "zebra"
              },
              {
                "endTime": "7.600s",
                "startTime": "6.700s",
                "word": "elephant"
              }
            ]
          }
        ]
      },
      {
        "alternatives": [
          {
            "confidence": 0.96075404,
            "transcript": " rhinoceros",
            "words": [
              {
                "endTime": "17.500s",
                "startTime": "15.600s",
                "word": "rhinoceros"
              }
            ]
          }
        ]
      },
      {
        "alternatives": [
          {
            "confidence": 0.9436524,
            "transcript": " lion tiger",
            "words": [
              {
                "endTime": "23.700s",
                "startTime": "22.900s",
                "word": "lion"
              },
              {
                "endTime": "24.300s",
                "startTime": "23.700s",
                "word": "tiger"
              }
            ]
          }
        ]
      },
      {
        "alternatives": [
          {
            "confidence": 0.945211,
            "transcript": " jaguar",
            "words": [
              {
                "endTime": "27.100s",
                "startTime": "25.900s",
                "word": "jaguar"
              }
            ]
          }
        ]
      },
      {
        "alternatives": [
          {
            "confidence": 0.8254839,
            "transcript": " dear rabbit",
            "words": [
              {
                "endTime": "35.400s",
                "startTime": "33.700s",
                "word": "dear"
              },
              {
                "endTime": "36.400s",
                "startTime": "35.400s",
                "word": "rabbit"
              }
            ]
          }
        ]
      },
      {
        "alternatives": [
          {
            "confidence": 0.95601165,
            "transcript": " giraffe",
            "words": [
              {
                "endTime": "48.800s",
                "startTime": "46.700s",
                "word": "giraffe"
              }
            ]
          }
        ]
      },
      {
        "alternatives": [
          {
            "confidence": 0.9806349,
            "transcript": " rhinoceros hippopotamus",
            "words": [
              {
                "endTime": "51s",
                "startTime": "49.900s",
                "word": "rhinoceros"
              },
              {
                "endTime": "52.100s",
                "startTime": "51s",
                "word": "hippopotamus"
              }
            ]
          }
        ]
      },
      {
        "alternatives": [
          {
            "confidence": 0.87579674,
            "transcript": " monkey",
            "words": [
              {
                "endTime": "55.300s",
                "startTime": "54.600s",
                "word": "monkey"
              }
            ]
          }
        ]
      },
      {
        "alternatives": [
          {
            "confidence": 0.78968775,
            "transcript": " letter f",
            "words": [
              {
                "endTime": "62.500s",
                "startTime": "60.600s",
                "word": "letter"
              },
              {
                "endTime": "62.900s",
                "startTime": "62.500s",
                "word": "f"
              }
            ]
          }
        ]
      },
      {
        "alternatives": [
          {
            "confidence": 0.9473068,
            "transcript": " Farm fun",
            "words": [
              {
                "endTime": "68.600s",
                "startTime": "67.800s",
                "word": "Farm"
              },
              {
                "endTime": "69.200s",
                "startTime": "68.600s",
                "word": "fun"
              }
            ]
          }
        ]
      },
      {
        "alternatives": [
          {
            "confidence": 0.84904695,
            "transcript": " feeling",
            "words": [
              {
                "endTime": "72.200s",
                "startTime": "71.400s",
                "word": "feeling"
              }
            ]
          }
        ]
      },
      {
        "alternatives": [
          {
            "confidence": 0.8338102,
            "transcript": " funny",
            "words": [
              {
                "endTime": "96.100s",
                "startTime": "95.400s",
                "word": "funny"
              }
            ]
          }
        ]
      },
      {
        "alternatives": [
          {
            "confidence": 0.9258417,
            "transcript": " fan",
            "words": [
              {
                "endTime": "98.600s",
                "startTime": "97.800s",
                "word": "fan"
              }
            ]
          }
        ]
      },
      {
        "alternatives": [
          {
            "confidence": 0.79261315,
            "transcript": " flower",
            "words": [
              {
                "endTime": "108.900s",
                "startTime": "108.300s",
                "word": "flower"
              }
            ]
          }
        ]
      }
    ]
  }
}
