{
  "done": true,
  "metadata": {
    "@type": "type.googleapis.com/google.cloud.speech.v1.LongRunningRecognizeMetadata",
    "lastUpdateTime": "2021-03-10T12:52:57.044601Z",
    "progressPercent": 100,
    "startTime": "2021-03-10T12:52:31.323945Z",
    "uri": "gs://adresso/ADReSSo21-diagnosis-train/diagnosis/train/audio/cn/adrso153.wav"
  },
  "name": "4004043197310648229",
  "response": {
    "@type": "type.googleapis.com/google.cloud.speech.v1.LongRunningRecognizeResponse",
    "results": [
      {
        "alternatives": [
          {
            "confidence": 0.9725291,
            "transcript": "start whenever you want",
            "words": [
              {
                "endTime": "1.600s",
                "startTime": "0.400s",
                "word": "start"
              },
              {
                "endTime": "1.800s",
                "startTime": "1.600s",
                "word": "whenever"
              },
              {
                "endTime": "2.100s",
                "startTime": "1.800s",
                "word": "you"
              },
              {
                "endTime": "2.400s",
                "startTime": "2.100s",
                "word": "want"
              }
            ]
          }
        ]
      },
      {
        "alternatives": [
          {
            "confidence": 0.95400167,
            "transcript": " cookie jar",
            "words": [
              {
                "endTime": "4.300s",
                "startTime": "3.800s",
                "word": "cookie"
              },
              {
                "endTime": "4.600s",
                "startTime": "4.300s",
                "word": "jar"
              }
            ]
          }
        ]
      },
      {
        "alternatives": [
          {
            "confidence": 0.43398064,
            "transcript": " hearing",
            "words": [
              {
                "endTime": "13.200s",
                "startTime": "12.400s",
                "word": "hearing"
              }
            ]
          }
        ]
      },
      {
        "alternatives": [
          {
            "confidence": 0.6645651,
            "transcript": " on the washing dishes",
            "words": [
              {
                "endTime": "22.200s",
                "startTime": "21.800s",
                "word": "on"
              },
              {
                "endTime": "22.300s",
                "startTime": "22.200s",
                "word": "the"
              },
              {
                "endTime": "22.700s",
                "startTime": "22.300s",
                "word": "washing"
              },
              {
                "endTime": "22.900s",
                "startTime": "22.700s",
                "word": "dishes"
              }
            ]
          }
        ]
      },
      {
        "alternatives": [
          {
            "confidence": 0.932306,
            "transcript": " view of yard",
            "words": [
              {
                "endTime": "27.200s",
                "startTime": "25.400s",
                "word": "view"
              },
              {
                "endTime": "27.500s",
                "startTime": "27.200s",
                "word": "of"
              },
              {
                "endTime": "28.100s",
                "startTime": "27.500s",
                "word": "yard"
              }
            ]
          }
        ]
      },
      {
        "alternatives": [
          {
            "confidence": 0.644728,
            "transcript": " Abduction of dish",
            "words": [
              {
                "endTime": "33.800s",
                "startTime": "32.900s",
                "word": "Abduction"
              },
              {
                "endTime": "33.900s",
                "startTime": "33.800s",
                "word": "of"
              },
              {
                "endTime": "34.200s",
                "startTime": "33.900s",
                "word": "dish"
              }
            ]
          }
        ]
      },
      {
        "alternatives": [
          {
            "confidence": 0.5737768,
            "transcript": " understanding",
            "words": [
              {
                "endTime": "39.800s",
                "startTime": "38.200s",
                "word": "understanding"
              }
            ]
          }
        ]
      },
      {
        "alternatives": [
          {
            "confidence": 0.85046697,
            "transcript": " when does half open",
            "words": [
              {
                "endTime": "57s",
                "startTime": "56.600s",
                "word": "when"
              },
              {
                "endTime": "57.200s",
                "startTime": "57s",
                "word": "does"
              },
              {
                "endTime": "57.500s",
                "startTime": "57.200s",
                "word": "half"
              },
              {
                "endTime": "58s",
                "startTime": "57.500s",
                "word": "open"
              }
            ]
          }
        ]
      },
      {
        "alternatives": [
          {
            "confidence": 0.8392283,
            "transcript": " Landscaping wall",
            "words": [
              {
                "endTime": "61.500s",
                "startTime": "60.400s",
                "word": "Landscaping"
              },
              {
                "endTime": "62.500s",
                "startTime": "61.500s",
                "word": "wall"
              }
            ]
          }
        ]
      },
      {
        "alternatives": [
          {
            "confidence": 0.35971764,
            "transcript": " except",
            "words": [
              {
                "endTime": "69.300s",
                "startTime": "68.600s",
                "word": "except"
              }
            ]
          }
        ]
      },
      {
        "alternatives": [
          {
            "confidence": 0.70632744,
            "transcript": " far is running",
            "words": [
              {
                "endTime": "75.300s",
                "startTime": "74.800s",
                "word": "far"
              },
              {
                "endTime": "75.800s",
                "startTime": "75.300s",
                "word": "is"
              },
              {
                "endTime": "76.200s",
                "startTime": "75.800s",
                "word": "running"
              }
            ]
          }
        ]
      },
      {
        "alternatives": [
          {
            "confidence": 0.4451139,
            "transcript": " boys only",
            "words": [
              {
                "endTime": "82.400s",
                "startTime": "81.700s",
                "word": "boys"
              },
              {
                "endTime": "82.600s",
                "startTime": "82.400s",
                "word": "only"
              }
            ]
          }
        ]
      }
    ]
  }
}
