{
  "done": true,
  "metadata": {
    "@type": "type.googleapis.com/google.cloud.speech.v1.LongRunningRecognizeMetadata",
    "lastUpdateTime": "2021-03-10T12:52:32.265216Z",
    "progressPercent": 100,
    "startTime": "2021-03-10T12:52:23.696220Z",
    "uri": "gs://adresso/ADReSSo21-diagnosis-train/diagnosis/train/audio/cn/adrso022.wav"
  },
  "name": "2568093557165961062",
  "response": {
    "@type": "type.googleapis.com/google.cloud.speech.v1.LongRunningRecognizeResponse",
    "results": [
      {
        "alternatives": [
          {
            "confidence": 0.9440421,
            "transcript": "and then here on this one tell me everything you see going on in this picture they'll ask me if the mother is not paying attention and her water is running over her sake the boy has signed up on the ladder to steal some cookies and he's falling over you're always laughing the grass is growing outside nobody seems to care I just going on with their daily activity",
            "words": [
              {
                "endTime": "1s",
                "startTime": "0.600s",
                "word": "and"
              },
              {
                "endTime": "1.200s",
                "startTime": "1s",
                "word": "then"
              },
              {
                "endTime": "1.500s",
                "startTime": "1.200s",
                "word": "here"
              },
              {
                "endTime": "1.700s",
                "startTime": "1.500s",
                "word": "on"
              },
              {
                "endTime": "1.800s",
                "startTime": "1.700s",
                "word": "this"
              },
              {
                "endTime": "2.200s",
                "startTime": "1.800s",
                "word": "one"
              },
              {
                "endTime": "2.700s",
                "startTime": "2.200s",
                "word": "tell"
              },
              {
                "endTime": "2.900s",
                "startTime": "2.700s",
                "word": "me"
              },
              {
                "endTime": "3.400s",
                "startTime": "2.900s",
                "word": "everything"
              },
              {
                "endTime": "3.500s",
                "startTime": "3.400s",
                "word": "you"
              },
              {
                "endTime": "3.800s",
                "startTime": "3.500s",
                "word": "see"
              },
              {
                "endTime": "4.600s",
                "startTime": "3.800s",
                "word": "going"
              },
              {
                "endTime": "5s",
                "startTime": "4.600s",
                "word": "on"
              },
              {
                "endTime": "5.200s",
                "startTime": "5s",
                "word": "in"
              },
              {
                "endTime": "5.300s",
                "startTime": "5.200s",
                "word": "this"
              },
              {
                "endTime": "5.700s",
                "startTime": "5.300s",
                "word": "picture"
              },
              {
                "endTime": "6.700s",
                "startTime": "5.700s",
                "word": "they'll"
              },
              {
                "endTime": "6.900s",
                "startTime": "6.700s",
                "word": "ask"
              },
              {
                "endTime": "7s",
                "startTime": "6.900s",
                "word": "me"
              },
              {
                "endTime": "7.100s",
                "startTime": "7s",
                "word": "if"
              },
              {
                "endTime": "7.200s",
                "startTime": "7.100s",
                "word": "the"
              },
              {
                "endTime": "7.600s",
                "startTime": "7.200s",
                "word": "mother"
              },
              {
                "endTime": "7.700s",
                "startTime": "7.600s",
                "word": "is"
              },
              {
                "endTime": "8s",
                "startTime": "7.700s",
                "word": "not"
              },
              {
                "endTime": "8.200s",
                "startTime": "8s",
                "word": "paying"
              },
              {
                "endTime": "8.300s",
                "startTime": "8.200s",
                "word": "attention"
              },
              {
                "endTime": "8.800s",
                "startTime": "8.300s",
                "word": "and"
              },
              {
                "endTime": "9s",
                "startTime": "8.800s",
                "word": "her"
              },
              {
                "endTime": "9.200s",
                "startTime": "9s",
                "word": "water"
              },
              {
                "endTime": "9.500s",
                "startTime": "9.200s",
                "word": "is"
              },
              {
                "endTime": "9.700s",
                "startTime": "9.500s",
                "word": "running"
              },
              {
                "endTime": "10s",
                "startTime": "9.700s",
                "word": "over"
              },
              {
                "endTime": "10.100s",
                "startTime": "10s",
                "word": "her"
              },
              {
                "endTime": "10.600s",
                "startTime": "10.100s",
                "word": "sake"
              },
              {
                "endTime": "11.400s",
                "startTime": "10.600s",
                "word": "the"
              },
              {
                "endTime": "11.500s",
                "startTime": "11.400s",
                "word": "boy"
              },
              {
                "endTime": "11.800s",
                "startTime": "11.500s",
                "word": "has"
              },
              {
                "endTime": "12.100s",
                "startTime": "11.800s",
                "word": "signed"
              },
              {
                "endTime": "12.200s",
                "startTime": "12.100s",
                "word": "up"
              },
              {
                "endTime": "12.400s",
                "startTime": "12.200s",
                "word": "on"
              },
              {
                "endTime": "12.400s",
                "startTime": "12.400s",
                "word": "the"
              },
              {
                "endTime": "12.700s",
                "startTime": "12.400s",
                "word": "ladder"
              },
              {
                "endTime": "12.900s",
                "startTime": "12.700s",
                "word": "to"
              },
              {
                "endTime": "13.200s",
                "startTime": "12.900s",
                "word": "steal"
              },
              {
                "endTime": "13.400s",
                "startTime": "13.200s",
                "word": "some"
              },
              {
                "endTime": "14s",
                "startTime": "13.400s",
                "word": "cookies"
              },
              {
                "endTime": "14.300s",
                "startTime": "14s",
                "word": "and"
              },
              {
                "endTime": "14.500s",
                "startTime": "14.300s",
                "word": "he's"
              },
              {
                "endTime": "14.900s",
                "startTime": "14.500s",
                "word": "falling"
              },
              {
                "endTime": "15.200s",
                "startTime": "14.900s",
                "word": "over"
              },
              {
                "endTime": "16.400s",
                "startTime": "15.200s",
                "word": "you're"
              },
              {
                "endTime": "16.600s",
                "startTime": "16.400s",
                "word": "always"
              },
              {
                "endTime": "16.900s",
                "startTime": "16.600s",
                "word": "laughing"
              },
              {
                "endTime": "18.200s",
                "startTime": "16.900s",
                "word": "the"
              },
              {
                "endTime": "18.600s",
                "startTime": "18.200s",
                "word": "grass"
              },
              {
                "endTime": "18.700s",
                "startTime": "18.600s",
                "word": "is"
              },
              {
                "endTime": "19.100s",
                "startTime": "18.700s",
                "word": "growing"
              },
              {
                "endTime": "19.500s",
                "startTime": "19.100s",
                "word": "outside"
              },
              {
                "endTime": "21s",
                "startTime": "19.500s",
                "word": "nobody"
              },
              {
                "endTime": "21.300s",
                "startTime": "21s",
                "word": "seems"
              },
              {
                "endTime": "21.400s",
                "startTime": "21.300s",
                "word": "to"
              },
              {
                "endTime": "21.500s",
                "startTime": "21.400s",
                "word": "care"
              },
              {
                "endTime": "22.300s",
                "startTime": "21.500s",
                "word": "I"
              },
              {
                "endTime": "22.400s",
                "startTime": "22.300s",
                "word": "just"
              },
              {
                "endTime": "22.700s",
                "startTime": "22.400s",
                "word": "going"
              },
              {
                "endTime": "22.900s",
                "startTime": "22.700s",
                "word": "on"
              },
              {
                "endTime": "23s",
                "startTime": "22.900s",
                "word": "with"
              },
              {
                "endTime": "23.100s",
                "startTime": "23s",
                "word": "their"
              },
              {
                "endTime": "23.300s",
                "startTime": "23.100s",
                "word": "daily"
              },
              {
                "endTime": "24s",
                "startTime": "23.300s",
                "word": "activity"
              }
            ]
          }
        ]
      },
      {
        "alternatives": [
          {
            "confidence": 0.90288234,
            "transcript": " anything else you see no right or wrong answers but everything else is he going out of the picture no not really",
            "words": [
              {
                "endTime": "27.100s",
                "startTime": "26.300s",
                "word": "anything"
              },
              {
                "endTime": "27.200s",
                "startTime": "27.100s",
                "word": "else"
              },
              {
                "endTime": "27.400s",
                "startTime": "27.200s",
                "word": "you"
              },
              {
                "endTime": "27.500s",
                "startTime": "27.400s",
                "word": "see"
              },
              {
                "endTime": "27.900s",
                "startTime": "27.500s",
                "word": "no"
              },
              {
                "endTime": "28.100s",
                "startTime": "27.900s",
                "word": "right"
              },
              {
                "endTime": "28.200s",
                "startTime": "28.100s",
                "word": "or"
              },
              {
                "endTime": "28.300s",
                "startTime": "28.200s",
                "word": "wrong"
              },
              {
                "endTime": "28.900s",
                "startTime": "28.300s",
                "word": "answers"
              },
              {
                "endTime": "29.100s",
                "startTime": "28.900s",
                "word": "but"
              },
              {
                "endTime": "29.800s",
                "startTime": "29.100s",
                "word": "everything"
              },
              {
                "endTime": "29.900s",
                "startTime": "29.800s",
                "word": "else"
              },
              {
                "endTime": "30s",
                "startTime": "29.900s",
                "word": "is"
              },
              {
                "endTime": "30.200s",
                "startTime": "30s",
                "word": "he"
              },
              {
                "endTime": "30.400s",
                "startTime": "30.200s",
                "word": "going"
              },
              {
                "endTime": "30.500s",
                "startTime": "30.400s",
                "word": "out"
              },
              {
                "endTime": "30.700s",
                "startTime": "30.500s",
                "word": "of"
              },
              {
                "endTime": "30.700s",
                "startTime": "30.700s",
                "word": "the"
              },
              {
                "endTime": "30.900s",
                "startTime": "30.700s",
                "word": "picture"
              },
              {
                "endTime": "31.900s",
                "startTime": "30.900s",
                "word": "no"
              },
              {
                "endTime": "32.200s",
                "startTime": "31.900s",
                "word": "not"
              },
              {
                "endTime": "32.400s",
                "startTime": "32.200s",
                "word": "really"
              }
            ]
          }
        ]
      }
    ]
  }
}
