{
  "done": true,
  "metadata": {
    "@type": "type.googleapis.com/google.cloud.speech.v1.LongRunningRecognizeMetadata",
    "lastUpdateTime": "2021-03-10T12:52:38.990643Z",
    "progressPercent": 100,
    "startTime": "2021-03-10T12:52:25.293059Z",
    "uri": "gs://adresso/ADReSSo21-diagnosis-train/diagnosis/train/audio/cn/adrso023.wav"
  },
  "name": "4974336619838032982",
  "response": {
    "@type": "type.googleapis.com/google.cloud.speech.v1.LongRunningRecognizeResponse",
    "results": [
      {
        "alternatives": [
          {
            "confidence": 0.94593567,
            "transcript": "tell me everything you see going on in this picture this one trying to get a cookie or his sister I guess and then the mother washing dishes and her sink is right",
            "words": [
              {
                "endTime": "0.200s",
                "startTime": "0s",
                "word": "tell"
              },
              {
                "endTime": "0.400s",
                "startTime": "0.200s",
                "word": "me"
              },
              {
                "endTime": "1s",
                "startTime": "0.400s",
                "word": "everything"
              },
              {
                "endTime": "1.100s",
                "startTime": "1s",
                "word": "you"
              },
              {
                "endTime": "1.300s",
                "startTime": "1.100s",
                "word": "see"
              },
              {
                "endTime": "1.800s",
                "startTime": "1.300s",
                "word": "going"
              },
              {
                "endTime": "2s",
                "startTime": "1.800s",
                "word": "on"
              },
              {
                "endTime": "2.100s",
                "startTime": "2s",
                "word": "in"
              },
              {
                "endTime": "2.300s",
                "startTime": "2.100s",
                "word": "this"
              },
              {
                "endTime": "2.600s",
                "startTime": "2.300s",
                "word": "picture"
              },
              {
                "endTime": "3.300s",
                "startTime": "2.600s",
                "word": "this"
              },
              {
                "endTime": "3.500s",
                "startTime": "3.300s",
                "word": "one"
              },
              {
                "endTime": "7.800s",
                "startTime": "3.500s",
                "word": "trying"
              },
              {
                "endTime": "7.800s",
                "startTime": "7.800s",
                "word": "to"
              },
              {
                "endTime": "8s",
                "startTime": "7.800s",
                "word": "get"
              },
              {
                "endTime": "8.100s",
                "startTime": "8s",
                "word": "a"
              },
              {
                "endTime": "8.200s",
                "startTime": "8.100s",
                "word": "cookie"
              },
              {
                "endTime": "8.900s",
                "startTime": "8.200s",
                "word": "or"
              },
              {
                "endTime": "9.100s",
                "startTime": "8.900s",
                "word": "his"
              },
              {
                "endTime": "9.400s",
                "startTime": "9.100s",
                "word": "sister"
              },
              {
                "endTime": "9.800s",
                "startTime": "9.400s",
                "word": "I"
              },
              {
                "endTime": "10.200s",
                "startTime": "9.800s",
                "word": "guess"
              },
              {
                "endTime": "11.400s",
                "startTime": "10.200s",
                "word": "and"
              },
              {
                "endTime": "11.500s",
                "startTime": "11.400s",
                "word": "then"
              },
              {
                "endTime": "11.600s",
                "startTime": "11.500s",
                "word": "the"
              },
              {
                "endTime": "11.900s",
                "startTime": "11.600s",
                "word": "mother"
              },
              {
                "endTime": "12.400s",
                "startTime": "11.900s",
                "word": "washing"
              },
              {
                "endTime": "12.800s",
                "startTime": "12.400s",
                "word": "dishes"
              },
              {
                "endTime": "13.200s",
                "startTime": "12.800s",
                "word": "and"
              },
              {
                "endTime": "14.400s",
                "startTime": "13.200s",
                "word": "her"
              },
              {
                "endTime": "14.700s",
                "startTime": "14.400s",
                "word": "sink"
              },
              {
                "endTime": "14.800s",
                "startTime": "14.700s",
                "word": "is"
              },
              {
                "endTime": "15s",
                "startTime": "14.800s",
                "word": "right"
              }
            ]
          }
        ]
      },
      {
        "alternatives": [
          {
            "confidence": 0.8560521,
            "transcript": " Menchie's washing dishes and drying",
            "words": [
              {
                "endTime": "23.500s",
                "startTime": "22.800s",
                "word": "Menchie's"
              },
              {
                "endTime": "24.100s",
                "startTime": "23.500s",
                "word": "washing"
              },
              {
                "endTime": "24.500s",
                "startTime": "24.100s",
                "word": "dishes"
              },
              {
                "endTime": "24.700s",
                "startTime": "24.500s",
                "word": "and"
              },
              {
                "endTime": "25.400s",
                "startTime": "24.700s",
                "word": "drying"
              }
            ]
          }
        ]
      },
      {
        "alternatives": [
          {
            "confidence": 0.86387205,
            "transcript": " you see anything else going on I mean her no right or wrong answers",
            "words": [
              {
                "endTime": "32s",
                "startTime": "30.200s",
                "word": "you"
              },
              {
                "endTime": "32.200s",
                "startTime": "32s",
                "word": "see"
              },
              {
                "endTime": "32.400s",
                "startTime": "32.200s",
                "word": "anything"
              },
              {
                "endTime": "32.500s",
                "startTime": "32.400s",
                "word": "else"
              },
              {
                "endTime": "32.900s",
                "startTime": "32.500s",
                "word": "going"
              },
              {
                "endTime": "33s",
                "startTime": "32.900s",
                "word": "on"
              },
              {
                "endTime": "33.200s",
                "startTime": "33s",
                "word": "I"
              },
              {
                "endTime": "33.300s",
                "startTime": "33.200s",
                "word": "mean"
              },
              {
                "endTime": "33.400s",
                "startTime": "33.300s",
                "word": "her"
              },
              {
                "endTime": "33.600s",
                "startTime": "33.400s",
                "word": "no"
              },
              {
                "endTime": "33.800s",
                "startTime": "33.600s",
                "word": "right"
              },
              {
                "endTime": "33.900s",
                "startTime": "33.800s",
                "word": "or"
              },
              {
                "endTime": "34s",
                "startTime": "33.900s",
                "word": "wrong"
              },
              {
                "endTime": "34.400s",
                "startTime": "34s",
                "word": "answers"
              }
            ]
          }
        ]
      },
      {
        "alternatives": [
          {
            "confidence": 0.71066195,
            "transcript": " water spilling in the morning",
            "words": [
              {
                "endTime": "37.400s",
                "startTime": "36.300s",
                "word": "water"
              },
              {
                "endTime": "37.900s",
                "startTime": "37.400s",
                "word": "spilling"
              },
              {
                "endTime": "38.100s",
                "startTime": "37.900s",
                "word": "in"
              },
              {
                "endTime": "38.200s",
                "startTime": "38.100s",
                "word": "the"
              },
              {
                "endTime": "38.900s",
                "startTime": "38.200s",
                "word": "morning"
              }
            ]
          }
        ]
      },
      {
        "alternatives": [
          {
            "confidence": 0.8929193,
            "transcript": " boy and girl he's trying to get the cookies",
            "words": [
              {
                "endTime": "41.600s",
                "startTime": "40.900s",
                "word": "boy"
              },
              {
                "endTime": "41.800s",
                "startTime": "41.600s",
                "word": "and"
              },
              {
                "endTime": "42.100s",
                "startTime": "41.800s",
                "word": "girl"
              },
              {
                "endTime": "42.400s",
                "startTime": "42.100s",
                "word": "he's"
              },
              {
                "endTime": "44.500s",
                "startTime": "42.400s",
                "word": "trying"
              },
              {
                "endTime": "44.500s",
                "startTime": "44.500s",
                "word": "to"
              },
              {
                "endTime": "44.700s",
                "startTime": "44.500s",
                "word": "get"
              },
              {
                "endTime": "44.800s",
                "startTime": "44.700s",
                "word": "the"
              },
              {
                "endTime": "45.300s",
                "startTime": "44.800s",
                "word": "cookies"
              }
            ]
          }
        ]
      },
      {
        "alternatives": [
          {
            "confidence": 0.9855307,
            "transcript": " I'm going outside thank you very much",
            "words": [
              {
                "endTime": "47.500s",
                "startTime": "46.400s",
                "word": "I'm"
              },
              {
                "endTime": "47.800s",
                "startTime": "47.500s",
                "word": "going"
              },
              {
                "endTime": "48.300s",
                "startTime": "47.800s",
                "word": "outside"
              },
              {
                "endTime": "51.200s",
                "startTime": "48.300s",
                "word": "thank"
              },
              {
                "endTime": "51.400s",
                "startTime": "51.200s",
                "word": "you"
              },
              {
                "endTime": "51.700s",
                "startTime": "51.400s",
                "word": "very"
              },
              {
                "endTime": "51.900s",
                "startTime": "51.700s",
                "word": "much"
              }
            ]
          }
        ]
      }
    ]
  }
}
