{
  "done": true,
  "metadata": {
    "@type": "type.googleapis.com/google.cloud.speech.v1.LongRunningRecognizeMetadata",
    "lastUpdateTime": "2021-03-10T12:54:05.741329Z",
    "progressPercent": 100,
    "startTime": "2021-03-10T12:53:28.238111Z",
    "uri": "gs://adresso/ADReSSo21-diagnosis-train/diagnosis/train/audio/cn/adrso274.wav"
  },
  "name": "4922197537315134197",
  "response": {
    "@type": "type.googleapis.com/google.cloud.speech.v1.LongRunningRecognizeResponse",
    "results": [
      {
        "alternatives": [
          {
            "confidence": 0.89782536,
            "transcript": "who was the boy is taking a cookie out of a cookie jar and he has one of those left hand who reached out to give to a sick while he has it in his lap and his sister or girl is",
            "words": [
              {
                "endTime": "1.800s",
                "startTime": "1.100s",
                "word": "who"
              },
              {
                "endTime": "2.200s",
                "startTime": "1.800s",
                "word": "was"
              },
              {
                "endTime": "2.300s",
                "startTime": "2.200s",
                "word": "the"
              },
              {
                "endTime": "2.500s",
                "startTime": "2.300s",
                "word": "boy"
              },
              {
                "endTime": "3s",
                "startTime": "2.500s",
                "word": "is"
              },
              {
                "endTime": "3.700s",
                "startTime": "3s",
                "word": "taking"
              },
              {
                "endTime": "3.800s",
                "startTime": "3.700s",
                "word": "a"
              },
              {
                "endTime": "4.300s",
                "startTime": "3.800s",
                "word": "cookie"
              },
              {
                "endTime": "4.400s",
                "startTime": "4.300s",
                "word": "out"
              },
              {
                "endTime": "4.600s",
                "startTime": "4.400s",
                "word": "of"
              },
              {
                "endTime": "4.700s",
                "startTime": "4.600s",
                "word": "a"
              },
              {
                "endTime": "5.100s",
                "startTime": "4.700s",
                "word": "cookie"
              },
              {
                "endTime": "5.200s",
                "startTime": "5.100s",
                "word": "jar"
              },
              {
                "endTime": "5.700s",
                "startTime": "5.200s",
                "word": "and"
              },
              {
                "endTime": "5.900s",
                "startTime": "5.700s",
                "word": "he"
              },
              {
                "endTime": "6.200s",
                "startTime": "5.900s",
                "word": "has"
              },
              {
                "endTime": "6.400s",
                "startTime": "6.200s",
                "word": "one"
              },
              {
                "endTime": "6.400s",
                "startTime": "6.400s",
                "word": "of"
              },
              {
                "endTime": "6.600s",
                "startTime": "6.400s",
                "word": "those"
              },
              {
                "endTime": "7.100s",
                "startTime": "6.600s",
                "word": "left"
              },
              {
                "endTime": "7.500s",
                "startTime": "7.100s",
                "word": "hand"
              },
              {
                "endTime": "7.800s",
                "startTime": "7.500s",
                "word": "who"
              },
              {
                "endTime": "9.100s",
                "startTime": "7.800s",
                "word": "reached"
              },
              {
                "endTime": "9.200s",
                "startTime": "9.100s",
                "word": "out"
              },
              {
                "endTime": "9.600s",
                "startTime": "9.200s",
                "word": "to"
              },
              {
                "endTime": "9.900s",
                "startTime": "9.600s",
                "word": "give"
              },
              {
                "endTime": "10.100s",
                "startTime": "9.900s",
                "word": "to"
              },
              {
                "endTime": "10.100s",
                "startTime": "10.100s",
                "word": "a"
              },
              {
                "endTime": "10.500s",
                "startTime": "10.100s",
                "word": "sick"
              },
              {
                "endTime": "10.800s",
                "startTime": "10.500s",
                "word": "while"
              },
              {
                "endTime": "10.900s",
                "startTime": "10.800s",
                "word": "he"
              },
              {
                "endTime": "11.100s",
                "startTime": "10.900s",
                "word": "has"
              },
              {
                "endTime": "11.200s",
                "startTime": "11.100s",
                "word": "it"
              },
              {
                "endTime": "11.300s",
                "startTime": "11.200s",
                "word": "in"
              },
              {
                "endTime": "11.500s",
                "startTime": "11.300s",
                "word": "his"
              },
              {
                "endTime": "11.600s",
                "startTime": "11.500s",
                "word": "lap"
              },
              {
                "endTime": "11.800s",
                "startTime": "11.600s",
                "word": "and"
              },
              {
                "endTime": "12.100s",
                "startTime": "11.800s",
                "word": "his"
              },
              {
                "endTime": "12.500s",
                "startTime": "12.100s",
                "word": "sister"
              },
              {
                "endTime": "12.800s",
                "startTime": "12.500s",
                "word": "or"
              },
              {
                "endTime": "13.500s",
                "startTime": "12.800s",
                "word": "girl"
              },
              {
                "endTime": "13.800s",
                "startTime": "13.500s",
                "word": "is"
              }
            ]
          }
        ]
      },
      {
        "alternatives": [
          {
            "confidence": 0.92687285,
            "transcript": " reaching up for a cookie and has her inner index finger right hand pointing up where do close to her mouth and I'm maybe she's saying because they're going to have to be quiet because the school is going to fall over the boy has his right heel on the his left toe are you wearing running shoes with pom poms on them",
            "words": [
              {
                "endTime": "15.600s",
                "startTime": "15s",
                "word": "reaching"
              },
              {
                "endTime": "15.800s",
                "startTime": "15.600s",
                "word": "up"
              },
              {
                "endTime": "16.100s",
                "startTime": "15.800s",
                "word": "for"
              },
              {
                "endTime": "16.200s",
                "startTime": "16.100s",
                "word": "a"
              },
              {
                "endTime": "16.700s",
                "startTime": "16.200s",
                "word": "cookie"
              },
              {
                "endTime": "17.200s",
                "startTime": "16.700s",
                "word": "and"
              },
              {
                "endTime": "17.600s",
                "startTime": "17.200s",
                "word": "has"
              },
              {
                "endTime": "17.800s",
                "startTime": "17.600s",
                "word": "her"
              },
              {
                "endTime": "19.100s",
                "startTime": "17.800s",
                "word": "inner"
              },
              {
                "endTime": "19.600s",
                "startTime": "19.100s",
                "word": "index"
              },
              {
                "endTime": "19.900s",
                "startTime": "19.600s",
                "word": "finger"
              },
              {
                "endTime": "20.300s",
                "startTime": "19.900s",
                "word": "right"
              },
              {
                "endTime": "20.400s",
                "startTime": "20.300s",
                "word": "hand"
              },
              {
                "endTime": "21.200s",
                "startTime": "20.400s",
                "word": "pointing"
              },
              {
                "endTime": "21.300s",
                "startTime": "21.200s",
                "word": "up"
              },
              {
                "endTime": "21.600s",
                "startTime": "21.300s",
                "word": "where"
              },
              {
                "endTime": "21.800s",
                "startTime": "21.600s",
                "word": "do"
              },
              {
                "endTime": "22.600s",
                "startTime": "21.800s",
                "word": "close"
              },
              {
                "endTime": "22.700s",
                "startTime": "22.600s",
                "word": "to"
              },
              {
                "endTime": "22.800s",
                "startTime": "22.700s",
                "word": "her"
              },
              {
                "endTime": "23s",
                "startTime": "22.800s",
                "word": "mouth"
              },
              {
                "endTime": "23.700s",
                "startTime": "23s",
                "word": "and"
              },
              {
                "endTime": "24s",
                "startTime": "23.700s",
                "word": "I'm"
              },
              {
                "endTime": "24.300s",
                "startTime": "24s",
                "word": "maybe"
              },
              {
                "endTime": "24.500s",
                "startTime": "24.300s",
                "word": "she's"
              },
              {
                "endTime": "24.900s",
                "startTime": "24.500s",
                "word": "saying"
              },
              {
                "endTime": "25.600s",
                "startTime": "24.900s",
                "word": "because"
              },
              {
                "endTime": "28s",
                "startTime": "25.600s",
                "word": "they're"
              },
              {
                "endTime": "28.200s",
                "startTime": "28s",
                "word": "going"
              },
              {
                "endTime": "28.200s",
                "startTime": "28.200s",
                "word": "to"
              },
              {
                "endTime": "28.400s",
                "startTime": "28.200s",
                "word": "have"
              },
              {
                "endTime": "28.500s",
                "startTime": "28.400s",
                "word": "to"
              },
              {
                "endTime": "28.700s",
                "startTime": "28.500s",
                "word": "be"
              },
              {
                "endTime": "28.900s",
                "startTime": "28.700s",
                "word": "quiet"
              },
              {
                "endTime": "29.100s",
                "startTime": "28.900s",
                "word": "because"
              },
              {
                "endTime": "29.500s",
                "startTime": "29.100s",
                "word": "the"
              },
              {
                "endTime": "29.900s",
                "startTime": "29.500s",
                "word": "school"
              },
              {
                "endTime": "30s",
                "startTime": "29.900s",
                "word": "is"
              },
              {
                "endTime": "32.100s",
                "startTime": "30s",
                "word": "going"
              },
              {
                "endTime": "32.200s",
                "startTime": "32.100s",
                "word": "to"
              },
              {
                "endTime": "32.500s",
                "startTime": "32.200s",
                "word": "fall"
              },
              {
                "endTime": "32.700s",
                "startTime": "32.500s",
                "word": "over"
              },
              {
                "endTime": "34s",
                "startTime": "32.700s",
                "word": "the"
              },
              {
                "endTime": "34.100s",
                "startTime": "34s",
                "word": "boy"
              },
              {
                "endTime": "34.700s",
                "startTime": "34.100s",
                "word": "has"
              },
              {
                "endTime": "35.200s",
                "startTime": "34.700s",
                "word": "his"
              },
              {
                "endTime": "35.900s",
                "startTime": "35.200s",
                "word": "right"
              },
              {
                "endTime": "37s",
                "startTime": "35.900s",
                "word": "heel"
              },
              {
                "endTime": "37.200s",
                "startTime": "37s",
                "word": "on"
              },
              {
                "endTime": "37.400s",
                "startTime": "37.200s",
                "word": "the"
              },
              {
                "endTime": "37.800s",
                "startTime": "37.400s",
                "word": "his"
              },
              {
                "endTime": "38.400s",
                "startTime": "37.800s",
                "word": "left"
              },
              {
                "endTime": "38.600s",
                "startTime": "38.400s",
                "word": "toe"
              },
              {
                "endTime": "38.800s",
                "startTime": "38.600s",
                "word": "are"
              },
              {
                "endTime": "39s",
                "startTime": "38.800s",
                "word": "you"
              },
              {
                "endTime": "39.400s",
                "startTime": "39s",
                "word": "wearing"
              },
              {
                "endTime": "41.300s",
                "startTime": "39.400s",
                "word": "running"
              },
              {
                "endTime": "41.700s",
                "startTime": "41.300s",
                "word": "shoes"
              },
              {
                "endTime": "41.900s",
                "startTime": "41.700s",
                "word": "with"
              },
              {
                "endTime": "42.200s",
                "startTime": "41.900s",
                "word": "pom"
              },
              {
                "endTime": "42.700s",
                "startTime": "42.200s",
                "word": "poms"
              },
              {
                "endTime": "42.900s",
                "startTime": "42.700s",
                "word": "on"
              },
              {
                "endTime": "43s",
                "startTime": "42.900s",
                "word": "them"
              }
            ]
          }
        ]
      },
      {
        "alternatives": [
          {
            "confidence": 0.8659209,
            "transcript": " looking Sunset pretty sloppy",
            "words": [
              {
                "endTime": "46.200s",
                "startTime": "45.600s",
                "word": "looking"
              },
              {
                "endTime": "46.800s",
                "startTime": "46.200s",
                "word": "Sunset"
              },
              {
                "endTime": "47.100s",
                "startTime": "46.800s",
                "word": "pretty"
              },
              {
                "endTime": "47.500s",
                "startTime": "47.100s",
                "word": "sloppy"
              }
            ]
          }
        ]
      },
      {
        "alternatives": [
          {
            "confidence": 0.9037156,
            "transcript": " I observe that the one of the two numbers that the girl is wearing looks as if it's stolen stickers of the nest on the 2nd of the ride a woman is letting the sink run over the water is running full-tilt on the overflowing mistake she's drying a place and she has a towel in her right hand",
            "words": [
              {
                "endTime": "51.100s",
                "startTime": "50s",
                "word": "I"
              },
              {
                "endTime": "51.800s",
                "startTime": "51.100s",
                "word": "observe"
              },
              {
                "endTime": "51.900s",
                "startTime": "51.800s",
                "word": "that"
              },
              {
                "endTime": "52.100s",
                "startTime": "51.900s",
                "word": "the"
              },
              {
                "endTime": "54.600s",
                "startTime": "52.100s",
                "word": "one"
              },
              {
                "endTime": "54.800s",
                "startTime": "54.600s",
                "word": "of"
              },
              {
                "endTime": "54.900s",
                "startTime": "54.800s",
                "word": "the"
              },
              {
                "endTime": "55.800s",
                "startTime": "54.900s",
                "word": "two"
              },
              {
                "endTime": "57.500s",
                "startTime": "55.800s",
                "word": "numbers"
              },
              {
                "endTime": "57.800s",
                "startTime": "57.500s",
                "word": "that"
              },
              {
                "endTime": "57.900s",
                "startTime": "57.800s",
                "word": "the"
              },
              {
                "endTime": "58.200s",
                "startTime": "57.900s",
                "word": "girl"
              },
              {
                "endTime": "58.300s",
                "startTime": "58.200s",
                "word": "is"
              },
              {
                "endTime": "58.600s",
                "startTime": "58.300s",
                "word": "wearing"
              },
              {
                "endTime": "60.100s",
                "startTime": "58.600s",
                "word": "looks"
              },
              {
                "endTime": "60.300s",
                "startTime": "60.100s",
                "word": "as"
              },
              {
                "endTime": "60.400s",
                "startTime": "60.300s",
                "word": "if"
              },
              {
                "endTime": "60.700s",
                "startTime": "60.400s",
                "word": "it's"
              },
              {
                "endTime": "61.300s",
                "startTime": "60.700s",
                "word": "stolen"
              },
              {
                "endTime": "61.800s",
                "startTime": "61.300s",
                "word": "stickers"
              },
              {
                "endTime": "62s",
                "startTime": "61.800s",
                "word": "of"
              },
              {
                "endTime": "62s",
                "startTime": "62s",
                "word": "the"
              },
              {
                "endTime": "62.900s",
                "startTime": "62s",
                "word": "nest"
              },
              {
                "endTime": "63s",
                "startTime": "62.900s",
                "word": "on"
              },
              {
                "endTime": "63.100s",
                "startTime": "63s",
                "word": "the"
              },
              {
                "endTime": "63.500s",
                "startTime": "63.100s",
                "word": "2nd"
              },
              {
                "endTime": "63.600s",
                "startTime": "63.500s",
                "word": "of"
              },
              {
                "endTime": "63.800s",
                "startTime": "63.600s",
                "word": "the"
              },
              {
                "endTime": "64.100s",
                "startTime": "63.800s",
                "word": "ride"
              },
              {
                "endTime": "65.200s",
                "startTime": "64.100s",
                "word": "a"
              },
              {
                "endTime": "65.600s",
                "startTime": "65.200s",
                "word": "woman"
              },
              {
                "endTime": "66.100s",
                "startTime": "65.600s",
                "word": "is"
              },
              {
                "endTime": "68s",
                "startTime": "66.100s",
                "word": "letting"
              },
              {
                "endTime": "68s",
                "startTime": "68s",
                "word": "the"
              },
              {
                "endTime": "68.800s",
                "startTime": "68s",
                "word": "sink"
              },
              {
                "endTime": "69s",
                "startTime": "68.800s",
                "word": "run"
              },
              {
                "endTime": "69.300s",
                "startTime": "69s",
                "word": "over"
              },
              {
                "endTime": "69.500s",
                "startTime": "69.300s",
                "word": "the"
              },
              {
                "endTime": "69.800s",
                "startTime": "69.500s",
                "word": "water"
              },
              {
                "endTime": "69.900s",
                "startTime": "69.800s",
                "word": "is"
              },
              {
                "endTime": "70.100s",
                "startTime": "69.900s",
                "word": "running"
              },
              {
                "endTime": "70.600s",
                "startTime": "70.100s",
                "word": "full-tilt"
              },
              {
                "endTime": "70.900s",
                "startTime": "70.600s",
                "word": "on"
              },
              {
                "endTime": "71.100s",
                "startTime": "70.900s",
                "word": "the"
              },
              {
                "endTime": "72.300s",
                "startTime": "71.100s",
                "word": "overflowing"
              },
              {
                "endTime": "72.900s",
                "startTime": "72.300s",
                "word": "mistake"
              },
              {
                "endTime": "73.800s",
                "startTime": "72.900s",
                "word": "she's"
              },
              {
                "endTime": "74.200s",
                "startTime": "73.800s",
                "word": "drying"
              },
              {
                "endTime": "74.400s",
                "startTime": "74.200s",
                "word": "a"
              },
              {
                "endTime": "74.900s",
                "startTime": "74.400s",
                "word": "place"
              },
              {
                "endTime": "75.100s",
                "startTime": "74.900s",
                "word": "and"
              },
              {
                "endTime": "75.300s",
                "startTime": "75.100s",
                "word": "she"
              },
              {
                "endTime": "75.600s",
                "startTime": "75.300s",
                "word": "has"
              },
              {
                "endTime": "75.700s",
                "startTime": "75.600s",
                "word": "a"
              },
              {
                "endTime": "77.300s",
                "startTime": "75.700s",
                "word": "towel"
              },
              {
                "endTime": "77.600s",
                "startTime": "77.300s",
                "word": "in"
              },
              {
                "endTime": "77.800s",
                "startTime": "77.600s",
                "word": "her"
              },
              {
                "endTime": "78.200s",
                "startTime": "77.800s",
                "word": "right"
              },
              {
                "endTime": "78.300s",
                "startTime": "78.200s",
                "word": "hand"
              }
            ]
          }
        ]
      },
      {
        "alternatives": [
          {
            "confidence": 0.8974789,
            "transcript": " if she has something else in all that says curtain the back and the curtain was behind her that played in her left hand she's other side left side of the window",
            "words": [
              {
                "endTime": "80.400s",
                "startTime": "79.600s",
                "word": "if"
              },
              {
                "endTime": "80.500s",
                "startTime": "80.400s",
                "word": "she"
              },
              {
                "endTime": "80.900s",
                "startTime": "80.500s",
                "word": "has"
              },
              {
                "endTime": "81.200s",
                "startTime": "80.900s",
                "word": "something"
              },
              {
                "endTime": "81.400s",
                "startTime": "81.200s",
                "word": "else"
              },
              {
                "endTime": "82.100s",
                "startTime": "81.400s",
                "word": "in"
              },
              {
                "endTime": "82.300s",
                "startTime": "82.100s",
                "word": "all"
              },
              {
                "endTime": "82.400s",
                "startTime": "82.300s",
                "word": "that"
              },
              {
                "endTime": "82.800s",
                "startTime": "82.400s",
                "word": "says"
              },
              {
                "endTime": "83.300s",
                "startTime": "82.800s",
                "word": "curtain"
              },
              {
                "endTime": "84.600s",
                "startTime": "83.300s",
                "word": "the"
              },
              {
                "endTime": "84.900s",
                "startTime": "84.600s",
                "word": "back"
              },
              {
                "endTime": "85.600s",
                "startTime": "84.900s",
                "word": "and"
              },
              {
                "endTime": "85.700s",
                "startTime": "85.600s",
                "word": "the"
              },
              {
                "endTime": "86.100s",
                "startTime": "85.700s",
                "word": "curtain"
              },
              {
                "endTime": "86.200s",
                "startTime": "86.100s",
                "word": "was"
              },
              {
                "endTime": "86.800s",
                "startTime": "86.200s",
                "word": "behind"
              },
              {
                "endTime": "87s",
                "startTime": "86.800s",
                "word": "her"
              },
              {
                "endTime": "88s",
                "startTime": "87s",
                "word": "that"
              },
              {
                "endTime": "88.300s",
                "startTime": "88s",
                "word": "played"
              },
              {
                "endTime": "88.500s",
                "startTime": "88.300s",
                "word": "in"
              },
              {
                "endTime": "88.600s",
                "startTime": "88.500s",
                "word": "her"
              },
              {
                "endTime": "88.900s",
                "startTime": "88.600s",
                "word": "left"
              },
              {
                "endTime": "89.100s",
                "startTime": "88.900s",
                "word": "hand"
              },
              {
                "endTime": "91.400s",
                "startTime": "89.100s",
                "word": "she's"
              },
              {
                "endTime": "92.500s",
                "startTime": "91.400s",
                "word": "other"
              },
              {
                "endTime": "93s",
                "startTime": "92.500s",
                "word": "side"
              },
              {
                "endTime": "93.300s",
                "startTime": "93s",
                "word": "left"
              },
              {
                "endTime": "93.400s",
                "startTime": "93.300s",
                "word": "side"
              },
              {
                "endTime": "93.800s",
                "startTime": "93.400s",
                "word": "of"
              },
              {
                "endTime": "93.900s",
                "startTime": "93.800s",
                "word": "the"
              },
              {
                "endTime": "94.300s",
                "startTime": "93.900s",
                "word": "window"
              }
            ]
          }
        ]
      },
      {
        "alternatives": [
          {
            "confidence": 0.84238297,
            "transcript": " it's already dried a place in to come the window is open",
            "words": [
              {
                "endTime": "97.400s",
                "startTime": "95.400s",
                "word": "it's"
              },
              {
                "endTime": "97.800s",
                "startTime": "97.400s",
                "word": "already"
              },
              {
                "endTime": "98.300s",
                "startTime": "97.800s",
                "word": "dried"
              },
              {
                "endTime": "98.400s",
                "startTime": "98.300s",
                "word": "a"
              },
              {
                "endTime": "98.700s",
                "startTime": "98.400s",
                "word": "place"
              },
              {
                "endTime": "98.900s",
                "startTime": "98.700s",
                "word": "in"
              },
              {
                "endTime": "99s",
                "startTime": "98.900s",
                "word": "to"
              },
              {
                "endTime": "99.400s",
                "startTime": "99s",
                "word": "come"
              },
              {
                "endTime": "100.600s",
                "startTime": "99.400s",
                "word": "the"
              },
              {
                "endTime": "101s",
                "startTime": "100.600s",
                "word": "window"
              },
              {
                "endTime": "101.500s",
                "startTime": "101s",
                "word": "is"
              },
              {
                "endTime": "102s",
                "startTime": "101.500s",
                "word": "open"
              }
            ]
          }
        ]
      },
      {
        "alternatives": [
          {
            "confidence": 0.88454914,
            "transcript": " and you can see the upside going around the rest of the back of the house and then another room in the house the window is also open",
            "words": [
              {
                "endTime": "103.500s",
                "startTime": "103.100s",
                "word": "and"
              },
              {
                "endTime": "103.600s",
                "startTime": "103.500s",
                "word": "you"
              },
              {
                "endTime": "103.700s",
                "startTime": "103.600s",
                "word": "can"
              },
              {
                "endTime": "103.900s",
                "startTime": "103.700s",
                "word": "see"
              },
              {
                "endTime": "104.100s",
                "startTime": "103.900s",
                "word": "the"
              },
              {
                "endTime": "105.800s",
                "startTime": "104.100s",
                "word": "upside"
              },
              {
                "endTime": "106.400s",
                "startTime": "105.800s",
                "word": "going"
              },
              {
                "endTime": "106.700s",
                "startTime": "106.400s",
                "word": "around"
              },
              {
                "endTime": "107.500s",
                "startTime": "106.700s",
                "word": "the"
              },
              {
                "endTime": "107.900s",
                "startTime": "107.500s",
                "word": "rest"
              },
              {
                "endTime": "108s",
                "startTime": "107.900s",
                "word": "of"
              },
              {
                "endTime": "108.200s",
                "startTime": "108s",
                "word": "the"
              },
              {
                "endTime": "108.700s",
                "startTime": "108.200s",
                "word": "back"
              },
              {
                "endTime": "108.800s",
                "startTime": "108.700s",
                "word": "of"
              },
              {
                "endTime": "108.900s",
                "startTime": "108.800s",
                "word": "the"
              },
              {
                "endTime": "109.300s",
                "startTime": "108.900s",
                "word": "house"
              },
              {
                "endTime": "109.500s",
                "startTime": "109.300s",
                "word": "and"
              },
              {
                "endTime": "109.700s",
                "startTime": "109.500s",
                "word": "then"
              },
              {
                "endTime": "110.500s",
                "startTime": "109.700s",
                "word": "another"
              },
              {
                "endTime": "111s",
                "startTime": "110.500s",
                "word": "room"
              },
              {
                "endTime": "111.100s",
                "startTime": "111s",
                "word": "in"
              },
              {
                "endTime": "111.200s",
                "startTime": "111.100s",
                "word": "the"
              },
              {
                "endTime": "111.500s",
                "startTime": "111.200s",
                "word": "house"
              },
              {
                "endTime": "111.700s",
                "startTime": "111.500s",
                "word": "the"
              },
              {
                "endTime": "112s",
                "startTime": "111.700s",
                "word": "window"
              },
              {
                "endTime": "113.200s",
                "startTime": "112s",
                "word": "is"
              },
              {
                "endTime": "113.500s",
                "startTime": "113.200s",
                "word": "also"
              },
              {
                "endTime": "114.400s",
                "startTime": "113.500s",
                "word": "open"
              }
            ]
          }
        ]
      },
      {
        "alternatives": [
          {
            "confidence": 0.86062706,
            "transcript": " she's standing with it hurt the woman that is standing with her foot in the water",
            "words": [
              {
                "endTime": "125.700s",
                "startTime": "124.700s",
                "word": "she's"
              },
              {
                "endTime": "126s",
                "startTime": "125.700s",
                "word": "standing"
              },
              {
                "endTime": "126.400s",
                "startTime": "126s",
                "word": "with"
              },
              {
                "endTime": "126.500s",
                "startTime": "126.400s",
                "word": "it"
              },
              {
                "endTime": "126.800s",
                "startTime": "126.500s",
                "word": "hurt"
              },
              {
                "endTime": "126.900s",
                "startTime": "126.800s",
                "word": "the"
              },
              {
                "endTime": "127.400s",
                "startTime": "126.900s",
                "word": "woman"
              },
              {
                "endTime": "127.600s",
                "startTime": "127.400s",
                "word": "that"
              },
              {
                "endTime": "127.700s",
                "startTime": "127.600s",
                "word": "is"
              },
              {
                "endTime": "128.100s",
                "startTime": "127.700s",
                "word": "standing"
              },
              {
                "endTime": "128.200s",
                "startTime": "128.100s",
                "word": "with"
              },
              {
                "endTime": "128.400s",
                "startTime": "128.200s",
                "word": "her"
              },
              {
                "endTime": "129s",
                "startTime": "128.400s",
                "word": "foot"
              },
              {
                "endTime": "129.200s",
                "startTime": "129s",
                "word": "in"
              },
              {
                "endTime": "129.400s",
                "startTime": "129.200s",
                "word": "the"
              },
              {
                "endTime": "129.500s",
                "startTime": "129.400s",
                "word": "water"
              }
            ]
          }
        ]
      },
      {
        "alternatives": [
          {
            "confidence": 0.80456746,
            "transcript": " but not fair it isn't the water is running out of work but it's splashing up",
            "words": [
              {
                "endTime": "131.700s",
                "startTime": "131.400s",
                "word": "but"
              },
              {
                "endTime": "132s",
                "startTime": "131.700s",
                "word": "not"
              },
              {
                "endTime": "132.200s",
                "startTime": "132s",
                "word": "fair"
              },
              {
                "endTime": "132.400s",
                "startTime": "132.200s",
                "word": "it"
              },
              {
                "endTime": "132.500s",
                "startTime": "132.400s",
                "word": "isn't"
              },
              {
                "endTime": "132.900s",
                "startTime": "132.500s",
                "word": "the"
              },
              {
                "endTime": "133.100s",
                "startTime": "132.900s",
                "word": "water"
              },
              {
                "endTime": "133.300s",
                "startTime": "133.100s",
                "word": "is"
              },
              {
                "endTime": "133.500s",
                "startTime": "133.300s",
                "word": "running"
              },
              {
                "endTime": "133.900s",
                "startTime": "133.500s",
                "word": "out"
              },
              {
                "endTime": "133.900s",
                "startTime": "133.900s",
                "word": "of"
              },
              {
                "endTime": "134.200s",
                "startTime": "133.900s",
                "word": "work"
              },
              {
                "endTime": "134.400s",
                "startTime": "134.200s",
                "word": "but"
              },
              {
                "endTime": "134.600s",
                "startTime": "134.400s",
                "word": "it's"
              },
              {
                "endTime": "135s",
                "startTime": "134.600s",
                "word": "splashing"
              },
              {
                "endTime": "135.300s",
                "startTime": "135s",
                "word": "up"
              }
            ]
          }
        ]
      },
      {
        "alternatives": [
          {
            "confidence": 0.88934535,
            "transcript": " the right shoe is in the water bottle",
            "words": [
              {
                "endTime": "136.900s",
                "startTime": "136.600s",
                "word": "the"
              },
              {
                "endTime": "137.200s",
                "startTime": "136.900s",
                "word": "right"
              },
              {
                "endTime": "137.600s",
                "startTime": "137.200s",
                "word": "shoe"
              },
              {
                "endTime": "137.700s",
                "startTime": "137.600s",
                "word": "is"
              },
              {
                "endTime": "137.900s",
                "startTime": "137.700s",
                "word": "in"
              },
              {
                "endTime": "138s",
                "startTime": "137.900s",
                "word": "the"
              },
              {
                "endTime": "138.400s",
                "startTime": "138s",
                "word": "water"
              },
              {
                "endTime": "138.600s",
                "startTime": "138.400s",
                "word": "bottle"
              }
            ]
          }
        ]
      },
      {
        "alternatives": [
          {
            "confidence": 0.65886766,
            "transcript": " and that's what I stay in the kitchen",
            "words": [
              {
                "endTime": "141.200s",
                "startTime": "140.800s",
                "word": "and"
              },
              {
                "endTime": "141.400s",
                "startTime": "141.200s",
                "word": "that's"
              },
              {
                "endTime": "141.500s",
                "startTime": "141.400s",
                "word": "what"
              },
              {
                "endTime": "141.600s",
                "startTime": "141.500s",
                "word": "I"
              },
              {
                "endTime": "141.900s",
                "startTime": "141.600s",
                "word": "stay"
              },
              {
                "endTime": "142.200s",
                "startTime": "141.900s",
                "word": "in"
              },
              {
                "endTime": "144.300s",
                "startTime": "142.200s",
                "word": "the"
              },
              {
                "endTime": "144.500s",
                "startTime": "144.300s",
                "word": "kitchen"
              }
            ]
          }
        ]
      }
    ]
  }
}
