{
  "done": true,
  "metadata": {
    "@type": "type.googleapis.com/google.cloud.speech.v1.LongRunningRecognizeMetadata",
    "lastUpdateTime": "2021-03-10T12:53:14.887856Z",
    "progressPercent": 100,
    "startTime": "2021-03-10T12:52:57.956730Z",
    "uri": "gs://adresso/ADReSSo21-diagnosis-train/diagnosis/train/audio/cn/adrso177.wav"
  },
  "name": "5902686820495361227",
  "response": {
    "@type": "type.googleapis.com/google.cloud.speech.v1.LongRunningRecognizeResponse",
    "results": [
      {
        "alternatives": [
          {
            "confidence": 0.96870106,
            "transcript": "I want you to tell me everything that you see going on this picture everything that you see Happening Here",
            "words": [
              {
                "endTime": "0.600s",
                "startTime": "0.300s",
                "word": "I"
              },
              {
                "endTime": "0.900s",
                "startTime": "0.600s",
                "word": "want"
              },
              {
                "endTime": "1s",
                "startTime": "0.900s",
                "word": "you"
              },
              {
                "endTime": "1.100s",
                "startTime": "1s",
                "word": "to"
              },
              {
                "endTime": "1.400s",
                "startTime": "1.100s",
                "word": "tell"
              },
              {
                "endTime": "1.500s",
                "startTime": "1.400s",
                "word": "me"
              },
              {
                "endTime": "1.700s",
                "startTime": "1.500s",
                "word": "everything"
              },
              {
                "endTime": "2.300s",
                "startTime": "1.700s",
                "word": "that"
              },
              {
                "endTime": "2.400s",
                "startTime": "2.300s",
                "word": "you"
              },
              {
                "endTime": "2.700s",
                "startTime": "2.400s",
                "word": "see"
              },
              {
                "endTime": "2.900s",
                "startTime": "2.700s",
                "word": "going"
              },
              {
                "endTime": "3.200s",
                "startTime": "2.900s",
                "word": "on"
              },
              {
                "endTime": "3.400s",
                "startTime": "3.200s",
                "word": "this"
              },
              {
                "endTime": "3.800s",
                "startTime": "3.400s",
                "word": "picture"
              },
              {
                "endTime": "4.900s",
                "startTime": "3.800s",
                "word": "everything"
              },
              {
                "endTime": "5.300s",
                "startTime": "4.900s",
                "word": "that"
              },
              {
                "endTime": "5.400s",
                "startTime": "5.300s",
                "word": "you"
              },
              {
                "endTime": "5.600s",
                "startTime": "5.400s",
                "word": "see"
              },
              {
                "endTime": "6.100s",
                "startTime": "5.600s",
                "word": "Happening"
              },
              {
                "endTime": "6.800s",
                "startTime": "6.100s",
                "word": "Here"
              }
            ]
          }
        ]
      },
      {
        "alternatives": [
          {
            "confidence": 1,
            "transcript": " go ahead",
            "words": [
              {
                "endTime": "8.100s",
                "startTime": "7.700s",
                "word": "go"
              },
              {
                "endTime": "8.200s",
                "startTime": "8.100s",
                "word": "ahead"
              }
            ]
          }
        ]
      },
      {
        "alternatives": [
          {
            "confidence": 0.8358282,
            "transcript": " well Inspiron saying the boy is stealing cookies and they're always asking for cookie and the boy is standing on a stool which is tipping over",
            "words": [
              {
                "endTime": "10.300s",
                "startTime": "9.700s",
                "word": "well"
              },
              {
                "endTime": "11.100s",
                "startTime": "10.300s",
                "word": "Inspiron"
              },
              {
                "endTime": "11.400s",
                "startTime": "11.100s",
                "word": "saying"
              },
              {
                "endTime": "11.500s",
                "startTime": "11.400s",
                "word": "the"
              },
              {
                "endTime": "11.600s",
                "startTime": "11.500s",
                "word": "boy"
              },
              {
                "endTime": "11.900s",
                "startTime": "11.600s",
                "word": "is"
              },
              {
                "endTime": "12.400s",
                "startTime": "11.900s",
                "word": "stealing"
              },
              {
                "endTime": "12.700s",
                "startTime": "12.400s",
                "word": "cookies"
              },
              {
                "endTime": "14.300s",
                "startTime": "12.700s",
                "word": "and"
              },
              {
                "endTime": "14.600s",
                "startTime": "14.300s",
                "word": "they're"
              },
              {
                "endTime": "14.800s",
                "startTime": "14.600s",
                "word": "always"
              },
              {
                "endTime": "15.200s",
                "startTime": "14.800s",
                "word": "asking"
              },
              {
                "endTime": "15.700s",
                "startTime": "15.200s",
                "word": "for"
              },
              {
                "endTime": "16.300s",
                "startTime": "15.700s",
                "word": "cookie"
              },
              {
                "endTime": "17.200s",
                "startTime": "16.300s",
                "word": "and"
              },
              {
                "endTime": "17.200s",
                "startTime": "17.200s",
                "word": "the"
              },
              {
                "endTime": "17.400s",
                "startTime": "17.200s",
                "word": "boy"
              },
              {
                "endTime": "17.700s",
                "startTime": "17.400s",
                "word": "is"
              },
              {
                "endTime": "17.900s",
                "startTime": "17.700s",
                "word": "standing"
              },
              {
                "endTime": "18.300s",
                "startTime": "17.900s",
                "word": "on"
              },
              {
                "endTime": "18.500s",
                "startTime": "18.300s",
                "word": "a"
              },
              {
                "endTime": "19.500s",
                "startTime": "18.500s",
                "word": "stool"
              },
              {
                "endTime": "20s",
                "startTime": "19.500s",
                "word": "which"
              },
              {
                "endTime": "20.200s",
                "startTime": "20s",
                "word": "is"
              },
              {
                "endTime": "21s",
                "startTime": "20.200s",
                "word": "tipping"
              },
              {
                "endTime": "21.100s",
                "startTime": "21s",
                "word": "over"
              }
            ]
          }
        ]
      },
      {
        "alternatives": [
          {
            "confidence": 0.8058045,
            "transcript": " and the ladies drying a plate",
            "words": [
              {
                "endTime": "22.900s",
                "startTime": "22.500s",
                "word": "and"
              },
              {
                "endTime": "22.900s",
                "startTime": "22.900s",
                "word": "the"
              },
              {
                "endTime": "23.300s",
                "startTime": "22.900s",
                "word": "ladies"
              },
              {
                "endTime": "23.800s",
                "startTime": "23.300s",
                "word": "drying"
              },
              {
                "endTime": "23.900s",
                "startTime": "23.800s",
                "word": "a"
              },
              {
                "endTime": "24.500s",
                "startTime": "23.900s",
                "word": "plate"
              }
            ]
          }
        ]
      },
      {
        "alternatives": [
          {
            "confidence": 0.94173515,
            "transcript": " water is running in the sink overflowing on the floor and getting her feet but",
            "words": [
              {
                "endTime": "28.500s",
                "startTime": "27.900s",
                "word": "water"
              },
              {
                "endTime": "28.700s",
                "startTime": "28.500s",
                "word": "is"
              },
              {
                "endTime": "29s",
                "startTime": "28.700s",
                "word": "running"
              },
              {
                "endTime": "29.300s",
                "startTime": "29s",
                "word": "in"
              },
              {
                "endTime": "29.400s",
                "startTime": "29.300s",
                "word": "the"
              },
              {
                "endTime": "29.800s",
                "startTime": "29.400s",
                "word": "sink"
              },
              {
                "endTime": "30.900s",
                "startTime": "29.800s",
                "word": "overflowing"
              },
              {
                "endTime": "31.200s",
                "startTime": "30.900s",
                "word": "on"
              },
              {
                "endTime": "31.400s",
                "startTime": "31.200s",
                "word": "the"
              },
              {
                "endTime": "32.100s",
                "startTime": "31.400s",
                "word": "floor"
              },
              {
                "endTime": "32.700s",
                "startTime": "32.100s",
                "word": "and"
              },
              {
                "endTime": "33.100s",
                "startTime": "32.700s",
                "word": "getting"
              },
              {
                "endTime": "33.200s",
                "startTime": "33.100s",
                "word": "her"
              },
              {
                "endTime": "33.600s",
                "startTime": "33.200s",
                "word": "feet"
              },
              {
                "endTime": "33.700s",
                "startTime": "33.600s",
                "word": "but"
              }
            ]
          }
        ]
      },
      {
        "alternatives": [
          {
            "confidence": 0.980688,
            "transcript": " and the window is open",
            "words": [
              {
                "endTime": "36.100s",
                "startTime": "35.400s",
                "word": "and"
              },
              {
                "endTime": "36.200s",
                "startTime": "36.100s",
                "word": "the"
              },
              {
                "endTime": "36.600s",
                "startTime": "36.200s",
                "word": "window"
              },
              {
                "endTime": "36.900s",
                "startTime": "36.600s",
                "word": "is"
              },
              {
                "endTime": "37.600s",
                "startTime": "36.900s",
                "word": "open"
              }
            ]
          }
        ]
      },
      {
        "alternatives": [
          {
            "confidence": 0.8847001,
            "transcript": " in",
            "words": [
              {
                "endTime": "39.900s",
                "startTime": "39.400s",
                "word": "in"
              }
            ]
          }
        ]
      },
      {
        "alternatives": [
          {
            "confidence": 0.9140541,
            "transcript": " I don't know if there's anything special going on outside the window seems me the",
            "words": [
              {
                "endTime": "44.400s",
                "startTime": "44s",
                "word": "I"
              },
              {
                "endTime": "44.700s",
                "startTime": "44.400s",
                "word": "don't"
              },
              {
                "endTime": "44.800s",
                "startTime": "44.700s",
                "word": "know"
              },
              {
                "endTime": "44.900s",
                "startTime": "44.800s",
                "word": "if"
              },
              {
                "endTime": "45.200s",
                "startTime": "44.900s",
                "word": "there's"
              },
              {
                "endTime": "45.400s",
                "startTime": "45.200s",
                "word": "anything"
              },
              {
                "endTime": "45.800s",
                "startTime": "45.400s",
                "word": "special"
              },
              {
                "endTime": "46.100s",
                "startTime": "45.800s",
                "word": "going"
              },
              {
                "endTime": "46.400s",
                "startTime": "46.100s",
                "word": "on"
              },
              {
                "endTime": "46.800s",
                "startTime": "46.400s",
                "word": "outside"
              },
              {
                "endTime": "47.100s",
                "startTime": "46.800s",
                "word": "the"
              },
              {
                "endTime": "47.500s",
                "startTime": "47.100s",
                "word": "window"
              },
              {
                "endTime": "48.200s",
                "startTime": "47.500s",
                "word": "seems"
              },
              {
                "endTime": "48.500s",
                "startTime": "48.200s",
                "word": "me"
              },
              {
                "endTime": "48.600s",
                "startTime": "48.500s",
                "word": "the"
              }
            ]
          }
        ]
      },
      {
        "alternatives": [
          {
            "confidence": 0.9240301,
            "transcript": " Lex essentially this things that are going on in this picture",
            "words": [
              {
                "endTime": "51.100s",
                "startTime": "49.600s",
                "word": "Lex"
              },
              {
                "endTime": "52.300s",
                "startTime": "51.100s",
                "word": "essentially"
              },
              {
                "endTime": "52.500s",
                "startTime": "52.300s",
                "word": "this"
              },
              {
                "endTime": "53s",
                "startTime": "52.500s",
                "word": "things"
              },
              {
                "endTime": "53s",
                "startTime": "53s",
                "word": "that"
              },
              {
                "endTime": "53.200s",
                "startTime": "53s",
                "word": "are"
              },
              {
                "endTime": "53.300s",
                "startTime": "53.200s",
                "word": "going"
              },
              {
                "endTime": "53.600s",
                "startTime": "53.300s",
                "word": "on"
              },
              {
                "endTime": "53.900s",
                "startTime": "53.600s",
                "word": "in"
              },
              {
                "endTime": "54.200s",
                "startTime": "53.900s",
                "word": "this"
              },
              {
                "endTime": "54.500s",
                "startTime": "54.200s",
                "word": "picture"
              }
            ]
          }
        ]
      },
      {
        "alternatives": [
          {
            "confidence": 0.9333716,
            "transcript": " a girl is picking her nose",
            "words": [
              {
                "endTime": "57.300s",
                "startTime": "56.900s",
                "word": "a"
              },
              {
                "endTime": "57.600s",
                "startTime": "57.300s",
                "word": "girl"
              },
              {
                "endTime": "57.800s",
                "startTime": "57.600s",
                "word": "is"
              },
              {
                "endTime": "58.300s",
                "startTime": "57.800s",
                "word": "picking"
              },
              {
                "endTime": "58.400s",
                "startTime": "58.300s",
                "word": "her"
              },
              {
                "endTime": "58.400s",
                "startTime": "58.400s",
                "word": "nose"
              }
            ]
          }
        ]
      },
      {
        "alternatives": [
          {
            "confidence": 0.706215,
            "transcript": " the boys handing her cookie",
            "words": [
              {
                "endTime": "62.800s",
                "startTime": "62.400s",
                "word": "the"
              },
              {
                "endTime": "63.100s",
                "startTime": "62.800s",
                "word": "boys"
              },
              {
                "endTime": "63.700s",
                "startTime": "63.100s",
                "word": "handing"
              },
              {
                "endTime": "63.800s",
                "startTime": "63.700s",
                "word": "her"
              },
              {
                "endTime": "64.300s",
                "startTime": "63.800s",
                "word": "cookie"
              }
            ]
          }
        ]
      },
      {
        "alternatives": [
          {
            "confidence": 0.6726784,
            "transcript": " ravino's are the only activities I see okay",
            "words": [
              {
                "endTime": "71.900s",
                "startTime": "71s",
                "word": "ravino's"
              },
              {
                "endTime": "72s",
                "startTime": "71.900s",
                "word": "are"
              },
              {
                "endTime": "72.100s",
                "startTime": "72s",
                "word": "the"
              },
              {
                "endTime": "73s",
                "startTime": "72.100s",
                "word": "only"
              },
              {
                "endTime": "74s",
                "startTime": "73s",
                "word": "activities"
              },
              {
                "endTime": "74.100s",
                "startTime": "74s",
                "word": "I"
              },
              {
                "endTime": "74.500s",
                "startTime": "74.100s",
                "word": "see"
              },
              {
                "endTime": "75.700s",
                "startTime": "74.500s",
                "word": "okay"
              }
            ]
          }
        ]
      }
    ]
  }
}
