{
  "done": true,
  "metadata": {
    "@type": "type.googleapis.com/google.cloud.speech.v1.LongRunningRecognizeMetadata",
    "lastUpdateTime": "2021-03-10T12:53:03.906504Z",
    "progressPercent": 100,
    "startTime": "2021-03-10T12:52:48.719701Z",
    "uri": "gs://adresso/ADReSSo21-diagnosis-train/diagnosis/train/audio/cn/adrso167.wav"
  },
  "name": "2988963328749846959",
  "response": {
    "@type": "type.googleapis.com/google.cloud.speech.v1.LongRunningRecognizeResponse",
    "results": [
      {
        "alternatives": [
          {
            "confidence": 0.9850406,
            "transcript": "I'd like you to do is just look at the picture and tell me anything at all that you see going on",
            "words": [
              {
                "endTime": "0.900s",
                "startTime": "0.500s",
                "word": "I'd"
              },
              {
                "endTime": "1.100s",
                "startTime": "0.900s",
                "word": "like"
              },
              {
                "endTime": "1.200s",
                "startTime": "1.100s",
                "word": "you"
              },
              {
                "endTime": "1.200s",
                "startTime": "1.200s",
                "word": "to"
              },
              {
                "endTime": "1.500s",
                "startTime": "1.200s",
                "word": "do"
              },
              {
                "endTime": "1.600s",
                "startTime": "1.500s",
                "word": "is"
              },
              {
                "endTime": "1.600s",
                "startTime": "1.600s",
                "word": "just"
              },
              {
                "endTime": "1.900s",
                "startTime": "1.600s",
                "word": "look"
              },
              {
                "endTime": "2.100s",
                "startTime": "1.900s",
                "word": "at"
              },
              {
                "endTime": "2.200s",
                "startTime": "2.100s",
                "word": "the"
              },
              {
                "endTime": "2.700s",
                "startTime": "2.200s",
                "word": "picture"
              },
              {
                "endTime": "3.800s",
                "startTime": "2.700s",
                "word": "and"
              },
              {
                "endTime": "4s",
                "startTime": "3.800s",
                "word": "tell"
              },
              {
                "endTime": "4.100s",
                "startTime": "4s",
                "word": "me"
              },
              {
                "endTime": "4.600s",
                "startTime": "4.100s",
                "word": "anything"
              },
              {
                "endTime": "4.900s",
                "startTime": "4.600s",
                "word": "at"
              },
              {
                "endTime": "4.900s",
                "startTime": "4.900s",
                "word": "all"
              },
              {
                "endTime": "5.100s",
                "startTime": "4.900s",
                "word": "that"
              },
              {
                "endTime": "5.400s",
                "startTime": "5.100s",
                "word": "you"
              },
              {
                "endTime": "5.600s",
                "startTime": "5.400s",
                "word": "see"
              },
              {
                "endTime": "5.900s",
                "startTime": "5.600s",
                "word": "going"
              },
              {
                "endTime": "6.200s",
                "startTime": "5.900s",
                "word": "on"
              }
            ]
          }
        ]
      },
      {
        "alternatives": [
          {
            "confidence": 0.9244117,
            "transcript": " children are getting into the cookie jar little boy who's on the stool is about to fall because of school is going to topple over mother has her back turned is drying the dishes that the sink is full of water and the waters begin to spill over onto the floor",
            "words": [
              {
                "endTime": "13.500s",
                "startTime": "12.600s",
                "word": "children"
              },
              {
                "endTime": "13.600s",
                "startTime": "13.500s",
                "word": "are"
              },
              {
                "endTime": "13.700s",
                "startTime": "13.600s",
                "word": "getting"
              },
              {
                "endTime": "14.100s",
                "startTime": "13.700s",
                "word": "into"
              },
              {
                "endTime": "14.200s",
                "startTime": "14.100s",
                "word": "the"
              },
              {
                "endTime": "15.500s",
                "startTime": "14.200s",
                "word": "cookie"
              },
              {
                "endTime": "15.800s",
                "startTime": "15.500s",
                "word": "jar"
              },
              {
                "endTime": "16.200s",
                "startTime": "15.800s",
                "word": "little"
              },
              {
                "endTime": "16.400s",
                "startTime": "16.200s",
                "word": "boy"
              },
              {
                "endTime": "16.700s",
                "startTime": "16.400s",
                "word": "who's"
              },
              {
                "endTime": "16.800s",
                "startTime": "16.700s",
                "word": "on"
              },
              {
                "endTime": "16.900s",
                "startTime": "16.800s",
                "word": "the"
              },
              {
                "endTime": "17.400s",
                "startTime": "16.900s",
                "word": "stool"
              },
              {
                "endTime": "17.600s",
                "startTime": "17.400s",
                "word": "is"
              },
              {
                "endTime": "17.900s",
                "startTime": "17.600s",
                "word": "about"
              },
              {
                "endTime": "18s",
                "startTime": "17.900s",
                "word": "to"
              },
              {
                "endTime": "18.100s",
                "startTime": "18s",
                "word": "fall"
              },
              {
                "endTime": "18.500s",
                "startTime": "18.100s",
                "word": "because"
              },
              {
                "endTime": "18.800s",
                "startTime": "18.500s",
                "word": "of"
              },
              {
                "endTime": "19.700s",
                "startTime": "18.800s",
                "word": "school"
              },
              {
                "endTime": "20s",
                "startTime": "19.700s",
                "word": "is"
              },
              {
                "endTime": "20.800s",
                "startTime": "20s",
                "word": "going"
              },
              {
                "endTime": "20.900s",
                "startTime": "20.800s",
                "word": "to"
              },
              {
                "endTime": "22.300s",
                "startTime": "20.900s",
                "word": "topple"
              },
              {
                "endTime": "22.400s",
                "startTime": "22.300s",
                "word": "over"
              },
              {
                "endTime": "23.700s",
                "startTime": "22.400s",
                "word": "mother"
              },
              {
                "endTime": "24s",
                "startTime": "23.700s",
                "word": "has"
              },
              {
                "endTime": "24.100s",
                "startTime": "24s",
                "word": "her"
              },
              {
                "endTime": "24.400s",
                "startTime": "24.100s",
                "word": "back"
              },
              {
                "endTime": "24.500s",
                "startTime": "24.400s",
                "word": "turned"
              },
              {
                "endTime": "24.900s",
                "startTime": "24.500s",
                "word": "is"
              },
              {
                "endTime": "25.300s",
                "startTime": "24.900s",
                "word": "drying"
              },
              {
                "endTime": "25.400s",
                "startTime": "25.300s",
                "word": "the"
              },
              {
                "endTime": "25.500s",
                "startTime": "25.400s",
                "word": "dishes"
              },
              {
                "endTime": "27s",
                "startTime": "25.500s",
                "word": "that"
              },
              {
                "endTime": "27.200s",
                "startTime": "27s",
                "word": "the"
              },
              {
                "endTime": "27.500s",
                "startTime": "27.200s",
                "word": "sink"
              },
              {
                "endTime": "27.600s",
                "startTime": "27.500s",
                "word": "is"
              },
              {
                "endTime": "27.700s",
                "startTime": "27.600s",
                "word": "full"
              },
              {
                "endTime": "27.900s",
                "startTime": "27.700s",
                "word": "of"
              },
              {
                "endTime": "28.100s",
                "startTime": "27.900s",
                "word": "water"
              },
              {
                "endTime": "28.600s",
                "startTime": "28.100s",
                "word": "and"
              },
              {
                "endTime": "28.800s",
                "startTime": "28.600s",
                "word": "the"
              },
              {
                "endTime": "29.100s",
                "startTime": "28.800s",
                "word": "waters"
              },
              {
                "endTime": "29.400s",
                "startTime": "29.100s",
                "word": "begin"
              },
              {
                "endTime": "29.600s",
                "startTime": "29.400s",
                "word": "to"
              },
              {
                "endTime": "29.900s",
                "startTime": "29.600s",
                "word": "spill"
              },
              {
                "endTime": "30.200s",
                "startTime": "29.900s",
                "word": "over"
              },
              {
                "endTime": "30.300s",
                "startTime": "30.200s",
                "word": "onto"
              },
              {
                "endTime": "30.600s",
                "startTime": "30.300s",
                "word": "the"
              },
              {
                "endTime": "31.100s",
                "startTime": "30.600s",
                "word": "floor"
              }
            ]
          }
        ]
      },
      {
        "alternatives": [
          {
            "confidence": 0.8176007,
            "transcript": " sin COs in front of a window and look out the window and see if pack and what is always they are you are",
            "words": [
              {
                "endTime": "33s",
                "startTime": "31.800s",
                "word": "sin"
              },
              {
                "endTime": "33.300s",
                "startTime": "33s",
                "word": "COs"
              },
              {
                "endTime": "33.600s",
                "startTime": "33.300s",
                "word": "in"
              },
              {
                "endTime": "33.900s",
                "startTime": "33.600s",
                "word": "front"
              },
              {
                "endTime": "34s",
                "startTime": "33.900s",
                "word": "of"
              },
              {
                "endTime": "34.100s",
                "startTime": "34s",
                "word": "a"
              },
              {
                "endTime": "34.200s",
                "startTime": "34.100s",
                "word": "window"
              },
              {
                "endTime": "36.600s",
                "startTime": "34.200s",
                "word": "and"
              },
              {
                "endTime": "36.800s",
                "startTime": "36.600s",
                "word": "look"
              },
              {
                "endTime": "36.800s",
                "startTime": "36.800s",
                "word": "out"
              },
              {
                "endTime": "37.100s",
                "startTime": "36.800s",
                "word": "the"
              },
              {
                "endTime": "37.500s",
                "startTime": "37.100s",
                "word": "window"
              },
              {
                "endTime": "37.600s",
                "startTime": "37.500s",
                "word": "and"
              },
              {
                "endTime": "37.900s",
                "startTime": "37.600s",
                "word": "see"
              },
              {
                "endTime": "38.200s",
                "startTime": "37.900s",
                "word": "if"
              },
              {
                "endTime": "38.600s",
                "startTime": "38.200s",
                "word": "pack"
              },
              {
                "endTime": "40.100s",
                "startTime": "38.600s",
                "word": "and"
              },
              {
                "endTime": "40.200s",
                "startTime": "40.100s",
                "word": "what"
              },
              {
                "endTime": "40.300s",
                "startTime": "40.200s",
                "word": "is"
              },
              {
                "endTime": "40.500s",
                "startTime": "40.300s",
                "word": "always"
              },
              {
                "endTime": "40.900s",
                "startTime": "40.500s",
                "word": "they"
              },
              {
                "endTime": "41.100s",
                "startTime": "40.900s",
                "word": "are"
              },
              {
                "endTime": "41.300s",
                "startTime": "41.100s",
                "word": "you"
              },
              {
                "endTime": "41.300s",
                "startTime": "41.300s",
                "word": "are"
              }
            ]
          }
        ]
      },
      {
        "alternatives": [
          {
            "confidence": 0.94304746,
            "transcript": " there's a plate",
            "words": [
              {
                "endTime": "44.800s",
                "startTime": "43.400s",
                "word": "there's"
              },
              {
                "endTime": "45s",
                "startTime": "44.800s",
                "word": "a"
              },
              {
                "endTime": "46.100s",
                "startTime": "45s",
                "word": "plate"
              }
            ]
          }
        ]
      },
      {
        "alternatives": [
          {
            "confidence": 0.81476575,
            "transcript": " and two cups are dishes on the counter",
            "words": [
              {
                "endTime": "48.100s",
                "startTime": "47.100s",
                "word": "and"
              },
              {
                "endTime": "48.900s",
                "startTime": "48.100s",
                "word": "two"
              },
              {
                "endTime": "49.200s",
                "startTime": "48.900s",
                "word": "cups"
              },
              {
                "endTime": "49.400s",
                "startTime": "49.200s",
                "word": "are"
              },
              {
                "endTime": "49.900s",
                "startTime": "49.400s",
                "word": "dishes"
              },
              {
                "endTime": "50.400s",
                "startTime": "49.900s",
                "word": "on"
              },
              {
                "endTime": "50.500s",
                "startTime": "50.400s",
                "word": "the"
              },
              {
                "endTime": "50.700s",
                "startTime": "50.500s",
                "word": "counter"
              }
            ]
          }
        ]
      },
      {
        "alternatives": [
          {
            "confidence": 0.91356826,
            "transcript": " the children getting into the cookie jar with one boy and one girl",
            "words": [
              {
                "endTime": "53.200s",
                "startTime": "52.800s",
                "word": "the"
              },
              {
                "endTime": "53.800s",
                "startTime": "53.200s",
                "word": "children"
              },
              {
                "endTime": "54s",
                "startTime": "53.800s",
                "word": "getting"
              },
              {
                "endTime": "54.200s",
                "startTime": "54s",
                "word": "into"
              },
              {
                "endTime": "54.300s",
                "startTime": "54.200s",
                "word": "the"
              },
              {
                "endTime": "54.600s",
                "startTime": "54.300s",
                "word": "cookie"
              },
              {
                "endTime": "54.900s",
                "startTime": "54.600s",
                "word": "jar"
              },
              {
                "endTime": "56.100s",
                "startTime": "54.900s",
                "word": "with"
              },
              {
                "endTime": "56.300s",
                "startTime": "56.100s",
                "word": "one"
              },
              {
                "endTime": "56.500s",
                "startTime": "56.300s",
                "word": "boy"
              },
              {
                "endTime": "56.800s",
                "startTime": "56.500s",
                "word": "and"
              },
              {
                "endTime": "56.900s",
                "startTime": "56.800s",
                "word": "one"
              },
              {
                "endTime": "57.100s",
                "startTime": "56.900s",
                "word": "girl"
              }
            ]
          }
        ]
      },
      {
        "alternatives": [
          {
            "confidence": 0.86453015,
            "transcript": " the cookie jar is labeled cookie jar of the cupboard door is open",
            "words": [
              {
                "endTime": "61s",
                "startTime": "60.600s",
                "word": "the"
              },
              {
                "endTime": "61.300s",
                "startTime": "61s",
                "word": "cookie"
              },
              {
                "endTime": "61.400s",
                "startTime": "61.300s",
                "word": "jar"
              },
              {
                "endTime": "62.800s",
                "startTime": "61.400s",
                "word": "is"
              },
              {
                "endTime": "63.400s",
                "startTime": "62.800s",
                "word": "labeled"
              },
              {
                "endTime": "63.700s",
                "startTime": "63.400s",
                "word": "cookie"
              },
              {
                "endTime": "64s",
                "startTime": "63.700s",
                "word": "jar"
              },
              {
                "endTime": "64.200s",
                "startTime": "64s",
                "word": "of"
              },
              {
                "endTime": "64.200s",
                "startTime": "64.200s",
                "word": "the"
              },
              {
                "endTime": "64.800s",
                "startTime": "64.200s",
                "word": "cupboard"
              },
              {
                "endTime": "65.200s",
                "startTime": "64.800s",
                "word": "door"
              },
              {
                "endTime": "65.400s",
                "startTime": "65.200s",
                "word": "is"
              },
              {
                "endTime": "65.900s",
                "startTime": "65.400s",
                "word": "open"
              }
            ]
          }
        ]
      },
      {
        "alternatives": [
          {
            "confidence": 0.92811745,
            "transcript": " are curtains at the kitchen window the mother is wearing an apron as a sleeveless dress and short hair",
            "words": [
              {
                "endTime": "67.200s",
                "startTime": "66.700s",
                "word": "are"
              },
              {
                "endTime": "67.700s",
                "startTime": "67.200s",
                "word": "curtains"
              },
              {
                "endTime": "67.800s",
                "startTime": "67.700s",
                "word": "at"
              },
              {
                "endTime": "67.900s",
                "startTime": "67.800s",
                "word": "the"
              },
              {
                "endTime": "68.300s",
                "startTime": "67.900s",
                "word": "kitchen"
              },
              {
                "endTime": "68.400s",
                "startTime": "68.300s",
                "word": "window"
              },
              {
                "endTime": "69.700s",
                "startTime": "68.400s",
                "word": "the"
              },
              {
                "endTime": "70.100s",
                "startTime": "69.700s",
                "word": "mother"
              },
              {
                "endTime": "70.200s",
                "startTime": "70.100s",
                "word": "is"
              },
              {
                "endTime": "70.600s",
                "startTime": "70.200s",
                "word": "wearing"
              },
              {
                "endTime": "70.700s",
                "startTime": "70.600s",
                "word": "an"
              },
              {
                "endTime": "71s",
                "startTime": "70.700s",
                "word": "apron"
              },
              {
                "endTime": "72.300s",
                "startTime": "71s",
                "word": "as"
              },
              {
                "endTime": "72.500s",
                "startTime": "72.300s",
                "word": "a"
              },
              {
                "endTime": "72.800s",
                "startTime": "72.500s",
                "word": "sleeveless"
              },
              {
                "endTime": "73s",
                "startTime": "72.800s",
                "word": "dress"
              },
              {
                "endTime": "73.500s",
                "startTime": "73s",
                "word": "and"
              },
              {
                "endTime": "73.800s",
                "startTime": "73.500s",
                "word": "short"
              },
              {
                "endTime": "74.100s",
                "startTime": "73.800s",
                "word": "hair"
              }
            ]
          }
        ]
      },
      {
        "alternatives": [
          {
            "confidence": 0.9534525,
            "transcript": " little girl has straps on her shoes",
            "words": [
              {
                "endTime": "75.800s",
                "startTime": "75.200s",
                "word": "little"
              },
              {
                "endTime": "76s",
                "startTime": "75.800s",
                "word": "girl"
              },
              {
                "endTime": "76.300s",
                "startTime": "76s",
                "word": "has"
              },
              {
                "endTime": "76.700s",
                "startTime": "76.300s",
                "word": "straps"
              },
              {
                "endTime": "76.900s",
                "startTime": "76.700s",
                "word": "on"
              },
              {
                "endTime": "77.100s",
                "startTime": "76.900s",
                "word": "her"
              },
              {
                "endTime": "77.600s",
                "startTime": "77.100s",
                "word": "shoes"
              }
            ]
          }
        ]
      },
      {
        "alternatives": [
          {
            "confidence": 0.77565604,
            "transcript": " the store is a three-legged stool",
            "words": [
              {
                "endTime": "79.500s",
                "startTime": "79.100s",
                "word": "the"
              },
              {
                "endTime": "80s",
                "startTime": "79.500s",
                "word": "store"
              },
              {
                "endTime": "80.200s",
                "startTime": "80s",
                "word": "is"
              },
              {
                "endTime": "80.200s",
                "startTime": "80.200s",
                "word": "a"
              },
              {
                "endTime": "80.900s",
                "startTime": "80.200s",
                "word": "three-legged"
              },
              {
                "endTime": "81.200s",
                "startTime": "80.900s",
                "word": "stool"
              }
            ]
          }
        ]
      }
    ]
  }
}
