{
  "done": true,
  "metadata": {
    "@type": "type.googleapis.com/google.cloud.speech.v1.LongRunningRecognizeMetadata",
    "lastUpdateTime": "2021-03-10T12:53:15.168220Z",
    "progressPercent": 100,
    "startTime": "2021-03-10T12:52:45.514952Z",
    "uri": "gs://adresso/ADReSSo21-diagnosis-train/diagnosis/train/audio/cn/adrso164.wav"
  },
  "name": "3065613548062672145",
  "response": {
    "@type": "type.googleapis.com/google.cloud.speech.v1.LongRunningRecognizeResponse",
    "results": [
      {
        "alternatives": [
          {
            "confidence": 0.89302397,
            "transcript": "what do you see going on",
            "words": [
              {
                "endTime": "1.400s",
                "startTime": "0s",
                "word": "what"
              },
              {
                "endTime": "1.500s",
                "startTime": "1.400s",
                "word": "do"
              },
              {
                "endTime": "1.600s",
                "startTime": "1.500s",
                "word": "you"
              },
              {
                "endTime": "1.800s",
                "startTime": "1.600s",
                "word": "see"
              },
              {
                "endTime": "2s",
                "startTime": "1.800s",
                "word": "going"
              },
              {
                "endTime": "2.300s",
                "startTime": "2s",
                "word": "on"
              }
            ]
          }
        ]
      },
      {
        "alternatives": [
          {
            "confidence": 0.90853244,
            "transcript": " CNN little boy on still falling over taking cookies out of the cookie jar and the little girl is putting her finger to her man to keep it quiet mother is washing dishes",
            "words": [
              {
                "endTime": "4.300s",
                "startTime": "3.700s",
                "word": "CNN"
              },
              {
                "endTime": "4.600s",
                "startTime": "4.300s",
                "word": "little"
              },
              {
                "endTime": "4.800s",
                "startTime": "4.600s",
                "word": "boy"
              },
              {
                "endTime": "5.100s",
                "startTime": "4.800s",
                "word": "on"
              },
              {
                "endTime": "5.900s",
                "startTime": "5.100s",
                "word": "still"
              },
              {
                "endTime": "7.600s",
                "startTime": "5.900s",
                "word": "falling"
              },
              {
                "endTime": "8.100s",
                "startTime": "7.600s",
                "word": "over"
              },
              {
                "endTime": "9.800s",
                "startTime": "8.100s",
                "word": "taking"
              },
              {
                "endTime": "10.600s",
                "startTime": "9.800s",
                "word": "cookies"
              },
              {
                "endTime": "10.800s",
                "startTime": "10.600s",
                "word": "out"
              },
              {
                "endTime": "10.900s",
                "startTime": "10.800s",
                "word": "of"
              },
              {
                "endTime": "11s",
                "startTime": "10.900s",
                "word": "the"
              },
              {
                "endTime": "11.200s",
                "startTime": "11s",
                "word": "cookie"
              },
              {
                "endTime": "11.700s",
                "startTime": "11.200s",
                "word": "jar"
              },
              {
                "endTime": "12.800s",
                "startTime": "11.700s",
                "word": "and"
              },
              {
                "endTime": "12.900s",
                "startTime": "12.800s",
                "word": "the"
              },
              {
                "endTime": "13.200s",
                "startTime": "12.900s",
                "word": "little"
              },
              {
                "endTime": "13.400s",
                "startTime": "13.200s",
                "word": "girl"
              },
              {
                "endTime": "14.200s",
                "startTime": "13.400s",
                "word": "is"
              },
              {
                "endTime": "14.800s",
                "startTime": "14.200s",
                "word": "putting"
              },
              {
                "endTime": "14.900s",
                "startTime": "14.800s",
                "word": "her"
              },
              {
                "endTime": "15.300s",
                "startTime": "14.900s",
                "word": "finger"
              },
              {
                "endTime": "15.500s",
                "startTime": "15.300s",
                "word": "to"
              },
              {
                "endTime": "15.600s",
                "startTime": "15.500s",
                "word": "her"
              },
              {
                "endTime": "16s",
                "startTime": "15.600s",
                "word": "man"
              },
              {
                "endTime": "18.600s",
                "startTime": "16s",
                "word": "to"
              },
              {
                "endTime": "18.800s",
                "startTime": "18.600s",
                "word": "keep"
              },
              {
                "endTime": "19s",
                "startTime": "18.800s",
                "word": "it"
              },
              {
                "endTime": "19.100s",
                "startTime": "19s",
                "word": "quiet"
              },
              {
                "endTime": "22s",
                "startTime": "19.100s",
                "word": "mother"
              },
              {
                "endTime": "22.200s",
                "startTime": "22s",
                "word": "is"
              },
              {
                "endTime": "22.700s",
                "startTime": "22.200s",
                "word": "washing"
              },
              {
                "endTime": "23.300s",
                "startTime": "22.700s",
                "word": "dishes"
              }
            ]
          }
        ]
      },
      {
        "alternatives": [
          {
            "confidence": 0.9665781,
            "transcript": " she's drying the dishes and letting the water",
            "words": [
              {
                "endTime": "25.600s",
                "startTime": "25s",
                "word": "she's"
              },
              {
                "endTime": "26s",
                "startTime": "25.600s",
                "word": "drying"
              },
              {
                "endTime": "26.400s",
                "startTime": "26s",
                "word": "the"
              },
              {
                "endTime": "26.600s",
                "startTime": "26.400s",
                "word": "dishes"
              },
              {
                "endTime": "27s",
                "startTime": "26.600s",
                "word": "and"
              },
              {
                "endTime": "27.200s",
                "startTime": "27s",
                "word": "letting"
              },
              {
                "endTime": "27.400s",
                "startTime": "27.200s",
                "word": "the"
              },
              {
                "endTime": "27.600s",
                "startTime": "27.400s",
                "word": "water"
              }
            ]
          }
        ]
      },
      {
        "alternatives": [
          {
            "confidence": 0.86437666,
            "transcript": " keep on running in the in the sink in the water is running over and she's standing in the water",
            "words": [
              {
                "endTime": "31.300s",
                "startTime": "28.800s",
                "word": "keep"
              },
              {
                "endTime": "31.500s",
                "startTime": "31.300s",
                "word": "on"
              },
              {
                "endTime": "31.700s",
                "startTime": "31.500s",
                "word": "running"
              },
              {
                "endTime": "32s",
                "startTime": "31.700s",
                "word": "in"
              },
              {
                "endTime": "32.100s",
                "startTime": "32s",
                "word": "the"
              },
              {
                "endTime": "32.700s",
                "startTime": "32.100s",
                "word": "in"
              },
              {
                "endTime": "32.800s",
                "startTime": "32.700s",
                "word": "the"
              },
              {
                "endTime": "33.200s",
                "startTime": "32.800s",
                "word": "sink"
              },
              {
                "endTime": "33.400s",
                "startTime": "33.200s",
                "word": "in"
              },
              {
                "endTime": "33.400s",
                "startTime": "33.400s",
                "word": "the"
              },
              {
                "endTime": "33.500s",
                "startTime": "33.400s",
                "word": "water"
              },
              {
                "endTime": "34.100s",
                "startTime": "33.500s",
                "word": "is"
              },
              {
                "endTime": "34.800s",
                "startTime": "34.100s",
                "word": "running"
              },
              {
                "endTime": "35.300s",
                "startTime": "34.800s",
                "word": "over"
              },
              {
                "endTime": "35.500s",
                "startTime": "35.300s",
                "word": "and"
              },
              {
                "endTime": "35.900s",
                "startTime": "35.500s",
                "word": "she's"
              },
              {
                "endTime": "36.400s",
                "startTime": "35.900s",
                "word": "standing"
              },
              {
                "endTime": "37.500s",
                "startTime": "36.400s",
                "word": "in"
              },
              {
                "endTime": "37.700s",
                "startTime": "37.500s",
                "word": "the"
              },
              {
                "endTime": "38.700s",
                "startTime": "37.700s",
                "word": "water"
              }
            ]
          }
        ]
      },
      {
        "alternatives": [
          {
            "confidence": 0.8479078,
            "transcript": " there's a window there she's looking at at the grass and the flowers",
            "words": [
              {
                "endTime": "44.400s",
                "startTime": "43.300s",
                "word": "there's"
              },
              {
                "endTime": "44.500s",
                "startTime": "44.400s",
                "word": "a"
              },
              {
                "endTime": "44.800s",
                "startTime": "44.500s",
                "word": "window"
              },
              {
                "endTime": "45.600s",
                "startTime": "44.800s",
                "word": "there"
              },
              {
                "endTime": "46.400s",
                "startTime": "45.600s",
                "word": "she's"
              },
              {
                "endTime": "46.800s",
                "startTime": "46.400s",
                "word": "looking"
              },
              {
                "endTime": "47.100s",
                "startTime": "46.800s",
                "word": "at"
              },
              {
                "endTime": "48.100s",
                "startTime": "47.100s",
                "word": "at"
              },
              {
                "endTime": "48.300s",
                "startTime": "48.100s",
                "word": "the"
              },
              {
                "endTime": "49s",
                "startTime": "48.300s",
                "word": "grass"
              },
              {
                "endTime": "49.300s",
                "startTime": "49s",
                "word": "and"
              },
              {
                "endTime": "49.400s",
                "startTime": "49.300s",
                "word": "the"
              },
              {
                "endTime": "49.500s",
                "startTime": "49.400s",
                "word": "flowers"
              }
            ]
          }
        ]
      },
      {
        "alternatives": [
          {
            "confidence": 0.8984117,
            "transcript": " and say yeah",
            "words": [
              {
                "endTime": "52.100s",
                "startTime": "51.300s",
                "word": "and"
              },
              {
                "endTime": "53.100s",
                "startTime": "52.100s",
                "word": "say"
              },
              {
                "endTime": "53.400s",
                "startTime": "53.100s",
                "word": "yeah"
              }
            ]
          }
        ]
      },
      {
        "alternatives": [
          {
            "confidence": 0.84754455,
            "transcript": " curtains seems to be shaking from the",
            "words": [
              {
                "endTime": "57.200s",
                "startTime": "56.500s",
                "word": "curtains"
              },
              {
                "endTime": "58.200s",
                "startTime": "57.200s",
                "word": "seems"
              },
              {
                "endTime": "58.300s",
                "startTime": "58.200s",
                "word": "to"
              },
              {
                "endTime": "58.500s",
                "startTime": "58.300s",
                "word": "be"
              },
              {
                "endTime": "59.100s",
                "startTime": "58.500s",
                "word": "shaking"
              },
              {
                "endTime": "59.500s",
                "startTime": "59.100s",
                "word": "from"
              },
              {
                "endTime": "59.600s",
                "startTime": "59.500s",
                "word": "the"
              }
            ]
          }
        ]
      },
      {
        "alternatives": [
          {
            "confidence": 0.8961298,
            "transcript": " the air that's blowing in the dishes that she's through drying or sitting on the sink top",
            "words": [
              {
                "endTime": "64.200s",
                "startTime": "63.600s",
                "word": "the"
              },
              {
                "endTime": "64.500s",
                "startTime": "64.200s",
                "word": "air"
              },
              {
                "endTime": "64.700s",
                "startTime": "64.500s",
                "word": "that's"
              },
              {
                "endTime": "65.200s",
                "startTime": "64.700s",
                "word": "blowing"
              },
              {
                "endTime": "65.500s",
                "startTime": "65.200s",
                "word": "in"
              },
              {
                "endTime": "66.700s",
                "startTime": "65.500s",
                "word": "the"
              },
              {
                "endTime": "67s",
                "startTime": "66.700s",
                "word": "dishes"
              },
              {
                "endTime": "67.200s",
                "startTime": "67s",
                "word": "that"
              },
              {
                "endTime": "67.500s",
                "startTime": "67.200s",
                "word": "she's"
              },
              {
                "endTime": "68s",
                "startTime": "67.500s",
                "word": "through"
              },
              {
                "endTime": "69.300s",
                "startTime": "68s",
                "word": "drying"
              },
              {
                "endTime": "70s",
                "startTime": "69.300s",
                "word": "or"
              },
              {
                "endTime": "70.400s",
                "startTime": "70s",
                "word": "sitting"
              },
              {
                "endTime": "70.600s",
                "startTime": "70.400s",
                "word": "on"
              },
              {
                "endTime": "70.700s",
                "startTime": "70.600s",
                "word": "the"
              },
              {
                "endTime": "71.100s",
                "startTime": "70.700s",
                "word": "sink"
              },
              {
                "endTime": "71.400s",
                "startTime": "71.100s",
                "word": "top"
              }
            ]
          }
        ]
      },
      {
        "alternatives": [
          {
            "confidence": 0.90278214,
            "transcript": " little girls raising her hands for the little boy that hand her a cookie and he has one cookie and his hand and he's going after another one",
            "words": [
              {
                "endTime": "75.600s",
                "startTime": "74.700s",
                "word": "little"
              },
              {
                "endTime": "76.200s",
                "startTime": "75.600s",
                "word": "girls"
              },
              {
                "endTime": "77.400s",
                "startTime": "76.200s",
                "word": "raising"
              },
              {
                "endTime": "77.600s",
                "startTime": "77.400s",
                "word": "her"
              },
              {
                "endTime": "78.600s",
                "startTime": "77.600s",
                "word": "hands"
              },
              {
                "endTime": "78.900s",
                "startTime": "78.600s",
                "word": "for"
              },
              {
                "endTime": "79s",
                "startTime": "78.900s",
                "word": "the"
              },
              {
                "endTime": "79.300s",
                "startTime": "79s",
                "word": "little"
              },
              {
                "endTime": "79.400s",
                "startTime": "79.300s",
                "word": "boy"
              },
              {
                "endTime": "79.600s",
                "startTime": "79.400s",
                "word": "that"
              },
              {
                "endTime": "80s",
                "startTime": "79.600s",
                "word": "hand"
              },
              {
                "endTime": "80.200s",
                "startTime": "80s",
                "word": "her"
              },
              {
                "endTime": "81s",
                "startTime": "80.200s",
                "word": "a"
              },
              {
                "endTime": "81.500s",
                "startTime": "81s",
                "word": "cookie"
              },
              {
                "endTime": "82.700s",
                "startTime": "81.500s",
                "word": "and"
              },
              {
                "endTime": "82.800s",
                "startTime": "82.700s",
                "word": "he"
              },
              {
                "endTime": "83.300s",
                "startTime": "82.800s",
                "word": "has"
              },
              {
                "endTime": "83.600s",
                "startTime": "83.300s",
                "word": "one"
              },
              {
                "endTime": "83.800s",
                "startTime": "83.600s",
                "word": "cookie"
              },
              {
                "endTime": "84.200s",
                "startTime": "83.800s",
                "word": "and"
              },
              {
                "endTime": "84.400s",
                "startTime": "84.200s",
                "word": "his"
              },
              {
                "endTime": "84.800s",
                "startTime": "84.400s",
                "word": "hand"
              },
              {
                "endTime": "84.900s",
                "startTime": "84.800s",
                "word": "and"
              },
              {
                "endTime": "85.100s",
                "startTime": "84.900s",
                "word": "he's"
              },
              {
                "endTime": "85.200s",
                "startTime": "85.100s",
                "word": "going"
              },
              {
                "endTime": "85.500s",
                "startTime": "85.200s",
                "word": "after"
              },
              {
                "endTime": "85.900s",
                "startTime": "85.500s",
                "word": "another"
              },
              {
                "endTime": "86.300s",
                "startTime": "85.900s",
                "word": "one"
              }
            ]
          }
        ]
      },
      {
        "alternatives": [
          {
            "confidence": 0.9819744,
            "transcript": " ready to hand her",
            "words": [
              {
                "endTime": "90.700s",
                "startTime": "88.800s",
                "word": "ready"
              },
              {
                "endTime": "90.800s",
                "startTime": "90.700s",
                "word": "to"
              },
              {
                "endTime": "91.200s",
                "startTime": "90.800s",
                "word": "hand"
              },
              {
                "endTime": "91.300s",
                "startTime": "91.200s",
                "word": "her"
              }
            ]
          }
        ]
      },
      {
        "alternatives": [
          {
            "confidence": 0.7109592,
            "transcript": " dish cloth",
            "words": [
              {
                "endTime": "101s",
                "startTime": "97.700s",
                "word": "dish"
              },
              {
                "endTime": "101.500s",
                "startTime": "101s",
                "word": "cloth"
              }
            ]
          }
        ]
      }
    ]
  }
}
