{
  "done": true,
  "metadata": {
    "@type": "type.googleapis.com/google.cloud.speech.v1.LongRunningRecognizeMetadata",
    "lastUpdateTime": "2021-03-10T12:52:37.479915Z",
    "progressPercent": 100,
    "startTime": "2021-03-10T12:52:20.883187Z",
    "uri": "gs://adresso/ADReSSo21-diagnosis-train/diagnosis/train/audio/cn/adrso019.wav"
  },
  "name": "2190916363757001438",
  "response": {
    "@type": "type.googleapis.com/google.cloud.speech.v1.LongRunningRecognizeResponse",
    "results": [
      {
        "alternatives": [
          {
            "confidence": 0.9559732,
            "transcript": "okay little boys on a stool that he looks like he's going to fall going to the cookie jar and a text when is school over cuz it's like finding a little girl is pointing and he's had no cookie and Mom is drying the dishes and all the water coming out of the sink and she's not paying attention to that she's looking straight at slept with me what you doing and there is a cabinet in that room and there's played into cups and you can just outside the window he still walk way you see grassy another window with a curtain and in the window and the route that she's in has the curtain and there's a window",
            "words": [
              {
                "endTime": "1.600s",
                "startTime": "0s",
                "word": "okay"
              },
              {
                "endTime": "3s",
                "startTime": "1.600s",
                "word": "little"
              },
              {
                "endTime": "3.500s",
                "startTime": "3s",
                "word": "boys"
              },
              {
                "endTime": "3.900s",
                "startTime": "3.500s",
                "word": "on"
              },
              {
                "endTime": "4s",
                "startTime": "3.900s",
                "word": "a"
              },
              {
                "endTime": "4.300s",
                "startTime": "4s",
                "word": "stool"
              },
              {
                "endTime": "4.400s",
                "startTime": "4.300s",
                "word": "that"
              },
              {
                "endTime": "4.600s",
                "startTime": "4.400s",
                "word": "he"
              },
              {
                "endTime": "4.800s",
                "startTime": "4.600s",
                "word": "looks"
              },
              {
                "endTime": "5s",
                "startTime": "4.800s",
                "word": "like"
              },
              {
                "endTime": "5.100s",
                "startTime": "5s",
                "word": "he's"
              },
              {
                "endTime": "5.300s",
                "startTime": "5.100s",
                "word": "going"
              },
              {
                "endTime": "5.400s",
                "startTime": "5.300s",
                "word": "to"
              },
              {
                "endTime": "5.800s",
                "startTime": "5.400s",
                "word": "fall"
              },
              {
                "endTime": "7.600s",
                "startTime": "5.800s",
                "word": "going"
              },
              {
                "endTime": "7.700s",
                "startTime": "7.600s",
                "word": "to"
              },
              {
                "endTime": "7.900s",
                "startTime": "7.700s",
                "word": "the"
              },
              {
                "endTime": "8.200s",
                "startTime": "7.900s",
                "word": "cookie"
              },
              {
                "endTime": "8.500s",
                "startTime": "8.200s",
                "word": "jar"
              },
              {
                "endTime": "9.500s",
                "startTime": "8.500s",
                "word": "and"
              },
              {
                "endTime": "9.500s",
                "startTime": "9.500s",
                "word": "a"
              },
              {
                "endTime": "12.200s",
                "startTime": "9.500s",
                "word": "text"
              },
              {
                "endTime": "12.300s",
                "startTime": "12.200s",
                "word": "when"
              },
              {
                "endTime": "12.500s",
                "startTime": "12.300s",
                "word": "is"
              },
              {
                "endTime": "13.500s",
                "startTime": "12.500s",
                "word": "school"
              },
              {
                "endTime": "13.800s",
                "startTime": "13.500s",
                "word": "over"
              },
              {
                "endTime": "14.100s",
                "startTime": "13.800s",
                "word": "cuz"
              },
              {
                "endTime": "14.300s",
                "startTime": "14.100s",
                "word": "it's"
              },
              {
                "endTime": "14.400s",
                "startTime": "14.300s",
                "word": "like"
              },
              {
                "endTime": "14.700s",
                "startTime": "14.400s",
                "word": "finding"
              },
              {
                "endTime": "15s",
                "startTime": "14.700s",
                "word": "a"
              },
              {
                "endTime": "15.200s",
                "startTime": "15s",
                "word": "little"
              },
              {
                "endTime": "15.500s",
                "startTime": "15.200s",
                "word": "girl"
              },
              {
                "endTime": "15.600s",
                "startTime": "15.500s",
                "word": "is"
              },
              {
                "endTime": "16.300s",
                "startTime": "15.600s",
                "word": "pointing"
              },
              {
                "endTime": "16.600s",
                "startTime": "16.300s",
                "word": "and"
              },
              {
                "endTime": "16.700s",
                "startTime": "16.600s",
                "word": "he's"
              },
              {
                "endTime": "16.900s",
                "startTime": "16.700s",
                "word": "had"
              },
              {
                "endTime": "17.200s",
                "startTime": "16.900s",
                "word": "no"
              },
              {
                "endTime": "17.700s",
                "startTime": "17.200s",
                "word": "cookie"
              },
              {
                "endTime": "18.600s",
                "startTime": "17.700s",
                "word": "and"
              },
              {
                "endTime": "19s",
                "startTime": "18.600s",
                "word": "Mom"
              },
              {
                "endTime": "19.400s",
                "startTime": "19s",
                "word": "is"
              },
              {
                "endTime": "19.800s",
                "startTime": "19.400s",
                "word": "drying"
              },
              {
                "endTime": "20s",
                "startTime": "19.800s",
                "word": "the"
              },
              {
                "endTime": "20.100s",
                "startTime": "20s",
                "word": "dishes"
              },
              {
                "endTime": "21s",
                "startTime": "20.100s",
                "word": "and"
              },
              {
                "endTime": "21.200s",
                "startTime": "21s",
                "word": "all"
              },
              {
                "endTime": "21.300s",
                "startTime": "21.200s",
                "word": "the"
              },
              {
                "endTime": "21.700s",
                "startTime": "21.300s",
                "word": "water"
              },
              {
                "endTime": "22.100s",
                "startTime": "21.700s",
                "word": "coming"
              },
              {
                "endTime": "22.200s",
                "startTime": "22.100s",
                "word": "out"
              },
              {
                "endTime": "22.400s",
                "startTime": "22.200s",
                "word": "of"
              },
              {
                "endTime": "22.500s",
                "startTime": "22.400s",
                "word": "the"
              },
              {
                "endTime": "23s",
                "startTime": "22.500s",
                "word": "sink"
              },
              {
                "endTime": "23.600s",
                "startTime": "23s",
                "word": "and"
              },
              {
                "endTime": "26.200s",
                "startTime": "23.600s",
                "word": "she's"
              },
              {
                "endTime": "26.400s",
                "startTime": "26.200s",
                "word": "not"
              },
              {
                "endTime": "26.500s",
                "startTime": "26.400s",
                "word": "paying"
              },
              {
                "endTime": "26.700s",
                "startTime": "26.500s",
                "word": "attention"
              },
              {
                "endTime": "27.100s",
                "startTime": "26.700s",
                "word": "to"
              },
              {
                "endTime": "27.200s",
                "startTime": "27.100s",
                "word": "that"
              },
              {
                "endTime": "27.800s",
                "startTime": "27.200s",
                "word": "she's"
              },
              {
                "endTime": "28.100s",
                "startTime": "27.800s",
                "word": "looking"
              },
              {
                "endTime": "28.400s",
                "startTime": "28.100s",
                "word": "straight"
              },
              {
                "endTime": "28.500s",
                "startTime": "28.400s",
                "word": "at"
              },
              {
                "endTime": "28.800s",
                "startTime": "28.500s",
                "word": "slept"
              },
              {
                "endTime": "28.900s",
                "startTime": "28.800s",
                "word": "with"
              },
              {
                "endTime": "29s",
                "startTime": "28.900s",
                "word": "me"
              },
              {
                "endTime": "29.300s",
                "startTime": "29s",
                "word": "what"
              },
              {
                "endTime": "29.400s",
                "startTime": "29.300s",
                "word": "you"
              },
              {
                "endTime": "29.800s",
                "startTime": "29.400s",
                "word": "doing"
              },
              {
                "endTime": "30.200s",
                "startTime": "29.800s",
                "word": "and"
              },
              {
                "endTime": "31.400s",
                "startTime": "30.200s",
                "word": "there"
              },
              {
                "endTime": "31.500s",
                "startTime": "31.400s",
                "word": "is"
              },
              {
                "endTime": "31.600s",
                "startTime": "31.500s",
                "word": "a"
              },
              {
                "endTime": "32.300s",
                "startTime": "31.600s",
                "word": "cabinet"
              },
              {
                "endTime": "32.600s",
                "startTime": "32.300s",
                "word": "in"
              },
              {
                "endTime": "32.900s",
                "startTime": "32.600s",
                "word": "that"
              },
              {
                "endTime": "33.500s",
                "startTime": "32.900s",
                "word": "room"
              },
              {
                "endTime": "33.600s",
                "startTime": "33.500s",
                "word": "and"
              },
              {
                "endTime": "34s",
                "startTime": "33.600s",
                "word": "there's"
              },
              {
                "endTime": "35.400s",
                "startTime": "34s",
                "word": "played"
              },
              {
                "endTime": "35.900s",
                "startTime": "35.400s",
                "word": "into"
              },
              {
                "endTime": "36.400s",
                "startTime": "35.900s",
                "word": "cups"
              },
              {
                "endTime": "37.200s",
                "startTime": "36.400s",
                "word": "and"
              },
              {
                "endTime": "37.300s",
                "startTime": "37.200s",
                "word": "you"
              },
              {
                "endTime": "37.500s",
                "startTime": "37.300s",
                "word": "can"
              },
              {
                "endTime": "37.600s",
                "startTime": "37.500s",
                "word": "just"
              },
              {
                "endTime": "38s",
                "startTime": "37.600s",
                "word": "outside"
              },
              {
                "endTime": "38.200s",
                "startTime": "38s",
                "word": "the"
              },
              {
                "endTime": "38.600s",
                "startTime": "38.200s",
                "word": "window"
              },
              {
                "endTime": "38.900s",
                "startTime": "38.600s",
                "word": "he"
              },
              {
                "endTime": "39.200s",
                "startTime": "38.900s",
                "word": "still"
              },
              {
                "endTime": "39.600s",
                "startTime": "39.200s",
                "word": "walk"
              },
              {
                "endTime": "39.900s",
                "startTime": "39.600s",
                "word": "way"
              },
              {
                "endTime": "40.200s",
                "startTime": "39.900s",
                "word": "you"
              },
              {
                "endTime": "40.400s",
                "startTime": "40.200s",
                "word": "see"
              },
              {
                "endTime": "41s",
                "startTime": "40.400s",
                "word": "grassy"
              },
              {
                "endTime": "41.500s",
                "startTime": "41s",
                "word": "another"
              },
              {
                "endTime": "41.900s",
                "startTime": "41.500s",
                "word": "window"
              },
              {
                "endTime": "42s",
                "startTime": "41.900s",
                "word": "with"
              },
              {
                "endTime": "42.100s",
                "startTime": "42s",
                "word": "a"
              },
              {
                "endTime": "42.400s",
                "startTime": "42.100s",
                "word": "curtain"
              },
              {
                "endTime": "43.300s",
                "startTime": "42.400s",
                "word": "and"
              },
              {
                "endTime": "43.500s",
                "startTime": "43.300s",
                "word": "in"
              },
              {
                "endTime": "43.600s",
                "startTime": "43.500s",
                "word": "the"
              },
              {
                "endTime": "44s",
                "startTime": "43.600s",
                "word": "window"
              },
              {
                "endTime": "44.300s",
                "startTime": "44s",
                "word": "and"
              },
              {
                "endTime": "44.500s",
                "startTime": "44.300s",
                "word": "the"
              },
              {
                "endTime": "44.700s",
                "startTime": "44.500s",
                "word": "route"
              },
              {
                "endTime": "44.800s",
                "startTime": "44.700s",
                "word": "that"
              },
              {
                "endTime": "45s",
                "startTime": "44.800s",
                "word": "she's"
              },
              {
                "endTime": "45.300s",
                "startTime": "45s",
                "word": "in"
              },
              {
                "endTime": "45.500s",
                "startTime": "45.300s",
                "word": "has"
              },
              {
                "endTime": "45.600s",
                "startTime": "45.500s",
                "word": "the"
              },
              {
                "endTime": "46.100s",
                "startTime": "45.600s",
                "word": "curtain"
              },
              {
                "endTime": "46.100s",
                "startTime": "46.100s",
                "word": "and"
              },
              {
                "endTime": "46.400s",
                "startTime": "46.100s",
                "word": "there's"
              },
              {
                "endTime": "46.400s",
                "startTime": "46.400s",
                "word": "a"
              },
              {
                "endTime": "46.900s",
                "startTime": "46.400s",
                "word": "window"
              }
            ]
          }
        ]
      }
    ]
  }
}
