{
  "done": true,
  "metadata": {
    "@type": "type.googleapis.com/google.cloud.speech.v1.LongRunningRecognizeMetadata",
    "lastUpdateTime": "2021-03-10T12:52:14.734656Z",
    "progressPercent": 100,
    "startTime": "2021-03-10T12:52:00.674284Z",
    "uri": "gs://adresso/ADReSSo21-diagnosis-train/diagnosis/train/audio/cn/adrso002.wav"
  },
  "name": "5572409218922019369",
  "response": {
    "@type": "type.googleapis.com/google.cloud.speech.v1.LongRunningRecognizeResponse",
    "results": [
      {
        "alternatives": [
          {
            "confidence": 0.95760816,
            "transcript": "okay I see your mom doing the dishes in the water so overflowing from the sink and she seems to be completely oblivious of it children in the picture who I presume are hers are climbing on the boys climbing on a or standing on a stool that's about to fall over putting his hand in the cookie jar on the top shelf and his sister or cousin or whoever the girl is is reaching up for cooking the window is open there's a pathway with Garden on either side looks like there's something else on the sink I mean on the countertop dish",
            "words": [
              {
                "endTime": "1.100s",
                "startTime": "0.300s",
                "word": "okay"
              },
              {
                "endTime": "1.700s",
                "startTime": "1.100s",
                "word": "I"
              },
              {
                "endTime": "2s",
                "startTime": "1.700s",
                "word": "see"
              },
              {
                "endTime": "2.200s",
                "startTime": "2s",
                "word": "your"
              },
              {
                "endTime": "2.500s",
                "startTime": "2.200s",
                "word": "mom"
              },
              {
                "endTime": "2.700s",
                "startTime": "2.500s",
                "word": "doing"
              },
              {
                "endTime": "2.900s",
                "startTime": "2.700s",
                "word": "the"
              },
              {
                "endTime": "3.100s",
                "startTime": "2.900s",
                "word": "dishes"
              },
              {
                "endTime": "3.500s",
                "startTime": "3.100s",
                "word": "in"
              },
              {
                "endTime": "3.500s",
                "startTime": "3.500s",
                "word": "the"
              },
              {
                "endTime": "3.900s",
                "startTime": "3.500s",
                "word": "water"
              },
              {
                "endTime": "4.100s",
                "startTime": "3.900s",
                "word": "so"
              },
              {
                "endTime": "4.300s",
                "startTime": "4.100s",
                "word": "overflowing"
              },
              {
                "endTime": "4.800s",
                "startTime": "4.300s",
                "word": "from"
              },
              {
                "endTime": "4.900s",
                "startTime": "4.800s",
                "word": "the"
              },
              {
                "endTime": "5.300s",
                "startTime": "4.900s",
                "word": "sink"
              },
              {
                "endTime": "5.400s",
                "startTime": "5.300s",
                "word": "and"
              },
              {
                "endTime": "5.700s",
                "startTime": "5.400s",
                "word": "she"
              },
              {
                "endTime": "6.200s",
                "startTime": "5.700s",
                "word": "seems"
              },
              {
                "endTime": "6.300s",
                "startTime": "6.200s",
                "word": "to"
              },
              {
                "endTime": "6.500s",
                "startTime": "6.300s",
                "word": "be"
              },
              {
                "endTime": "6.800s",
                "startTime": "6.500s",
                "word": "completely"
              },
              {
                "endTime": "8.800s",
                "startTime": "6.800s",
                "word": "oblivious"
              },
              {
                "endTime": "9.100s",
                "startTime": "8.800s",
                "word": "of"
              },
              {
                "endTime": "9.400s",
                "startTime": "9.100s",
                "word": "it"
              },
              {
                "endTime": "13.200s",
                "startTime": "9.400s",
                "word": "children"
              },
              {
                "endTime": "13.500s",
                "startTime": "13.200s",
                "word": "in"
              },
              {
                "endTime": "13.500s",
                "startTime": "13.500s",
                "word": "the"
              },
              {
                "endTime": "14s",
                "startTime": "13.500s",
                "word": "picture"
              },
              {
                "endTime": "14.400s",
                "startTime": "14s",
                "word": "who"
              },
              {
                "endTime": "14.500s",
                "startTime": "14.400s",
                "word": "I"
              },
              {
                "endTime": "14.700s",
                "startTime": "14.500s",
                "word": "presume"
              },
              {
                "endTime": "15.100s",
                "startTime": "14.700s",
                "word": "are"
              },
              {
                "endTime": "15.500s",
                "startTime": "15.100s",
                "word": "hers"
              },
              {
                "endTime": "16.500s",
                "startTime": "15.500s",
                "word": "are"
              },
              {
                "endTime": "17.100s",
                "startTime": "16.500s",
                "word": "climbing"
              },
              {
                "endTime": "17.400s",
                "startTime": "17.100s",
                "word": "on"
              },
              {
                "endTime": "17.500s",
                "startTime": "17.400s",
                "word": "the"
              },
              {
                "endTime": "17.900s",
                "startTime": "17.500s",
                "word": "boys"
              },
              {
                "endTime": "18.500s",
                "startTime": "17.900s",
                "word": "climbing"
              },
              {
                "endTime": "19s",
                "startTime": "18.500s",
                "word": "on"
              },
              {
                "endTime": "19.200s",
                "startTime": "19s",
                "word": "a"
              },
              {
                "endTime": "19.800s",
                "startTime": "19.200s",
                "word": "or"
              },
              {
                "endTime": "20.400s",
                "startTime": "19.800s",
                "word": "standing"
              },
              {
                "endTime": "21s",
                "startTime": "20.400s",
                "word": "on"
              },
              {
                "endTime": "21.100s",
                "startTime": "21s",
                "word": "a"
              },
              {
                "endTime": "21.700s",
                "startTime": "21.100s",
                "word": "stool"
              },
              {
                "endTime": "22s",
                "startTime": "21.700s",
                "word": "that's"
              },
              {
                "endTime": "22.400s",
                "startTime": "22s",
                "word": "about"
              },
              {
                "endTime": "22.600s",
                "startTime": "22.400s",
                "word": "to"
              },
              {
                "endTime": "22.900s",
                "startTime": "22.600s",
                "word": "fall"
              },
              {
                "endTime": "23s",
                "startTime": "22.900s",
                "word": "over"
              },
              {
                "endTime": "24.400s",
                "startTime": "23s",
                "word": "putting"
              },
              {
                "endTime": "24.700s",
                "startTime": "24.400s",
                "word": "his"
              },
              {
                "endTime": "24.900s",
                "startTime": "24.700s",
                "word": "hand"
              },
              {
                "endTime": "25s",
                "startTime": "24.900s",
                "word": "in"
              },
              {
                "endTime": "25.100s",
                "startTime": "25s",
                "word": "the"
              },
              {
                "endTime": "25.200s",
                "startTime": "25.100s",
                "word": "cookie"
              },
              {
                "endTime": "25.500s",
                "startTime": "25.200s",
                "word": "jar"
              },
              {
                "endTime": "26s",
                "startTime": "25.500s",
                "word": "on"
              },
              {
                "endTime": "26.200s",
                "startTime": "26s",
                "word": "the"
              },
              {
                "endTime": "26.500s",
                "startTime": "26.200s",
                "word": "top"
              },
              {
                "endTime": "27.100s",
                "startTime": "26.500s",
                "word": "shelf"
              },
              {
                "endTime": "27.400s",
                "startTime": "27.100s",
                "word": "and"
              },
              {
                "endTime": "28.200s",
                "startTime": "27.400s",
                "word": "his"
              },
              {
                "endTime": "28.700s",
                "startTime": "28.200s",
                "word": "sister"
              },
              {
                "endTime": "29.100s",
                "startTime": "28.700s",
                "word": "or"
              },
              {
                "endTime": "29.800s",
                "startTime": "29.100s",
                "word": "cousin"
              },
              {
                "endTime": "29.900s",
                "startTime": "29.800s",
                "word": "or"
              },
              {
                "endTime": "30.300s",
                "startTime": "29.900s",
                "word": "whoever"
              },
              {
                "endTime": "30.300s",
                "startTime": "30.300s",
                "word": "the"
              },
              {
                "endTime": "30.700s",
                "startTime": "30.300s",
                "word": "girl"
              },
              {
                "endTime": "30.900s",
                "startTime": "30.700s",
                "word": "is"
              },
              {
                "endTime": "31.600s",
                "startTime": "30.900s",
                "word": "is"
              },
              {
                "endTime": "32s",
                "startTime": "31.600s",
                "word": "reaching"
              },
              {
                "endTime": "32.200s",
                "startTime": "32s",
                "word": "up"
              },
              {
                "endTime": "32.500s",
                "startTime": "32.200s",
                "word": "for"
              },
              {
                "endTime": "33s",
                "startTime": "32.500s",
                "word": "cooking"
              },
              {
                "endTime": "34.700s",
                "startTime": "33s",
                "word": "the"
              },
              {
                "endTime": "35s",
                "startTime": "34.700s",
                "word": "window"
              },
              {
                "endTime": "35.200s",
                "startTime": "35s",
                "word": "is"
              },
              {
                "endTime": "35.800s",
                "startTime": "35.200s",
                "word": "open"
              },
              {
                "endTime": "36.200s",
                "startTime": "35.800s",
                "word": "there's"
              },
              {
                "endTime": "36.300s",
                "startTime": "36.200s",
                "word": "a"
              },
              {
                "endTime": "37.200s",
                "startTime": "36.300s",
                "word": "pathway"
              },
              {
                "endTime": "38.700s",
                "startTime": "37.200s",
                "word": "with"
              },
              {
                "endTime": "39.600s",
                "startTime": "38.700s",
                "word": "Garden"
              },
              {
                "endTime": "40.100s",
                "startTime": "39.600s",
                "word": "on"
              },
              {
                "endTime": "40.900s",
                "startTime": "40.100s",
                "word": "either"
              },
              {
                "endTime": "41.600s",
                "startTime": "40.900s",
                "word": "side"
              },
              {
                "endTime": "42s",
                "startTime": "41.600s",
                "word": "looks"
              },
              {
                "endTime": "42.100s",
                "startTime": "42s",
                "word": "like"
              },
              {
                "endTime": "43.600s",
                "startTime": "42.100s",
                "word": "there's"
              },
              {
                "endTime": "44.200s",
                "startTime": "43.600s",
                "word": "something"
              },
              {
                "endTime": "44.400s",
                "startTime": "44.200s",
                "word": "else"
              },
              {
                "endTime": "44.800s",
                "startTime": "44.400s",
                "word": "on"
              },
              {
                "endTime": "45s",
                "startTime": "44.800s",
                "word": "the"
              },
              {
                "endTime": "45.400s",
                "startTime": "45s",
                "word": "sink"
              },
              {
                "endTime": "45.900s",
                "startTime": "45.400s",
                "word": "I"
              },
              {
                "endTime": "46.200s",
                "startTime": "45.900s",
                "word": "mean"
              },
              {
                "endTime": "46.400s",
                "startTime": "46.200s",
                "word": "on"
              },
              {
                "endTime": "46.400s",
                "startTime": "46.400s",
                "word": "the"
              },
              {
                "endTime": "47.400s",
                "startTime": "46.400s",
                "word": "countertop"
              },
              {
                "endTime": "48.100s",
                "startTime": "47.400s",
                "word": "dish"
              }
            ]
          }
        ]
      },
      {
        "alternatives": [
          {
            "confidence": 0.83019984,
            "transcript": "and that's the mother has an apron on",
            "words": [
              {
                "endTime": "51.100s",
                "startTime": "50.500s",
                "word": "and"
              },
              {
                "endTime": "51.600s",
                "startTime": "51.100s",
                "word": "that's"
              },
              {
                "endTime": "52.600s",
                "startTime": "51.600s",
                "word": "the"
              },
              {
                "endTime": "52.800s",
                "startTime": "52.600s",
                "word": "mother"
              },
              {
                "endTime": "53s",
                "startTime": "52.800s",
                "word": "has"
              },
              {
                "endTime": "53.100s",
                "startTime": "53s",
                "word": "an"
              },
              {
                "endTime": "53.500s",
                "startTime": "53.100s",
                "word": "apron"
              },
              {
                "endTime": "53.600s",
                "startTime": "53.500s",
                "word": "on"
              }
            ]
          }
        ]
      },
      {
        "alternatives": [
          {
            "confidence": 0.936827,
            "transcript": " he is dressed in the mrs. beaver styles with the very with an apron in a nice dress and shoes and so forth and I don't understand why she's not turning the water off but that's part of the deal and there's curtains on the window and there's panes in the window small pains",
            "words": [
              {
                "endTime": "55.400s",
                "startTime": "54.900s",
                "word": "he"
              },
              {
                "endTime": "56.100s",
                "startTime": "55.400s",
                "word": "is"
              },
              {
                "endTime": "56.500s",
                "startTime": "56.100s",
                "word": "dressed"
              },
              {
                "endTime": "56.600s",
                "startTime": "56.500s",
                "word": "in"
              },
              {
                "endTime": "56.800s",
                "startTime": "56.600s",
                "word": "the"
              },
              {
                "endTime": "58.300s",
                "startTime": "56.800s",
                "word": "mrs."
              },
              {
                "endTime": "58.600s",
                "startTime": "58.300s",
                "word": "beaver"
              },
              {
                "endTime": "59.400s",
                "startTime": "58.600s",
                "word": "styles"
              },
              {
                "endTime": "59.500s",
                "startTime": "59.400s",
                "word": "with"
              },
              {
                "endTime": "59.600s",
                "startTime": "59.500s",
                "word": "the"
              },
              {
                "endTime": "61.300s",
                "startTime": "59.600s",
                "word": "very"
              },
              {
                "endTime": "61.600s",
                "startTime": "61.300s",
                "word": "with"
              },
              {
                "endTime": "61.700s",
                "startTime": "61.600s",
                "word": "an"
              },
              {
                "endTime": "62.200s",
                "startTime": "61.700s",
                "word": "apron"
              },
              {
                "endTime": "62.400s",
                "startTime": "62.200s",
                "word": "in"
              },
              {
                "endTime": "63.700s",
                "startTime": "62.400s",
                "word": "a"
              },
              {
                "endTime": "64s",
                "startTime": "63.700s",
                "word": "nice"
              },
              {
                "endTime": "64s",
                "startTime": "64s",
                "word": "dress"
              },
              {
                "endTime": "64.800s",
                "startTime": "64s",
                "word": "and"
              },
              {
                "endTime": "65.500s",
                "startTime": "64.800s",
                "word": "shoes"
              },
              {
                "endTime": "65.500s",
                "startTime": "65.500s",
                "word": "and"
              },
              {
                "endTime": "65.800s",
                "startTime": "65.500s",
                "word": "so"
              },
              {
                "endTime": "66.100s",
                "startTime": "65.800s",
                "word": "forth"
              },
              {
                "endTime": "66.400s",
                "startTime": "66.100s",
                "word": "and"
              },
              {
                "endTime": "66.600s",
                "startTime": "66.400s",
                "word": "I"
              },
              {
                "endTime": "66.800s",
                "startTime": "66.600s",
                "word": "don't"
              },
              {
                "endTime": "67.400s",
                "startTime": "66.800s",
                "word": "understand"
              },
              {
                "endTime": "67.400s",
                "startTime": "67.400s",
                "word": "why"
              },
              {
                "endTime": "67.700s",
                "startTime": "67.400s",
                "word": "she's"
              },
              {
                "endTime": "68.100s",
                "startTime": "67.700s",
                "word": "not"
              },
              {
                "endTime": "68.700s",
                "startTime": "68.100s",
                "word": "turning"
              },
              {
                "endTime": "68.800s",
                "startTime": "68.700s",
                "word": "the"
              },
              {
                "endTime": "69.100s",
                "startTime": "68.800s",
                "word": "water"
              },
              {
                "endTime": "69.200s",
                "startTime": "69.100s",
                "word": "off"
              },
              {
                "endTime": "69.600s",
                "startTime": "69.200s",
                "word": "but"
              },
              {
                "endTime": "69.800s",
                "startTime": "69.600s",
                "word": "that's"
              },
              {
                "endTime": "71s",
                "startTime": "69.800s",
                "word": "part"
              },
              {
                "endTime": "71.100s",
                "startTime": "71s",
                "word": "of"
              },
              {
                "endTime": "71.200s",
                "startTime": "71.100s",
                "word": "the"
              },
              {
                "endTime": "71.200s",
                "startTime": "71.200s",
                "word": "deal"
              },
              {
                "endTime": "71.500s",
                "startTime": "71.200s",
                "word": "and"
              },
              {
                "endTime": "71.700s",
                "startTime": "71.500s",
                "word": "there's"
              },
              {
                "endTime": "72.100s",
                "startTime": "71.700s",
                "word": "curtains"
              },
              {
                "endTime": "72.200s",
                "startTime": "72.100s",
                "word": "on"
              },
              {
                "endTime": "72.300s",
                "startTime": "72.200s",
                "word": "the"
              },
              {
                "endTime": "72.700s",
                "startTime": "72.300s",
                "word": "window"
              },
              {
                "endTime": "73.600s",
                "startTime": "72.700s",
                "word": "and"
              },
              {
                "endTime": "73.800s",
                "startTime": "73.600s",
                "word": "there's"
              },
              {
                "endTime": "74.100s",
                "startTime": "73.800s",
                "word": "panes"
              },
              {
                "endTime": "74.200s",
                "startTime": "74.100s",
                "word": "in"
              },
              {
                "endTime": "74.300s",
                "startTime": "74.200s",
                "word": "the"
              },
              {
                "endTime": "74.700s",
                "startTime": "74.300s",
                "word": "window"
              },
              {
                "endTime": "75.100s",
                "startTime": "74.700s",
                "word": "small"
              },
              {
                "endTime": "75.700s",
                "startTime": "75.100s",
                "word": "pains"
              }
            ]
          }
        ]
      }
    ]
  }
}
