{
  "done": true,
  "metadata": {
    "@type": "type.googleapis.com/google.cloud.speech.v1.LongRunningRecognizeMetadata",
    "lastUpdateTime": "2021-03-10T12:54:09.963598Z",
    "progressPercent": 100,
    "startTime": "2021-03-10T12:53:29.851915Z",
    "uri": "gs://adresso/ADReSSo21-diagnosis-train/diagnosis/train/audio/cn/adrso276.wav"
  },
  "name": "2988963328749850222",
  "response": {
    "@type": "type.googleapis.com/google.cloud.speech.v1.LongRunningRecognizeResponse",
    "results": [
      {
        "alternatives": [
          {
            "confidence": 0.81903046,
            "transcript": "now it's the same picture is giving a different one",
            "words": [
              {
                "endTime": "0.800s",
                "startTime": "0s",
                "word": "now"
              },
              {
                "endTime": "1s",
                "startTime": "0.800s",
                "word": "it's"
              },
              {
                "endTime": "1.100s",
                "startTime": "1s",
                "word": "the"
              },
              {
                "endTime": "1.400s",
                "startTime": "1.100s",
                "word": "same"
              },
              {
                "endTime": "1.800s",
                "startTime": "1.400s",
                "word": "picture"
              },
              {
                "endTime": "2.300s",
                "startTime": "1.800s",
                "word": "is"
              },
              {
                "endTime": "2.700s",
                "startTime": "2.300s",
                "word": "giving"
              },
              {
                "endTime": "2.700s",
                "startTime": "2.700s",
                "word": "a"
              },
              {
                "endTime": "3.100s",
                "startTime": "2.700s",
                "word": "different"
              },
              {
                "endTime": "3.300s",
                "startTime": "3.100s",
                "word": "one"
              }
            ]
          }
        ]
      },
      {
        "alternatives": [
          {
            "confidence": 0.74234873,
            "transcript": " find if you had some variety",
            "words": [
              {
                "endTime": "8.600s",
                "startTime": "8.100s",
                "word": "find"
              },
              {
                "endTime": "8.700s",
                "startTime": "8.600s",
                "word": "if"
              },
              {
                "endTime": "8.900s",
                "startTime": "8.700s",
                "word": "you"
              },
              {
                "endTime": "9s",
                "startTime": "8.900s",
                "word": "had"
              },
              {
                "endTime": "9.200s",
                "startTime": "9s",
                "word": "some"
              },
              {
                "endTime": "9.900s",
                "startTime": "9.200s",
                "word": "variety"
              }
            ]
          }
        ]
      },
      {
        "alternatives": [
          {
            "confidence": 0.9636267,
            "transcript": " okay we have here a scene in the kitchen and it looks as though that's a Mama who is working at the saying had her two children and the two children are hoping that Mama will not notice because she's looking at the weather that they are getting into cookie jar so the boy climbs up on a stool to reach the cookie jar getting up there this is tilted and the little girl is telling him to be quiet by putting her finger on her lip he has one cookie in his hand is reaching for another one the lid is off the cookie jar the cupboard door is open and he's supposed to be going to hand one cookie looks as though he is to his sister and grab another one for himself but I doubt he's that he's going to get all that done before the school Falls over",
            "words": [
              {
                "endTime": "12.200s",
                "startTime": "11.600s",
                "word": "okay"
              },
              {
                "endTime": "13.400s",
                "startTime": "12.200s",
                "word": "we"
              },
              {
                "endTime": "13.700s",
                "startTime": "13.400s",
                "word": "have"
              },
              {
                "endTime": "13.800s",
                "startTime": "13.700s",
                "word": "here"
              },
              {
                "endTime": "13.900s",
                "startTime": "13.800s",
                "word": "a"
              },
              {
                "endTime": "14.300s",
                "startTime": "13.900s",
                "word": "scene"
              },
              {
                "endTime": "14.500s",
                "startTime": "14.300s",
                "word": "in"
              },
              {
                "endTime": "14.500s",
                "startTime": "14.500s",
                "word": "the"
              },
              {
                "endTime": "14.900s",
                "startTime": "14.500s",
                "word": "kitchen"
              },
              {
                "endTime": "15.100s",
                "startTime": "14.900s",
                "word": "and"
              },
              {
                "endTime": "15.200s",
                "startTime": "15.100s",
                "word": "it"
              },
              {
                "endTime": "15.400s",
                "startTime": "15.200s",
                "word": "looks"
              },
              {
                "endTime": "15.800s",
                "startTime": "15.400s",
                "word": "as"
              },
              {
                "endTime": "15.800s",
                "startTime": "15.800s",
                "word": "though"
              },
              {
                "endTime": "16.100s",
                "startTime": "15.800s",
                "word": "that's"
              },
              {
                "endTime": "16.300s",
                "startTime": "16.100s",
                "word": "a"
              },
              {
                "endTime": "16.700s",
                "startTime": "16.300s",
                "word": "Mama"
              },
              {
                "endTime": "16.900s",
                "startTime": "16.700s",
                "word": "who"
              },
              {
                "endTime": "17s",
                "startTime": "16.900s",
                "word": "is"
              },
              {
                "endTime": "17.300s",
                "startTime": "17s",
                "word": "working"
              },
              {
                "endTime": "17.500s",
                "startTime": "17.300s",
                "word": "at"
              },
              {
                "endTime": "17.600s",
                "startTime": "17.500s",
                "word": "the"
              },
              {
                "endTime": "17.900s",
                "startTime": "17.600s",
                "word": "saying"
              },
              {
                "endTime": "18.100s",
                "startTime": "17.900s",
                "word": "had"
              },
              {
                "endTime": "18.300s",
                "startTime": "18.100s",
                "word": "her"
              },
              {
                "endTime": "18.500s",
                "startTime": "18.300s",
                "word": "two"
              },
              {
                "endTime": "18.700s",
                "startTime": "18.500s",
                "word": "children"
              },
              {
                "endTime": "19.900s",
                "startTime": "18.700s",
                "word": "and"
              },
              {
                "endTime": "20s",
                "startTime": "19.900s",
                "word": "the"
              },
              {
                "endTime": "20.200s",
                "startTime": "20s",
                "word": "two"
              },
              {
                "endTime": "20.300s",
                "startTime": "20.200s",
                "word": "children"
              },
              {
                "endTime": "20.700s",
                "startTime": "20.300s",
                "word": "are"
              },
              {
                "endTime": "21.200s",
                "startTime": "20.700s",
                "word": "hoping"
              },
              {
                "endTime": "21.500s",
                "startTime": "21.200s",
                "word": "that"
              },
              {
                "endTime": "21.800s",
                "startTime": "21.500s",
                "word": "Mama"
              },
              {
                "endTime": "22.100s",
                "startTime": "21.800s",
                "word": "will"
              },
              {
                "endTime": "22.400s",
                "startTime": "22.100s",
                "word": "not"
              },
              {
                "endTime": "22.700s",
                "startTime": "22.400s",
                "word": "notice"
              },
              {
                "endTime": "22.900s",
                "startTime": "22.700s",
                "word": "because"
              },
              {
                "endTime": "23.200s",
                "startTime": "22.900s",
                "word": "she's"
              },
              {
                "endTime": "23.500s",
                "startTime": "23.200s",
                "word": "looking"
              },
              {
                "endTime": "23.600s",
                "startTime": "23.500s",
                "word": "at"
              },
              {
                "endTime": "23.700s",
                "startTime": "23.600s",
                "word": "the"
              },
              {
                "endTime": "23.900s",
                "startTime": "23.700s",
                "word": "weather"
              },
              {
                "endTime": "24.100s",
                "startTime": "23.900s",
                "word": "that"
              },
              {
                "endTime": "24.200s",
                "startTime": "24.100s",
                "word": "they"
              },
              {
                "endTime": "24.300s",
                "startTime": "24.200s",
                "word": "are"
              },
              {
                "endTime": "24.400s",
                "startTime": "24.300s",
                "word": "getting"
              },
              {
                "endTime": "24.700s",
                "startTime": "24.400s",
                "word": "into"
              },
              {
                "endTime": "25.100s",
                "startTime": "24.700s",
                "word": "cookie"
              },
              {
                "endTime": "25.400s",
                "startTime": "25.100s",
                "word": "jar"
              },
              {
                "endTime": "25.600s",
                "startTime": "25.400s",
                "word": "so"
              },
              {
                "endTime": "25.800s",
                "startTime": "25.600s",
                "word": "the"
              },
              {
                "endTime": "25.900s",
                "startTime": "25.800s",
                "word": "boy"
              },
              {
                "endTime": "26.300s",
                "startTime": "25.900s",
                "word": "climbs"
              },
              {
                "endTime": "26.400s",
                "startTime": "26.300s",
                "word": "up"
              },
              {
                "endTime": "26.500s",
                "startTime": "26.400s",
                "word": "on"
              },
              {
                "endTime": "26.600s",
                "startTime": "26.500s",
                "word": "a"
              },
              {
                "endTime": "26.900s",
                "startTime": "26.600s",
                "word": "stool"
              },
              {
                "endTime": "27.900s",
                "startTime": "26.900s",
                "word": "to"
              },
              {
                "endTime": "28s",
                "startTime": "27.900s",
                "word": "reach"
              },
              {
                "endTime": "28.300s",
                "startTime": "28s",
                "word": "the"
              },
              {
                "endTime": "28.600s",
                "startTime": "28.300s",
                "word": "cookie"
              },
              {
                "endTime": "28.900s",
                "startTime": "28.600s",
                "word": "jar"
              },
              {
                "endTime": "29.700s",
                "startTime": "28.900s",
                "word": "getting"
              },
              {
                "endTime": "29.900s",
                "startTime": "29.700s",
                "word": "up"
              },
              {
                "endTime": "30s",
                "startTime": "29.900s",
                "word": "there"
              },
              {
                "endTime": "30.100s",
                "startTime": "30s",
                "word": "this"
              },
              {
                "endTime": "33.200s",
                "startTime": "30.100s",
                "word": "is"
              },
              {
                "endTime": "33.700s",
                "startTime": "33.200s",
                "word": "tilted"
              },
              {
                "endTime": "33.900s",
                "startTime": "33.700s",
                "word": "and"
              },
              {
                "endTime": "36.600s",
                "startTime": "33.900s",
                "word": "the"
              },
              {
                "endTime": "36.800s",
                "startTime": "36.600s",
                "word": "little"
              },
              {
                "endTime": "37s",
                "startTime": "36.800s",
                "word": "girl"
              },
              {
                "endTime": "37.400s",
                "startTime": "37s",
                "word": "is"
              },
              {
                "endTime": "37.600s",
                "startTime": "37.400s",
                "word": "telling"
              },
              {
                "endTime": "37.800s",
                "startTime": "37.600s",
                "word": "him"
              },
              {
                "endTime": "38s",
                "startTime": "37.800s",
                "word": "to"
              },
              {
                "endTime": "38.100s",
                "startTime": "38s",
                "word": "be"
              },
              {
                "endTime": "38.300s",
                "startTime": "38.100s",
                "word": "quiet"
              },
              {
                "endTime": "38.700s",
                "startTime": "38.300s",
                "word": "by"
              },
              {
                "endTime": "39s",
                "startTime": "38.700s",
                "word": "putting"
              },
              {
                "endTime": "39.200s",
                "startTime": "39s",
                "word": "her"
              },
              {
                "endTime": "39.500s",
                "startTime": "39.200s",
                "word": "finger"
              },
              {
                "endTime": "39.700s",
                "startTime": "39.500s",
                "word": "on"
              },
              {
                "endTime": "40s",
                "startTime": "39.700s",
                "word": "her"
              },
              {
                "endTime": "40.400s",
                "startTime": "40s",
                "word": "lip"
              },
              {
                "endTime": "41.300s",
                "startTime": "40.400s",
                "word": "he"
              },
              {
                "endTime": "41.500s",
                "startTime": "41.300s",
                "word": "has"
              },
              {
                "endTime": "41.700s",
                "startTime": "41.500s",
                "word": "one"
              },
              {
                "endTime": "41.800s",
                "startTime": "41.700s",
                "word": "cookie"
              },
              {
                "endTime": "42.100s",
                "startTime": "41.800s",
                "word": "in"
              },
              {
                "endTime": "42.200s",
                "startTime": "42.100s",
                "word": "his"
              },
              {
                "endTime": "42.500s",
                "startTime": "42.200s",
                "word": "hand"
              },
              {
                "endTime": "42.600s",
                "startTime": "42.500s",
                "word": "is"
              },
              {
                "endTime": "43s",
                "startTime": "42.600s",
                "word": "reaching"
              },
              {
                "endTime": "43.100s",
                "startTime": "43s",
                "word": "for"
              },
              {
                "endTime": "43.500s",
                "startTime": "43.100s",
                "word": "another"
              },
              {
                "endTime": "43.700s",
                "startTime": "43.500s",
                "word": "one"
              },
              {
                "endTime": "44s",
                "startTime": "43.700s",
                "word": "the"
              },
              {
                "endTime": "44.200s",
                "startTime": "44s",
                "word": "lid"
              },
              {
                "endTime": "44.300s",
                "startTime": "44.200s",
                "word": "is"
              },
              {
                "endTime": "44.400s",
                "startTime": "44.300s",
                "word": "off"
              },
              {
                "endTime": "44.700s",
                "startTime": "44.400s",
                "word": "the"
              },
              {
                "endTime": "45s",
                "startTime": "44.700s",
                "word": "cookie"
              },
              {
                "endTime": "45.200s",
                "startTime": "45s",
                "word": "jar"
              },
              {
                "endTime": "45.400s",
                "startTime": "45.200s",
                "word": "the"
              },
              {
                "endTime": "45.700s",
                "startTime": "45.400s",
                "word": "cupboard"
              },
              {
                "endTime": "45.900s",
                "startTime": "45.700s",
                "word": "door"
              },
              {
                "endTime": "46.100s",
                "startTime": "45.900s",
                "word": "is"
              },
              {
                "endTime": "46.400s",
                "startTime": "46.100s",
                "word": "open"
              },
              {
                "endTime": "46.400s",
                "startTime": "46.400s",
                "word": "and"
              },
              {
                "endTime": "46.700s",
                "startTime": "46.400s",
                "word": "he's"
              },
              {
                "endTime": "47.500s",
                "startTime": "46.700s",
                "word": "supposed"
              },
              {
                "endTime": "47.500s",
                "startTime": "47.500s",
                "word": "to"
              },
              {
                "endTime": "47.600s",
                "startTime": "47.500s",
                "word": "be"
              },
              {
                "endTime": "47.700s",
                "startTime": "47.600s",
                "word": "going"
              },
              {
                "endTime": "47.800s",
                "startTime": "47.700s",
                "word": "to"
              },
              {
                "endTime": "48.100s",
                "startTime": "47.800s",
                "word": "hand"
              },
              {
                "endTime": "48.400s",
                "startTime": "48.100s",
                "word": "one"
              },
              {
                "endTime": "48.700s",
                "startTime": "48.400s",
                "word": "cookie"
              },
              {
                "endTime": "49s",
                "startTime": "48.700s",
                "word": "looks"
              },
              {
                "endTime": "49.100s",
                "startTime": "49s",
                "word": "as"
              },
              {
                "endTime": "49.200s",
                "startTime": "49.100s",
                "word": "though"
              },
              {
                "endTime": "49.300s",
                "startTime": "49.200s",
                "word": "he"
              },
              {
                "endTime": "49.500s",
                "startTime": "49.300s",
                "word": "is"
              },
              {
                "endTime": "49.700s",
                "startTime": "49.500s",
                "word": "to"
              },
              {
                "endTime": "49.800s",
                "startTime": "49.700s",
                "word": "his"
              },
              {
                "endTime": "50.200s",
                "startTime": "49.800s",
                "word": "sister"
              },
              {
                "endTime": "50.700s",
                "startTime": "50.200s",
                "word": "and"
              },
              {
                "endTime": "50.900s",
                "startTime": "50.700s",
                "word": "grab"
              },
              {
                "endTime": "51s",
                "startTime": "50.900s",
                "word": "another"
              },
              {
                "endTime": "51.300s",
                "startTime": "51s",
                "word": "one"
              },
              {
                "endTime": "51.500s",
                "startTime": "51.300s",
                "word": "for"
              },
              {
                "endTime": "51.700s",
                "startTime": "51.500s",
                "word": "himself"
              },
              {
                "endTime": "52.100s",
                "startTime": "51.700s",
                "word": "but"
              },
              {
                "endTime": "52.300s",
                "startTime": "52.100s",
                "word": "I"
              },
              {
                "endTime": "52.500s",
                "startTime": "52.300s",
                "word": "doubt"
              },
              {
                "endTime": "52.500s",
                "startTime": "52.500s",
                "word": "he's"
              },
              {
                "endTime": "53s",
                "startTime": "52.500s",
                "word": "that"
              },
              {
                "endTime": "53.100s",
                "startTime": "53s",
                "word": "he's"
              },
              {
                "endTime": "53.200s",
                "startTime": "53.100s",
                "word": "going"
              },
              {
                "endTime": "53.300s",
                "startTime": "53.200s",
                "word": "to"
              },
              {
                "endTime": "53.400s",
                "startTime": "53.300s",
                "word": "get"
              },
              {
                "endTime": "53.500s",
                "startTime": "53.400s",
                "word": "all"
              },
              {
                "endTime": "53.700s",
                "startTime": "53.500s",
                "word": "that"
              },
              {
                "endTime": "53.900s",
                "startTime": "53.700s",
                "word": "done"
              },
              {
                "endTime": "54.200s",
                "startTime": "53.900s",
                "word": "before"
              },
              {
                "endTime": "54.400s",
                "startTime": "54.200s",
                "word": "the"
              },
              {
                "endTime": "54.600s",
                "startTime": "54.400s",
                "word": "school"
              },
              {
                "endTime": "55s",
                "startTime": "54.600s",
                "word": "Falls"
              },
              {
                "endTime": "55.200s",
                "startTime": "55s",
                "word": "over"
              }
            ]
          }
        ]
      },
      {
        "alternatives": [
          {
            "confidence": 0.9713005,
            "transcript": " on the other around the corner of the kitchen there's a counter that does sort of turns a corner there are covers below the counter and above the kind of where the cookies are then when you get over and have turned a corner in the kitchen you have base cabinets and then you have a window about that which is looking out into something which makes it looks do it summer outside cuz the window is open there are things growing out there there's a walk there's a strawberry underneath another window that looks it's in another wing of the house there's a tree be on their tie back curtains to window the mother is working at the sink and the faucet is left on and apparently there's no overflow in the sink so it's overflowing right onto the floor supplies by",
            "words": [
              {
                "endTime": "56.300s",
                "startTime": "55.900s",
                "word": "on"
              },
              {
                "endTime": "56.500s",
                "startTime": "56.300s",
                "word": "the"
              },
              {
                "endTime": "56.700s",
                "startTime": "56.500s",
                "word": "other"
              },
              {
                "endTime": "57s",
                "startTime": "56.700s",
                "word": "around"
              },
              {
                "endTime": "57.200s",
                "startTime": "57s",
                "word": "the"
              },
              {
                "endTime": "57.600s",
                "startTime": "57.200s",
                "word": "corner"
              },
              {
                "endTime": "57.600s",
                "startTime": "57.600s",
                "word": "of"
              },
              {
                "endTime": "57.700s",
                "startTime": "57.600s",
                "word": "the"
              },
              {
                "endTime": "58s",
                "startTime": "57.700s",
                "word": "kitchen"
              },
              {
                "endTime": "60.300s",
                "startTime": "58s",
                "word": "there's"
              },
              {
                "endTime": "60.400s",
                "startTime": "60.300s",
                "word": "a"
              },
              {
                "endTime": "61s",
                "startTime": "60.400s",
                "word": "counter"
              },
              {
                "endTime": "61.100s",
                "startTime": "61s",
                "word": "that"
              },
              {
                "endTime": "61.500s",
                "startTime": "61.100s",
                "word": "does"
              },
              {
                "endTime": "61.800s",
                "startTime": "61.500s",
                "word": "sort"
              },
              {
                "endTime": "61.900s",
                "startTime": "61.800s",
                "word": "of"
              },
              {
                "endTime": "62.400s",
                "startTime": "61.900s",
                "word": "turns"
              },
              {
                "endTime": "62.400s",
                "startTime": "62.400s",
                "word": "a"
              },
              {
                "endTime": "62.800s",
                "startTime": "62.400s",
                "word": "corner"
              },
              {
                "endTime": "63.100s",
                "startTime": "62.800s",
                "word": "there"
              },
              {
                "endTime": "63.300s",
                "startTime": "63.100s",
                "word": "are"
              },
              {
                "endTime": "64.100s",
                "startTime": "63.300s",
                "word": "covers"
              },
              {
                "endTime": "64.500s",
                "startTime": "64.100s",
                "word": "below"
              },
              {
                "endTime": "64.600s",
                "startTime": "64.500s",
                "word": "the"
              },
              {
                "endTime": "65.200s",
                "startTime": "64.600s",
                "word": "counter"
              },
              {
                "endTime": "65.500s",
                "startTime": "65.200s",
                "word": "and"
              },
              {
                "endTime": "65.800s",
                "startTime": "65.500s",
                "word": "above"
              },
              {
                "endTime": "65.900s",
                "startTime": "65.800s",
                "word": "the"
              },
              {
                "endTime": "66.200s",
                "startTime": "65.900s",
                "word": "kind"
              },
              {
                "endTime": "66.200s",
                "startTime": "66.200s",
                "word": "of"
              },
              {
                "endTime": "66.400s",
                "startTime": "66.200s",
                "word": "where"
              },
              {
                "endTime": "66.500s",
                "startTime": "66.400s",
                "word": "the"
              },
              {
                "endTime": "66.800s",
                "startTime": "66.500s",
                "word": "cookies"
              },
              {
                "endTime": "67.200s",
                "startTime": "66.800s",
                "word": "are"
              },
              {
                "endTime": "68s",
                "startTime": "67.200s",
                "word": "then"
              },
              {
                "endTime": "68.200s",
                "startTime": "68s",
                "word": "when"
              },
              {
                "endTime": "68.300s",
                "startTime": "68.200s",
                "word": "you"
              },
              {
                "endTime": "68.400s",
                "startTime": "68.300s",
                "word": "get"
              },
              {
                "endTime": "68.700s",
                "startTime": "68.400s",
                "word": "over"
              },
              {
                "endTime": "69s",
                "startTime": "68.700s",
                "word": "and"
              },
              {
                "endTime": "69.100s",
                "startTime": "69s",
                "word": "have"
              },
              {
                "endTime": "69.300s",
                "startTime": "69.100s",
                "word": "turned"
              },
              {
                "endTime": "69.500s",
                "startTime": "69.300s",
                "word": "a"
              },
              {
                "endTime": "69.700s",
                "startTime": "69.500s",
                "word": "corner"
              },
              {
                "endTime": "69.900s",
                "startTime": "69.700s",
                "word": "in"
              },
              {
                "endTime": "69.900s",
                "startTime": "69.900s",
                "word": "the"
              },
              {
                "endTime": "70.400s",
                "startTime": "69.900s",
                "word": "kitchen"
              },
              {
                "endTime": "71.200s",
                "startTime": "70.400s",
                "word": "you"
              },
              {
                "endTime": "71.400s",
                "startTime": "71.200s",
                "word": "have"
              },
              {
                "endTime": "71.700s",
                "startTime": "71.400s",
                "word": "base"
              },
              {
                "endTime": "72.200s",
                "startTime": "71.700s",
                "word": "cabinets"
              },
              {
                "endTime": "72.300s",
                "startTime": "72.200s",
                "word": "and"
              },
              {
                "endTime": "72.500s",
                "startTime": "72.300s",
                "word": "then"
              },
              {
                "endTime": "72.600s",
                "startTime": "72.500s",
                "word": "you"
              },
              {
                "endTime": "72.700s",
                "startTime": "72.600s",
                "word": "have"
              },
              {
                "endTime": "72.800s",
                "startTime": "72.700s",
                "word": "a"
              },
              {
                "endTime": "73.300s",
                "startTime": "72.800s",
                "word": "window"
              },
              {
                "endTime": "73.500s",
                "startTime": "73.300s",
                "word": "about"
              },
              {
                "endTime": "73.900s",
                "startTime": "73.500s",
                "word": "that"
              },
              {
                "endTime": "74.100s",
                "startTime": "73.900s",
                "word": "which"
              },
              {
                "endTime": "74.200s",
                "startTime": "74.100s",
                "word": "is"
              },
              {
                "endTime": "74.600s",
                "startTime": "74.200s",
                "word": "looking"
              },
              {
                "endTime": "74.800s",
                "startTime": "74.600s",
                "word": "out"
              },
              {
                "endTime": "75s",
                "startTime": "74.800s",
                "word": "into"
              },
              {
                "endTime": "75.400s",
                "startTime": "75s",
                "word": "something"
              },
              {
                "endTime": "75.700s",
                "startTime": "75.400s",
                "word": "which"
              },
              {
                "endTime": "75.900s",
                "startTime": "75.700s",
                "word": "makes"
              },
              {
                "endTime": "76s",
                "startTime": "75.900s",
                "word": "it"
              },
              {
                "endTime": "76.200s",
                "startTime": "76s",
                "word": "looks"
              },
              {
                "endTime": "76.400s",
                "startTime": "76.200s",
                "word": "do"
              },
              {
                "endTime": "76.500s",
                "startTime": "76.400s",
                "word": "it"
              },
              {
                "endTime": "76.800s",
                "startTime": "76.500s",
                "word": "summer"
              },
              {
                "endTime": "77s",
                "startTime": "76.800s",
                "word": "outside"
              },
              {
                "endTime": "77.600s",
                "startTime": "77s",
                "word": "cuz"
              },
              {
                "endTime": "77.700s",
                "startTime": "77.600s",
                "word": "the"
              },
              {
                "endTime": "77.900s",
                "startTime": "77.700s",
                "word": "window"
              },
              {
                "endTime": "78.100s",
                "startTime": "77.900s",
                "word": "is"
              },
              {
                "endTime": "78.500s",
                "startTime": "78.100s",
                "word": "open"
              },
              {
                "endTime": "79.300s",
                "startTime": "78.500s",
                "word": "there"
              },
              {
                "endTime": "79.400s",
                "startTime": "79.300s",
                "word": "are"
              },
              {
                "endTime": "79.600s",
                "startTime": "79.400s",
                "word": "things"
              },
              {
                "endTime": "79.900s",
                "startTime": "79.600s",
                "word": "growing"
              },
              {
                "endTime": "80.100s",
                "startTime": "79.900s",
                "word": "out"
              },
              {
                "endTime": "80.400s",
                "startTime": "80.100s",
                "word": "there"
              },
              {
                "endTime": "81.100s",
                "startTime": "80.400s",
                "word": "there's"
              },
              {
                "endTime": "81.300s",
                "startTime": "81.100s",
                "word": "a"
              },
              {
                "endTime": "81.800s",
                "startTime": "81.300s",
                "word": "walk"
              },
              {
                "endTime": "82.100s",
                "startTime": "81.800s",
                "word": "there's"
              },
              {
                "endTime": "82.200s",
                "startTime": "82.100s",
                "word": "a"
              },
              {
                "endTime": "84s",
                "startTime": "82.200s",
                "word": "strawberry"
              },
              {
                "endTime": "84.500s",
                "startTime": "84s",
                "word": "underneath"
              },
              {
                "endTime": "84.600s",
                "startTime": "84.500s",
                "word": "another"
              },
              {
                "endTime": "85.100s",
                "startTime": "84.600s",
                "word": "window"
              },
              {
                "endTime": "85.200s",
                "startTime": "85.100s",
                "word": "that"
              },
              {
                "endTime": "85.500s",
                "startTime": "85.200s",
                "word": "looks"
              },
              {
                "endTime": "85.700s",
                "startTime": "85.500s",
                "word": "it's"
              },
              {
                "endTime": "85.800s",
                "startTime": "85.700s",
                "word": "in"
              },
              {
                "endTime": "86.300s",
                "startTime": "85.800s",
                "word": "another"
              },
              {
                "endTime": "86.700s",
                "startTime": "86.300s",
                "word": "wing"
              },
              {
                "endTime": "86.800s",
                "startTime": "86.700s",
                "word": "of"
              },
              {
                "endTime": "86.900s",
                "startTime": "86.800s",
                "word": "the"
              },
              {
                "endTime": "87.400s",
                "startTime": "86.900s",
                "word": "house"
              },
              {
                "endTime": "87.700s",
                "startTime": "87.400s",
                "word": "there's"
              },
              {
                "endTime": "87.800s",
                "startTime": "87.700s",
                "word": "a"
              },
              {
                "endTime": "88.100s",
                "startTime": "87.800s",
                "word": "tree"
              },
              {
                "endTime": "88.400s",
                "startTime": "88.100s",
                "word": "be"
              },
              {
                "endTime": "88.800s",
                "startTime": "88.400s",
                "word": "on"
              },
              {
                "endTime": "89.800s",
                "startTime": "88.800s",
                "word": "their"
              },
              {
                "endTime": "90.100s",
                "startTime": "89.800s",
                "word": "tie"
              },
              {
                "endTime": "90.400s",
                "startTime": "90.100s",
                "word": "back"
              },
              {
                "endTime": "90.900s",
                "startTime": "90.400s",
                "word": "curtains"
              },
              {
                "endTime": "91s",
                "startTime": "90.900s",
                "word": "to"
              },
              {
                "endTime": "91.200s",
                "startTime": "91s",
                "word": "window"
              },
              {
                "endTime": "92.500s",
                "startTime": "91.200s",
                "word": "the"
              },
              {
                "endTime": "92.700s",
                "startTime": "92.500s",
                "word": "mother"
              },
              {
                "endTime": "92.900s",
                "startTime": "92.700s",
                "word": "is"
              },
              {
                "endTime": "93.100s",
                "startTime": "92.900s",
                "word": "working"
              },
              {
                "endTime": "93.400s",
                "startTime": "93.100s",
                "word": "at"
              },
              {
                "endTime": "93.500s",
                "startTime": "93.400s",
                "word": "the"
              },
              {
                "endTime": "93.900s",
                "startTime": "93.500s",
                "word": "sink"
              },
              {
                "endTime": "94.100s",
                "startTime": "93.900s",
                "word": "and"
              },
              {
                "endTime": "94.500s",
                "startTime": "94.100s",
                "word": "the"
              },
              {
                "endTime": "95s",
                "startTime": "94.500s",
                "word": "faucet"
              },
              {
                "endTime": "95.700s",
                "startTime": "95s",
                "word": "is"
              },
              {
                "endTime": "96s",
                "startTime": "95.700s",
                "word": "left"
              },
              {
                "endTime": "96.400s",
                "startTime": "96s",
                "word": "on"
              },
              {
                "endTime": "97s",
                "startTime": "96.400s",
                "word": "and"
              },
              {
                "endTime": "97.500s",
                "startTime": "97s",
                "word": "apparently"
              },
              {
                "endTime": "97.700s",
                "startTime": "97.500s",
                "word": "there's"
              },
              {
                "endTime": "97.900s",
                "startTime": "97.700s",
                "word": "no"
              },
              {
                "endTime": "98.300s",
                "startTime": "97.900s",
                "word": "overflow"
              },
              {
                "endTime": "98.600s",
                "startTime": "98.300s",
                "word": "in"
              },
              {
                "endTime": "98.700s",
                "startTime": "98.600s",
                "word": "the"
              },
              {
                "endTime": "99s",
                "startTime": "98.700s",
                "word": "sink"
              },
              {
                "endTime": "99.100s",
                "startTime": "99s",
                "word": "so"
              },
              {
                "endTime": "99.400s",
                "startTime": "99.100s",
                "word": "it's"
              },
              {
                "endTime": "99.800s",
                "startTime": "99.400s",
                "word": "overflowing"
              },
              {
                "endTime": "100.100s",
                "startTime": "99.800s",
                "word": "right"
              },
              {
                "endTime": "100.400s",
                "startTime": "100.100s",
                "word": "onto"
              },
              {
                "endTime": "100.400s",
                "startTime": "100.400s",
                "word": "the"
              },
              {
                "endTime": "100.800s",
                "startTime": "100.400s",
                "word": "floor"
              },
              {
                "endTime": "101.100s",
                "startTime": "100.800s",
                "word": "supplies"
              },
              {
                "endTime": "101.300s",
                "startTime": "101.100s",
                "word": "by"
              }
            ]
          }
        ]
      },
      {
        "alternatives": [
          {
            "confidence": 0.8451651,
            "transcript": " and she has on a sleeveless dress which also indicates the summer eye looks like he has Nathan on she has short hair",
            "words": [
              {
                "endTime": "102.700s",
                "startTime": "102.100s",
                "word": "and"
              },
              {
                "endTime": "104.100s",
                "startTime": "102.700s",
                "word": "she"
              },
              {
                "endTime": "104.200s",
                "startTime": "104.100s",
                "word": "has"
              },
              {
                "endTime": "104.400s",
                "startTime": "104.200s",
                "word": "on"
              },
              {
                "endTime": "104.500s",
                "startTime": "104.400s",
                "word": "a"
              },
              {
                "endTime": "104.900s",
                "startTime": "104.500s",
                "word": "sleeveless"
              },
              {
                "endTime": "105s",
                "startTime": "104.900s",
                "word": "dress"
              },
              {
                "endTime": "105.500s",
                "startTime": "105s",
                "word": "which"
              },
              {
                "endTime": "105.700s",
                "startTime": "105.500s",
                "word": "also"
              },
              {
                "endTime": "106.300s",
                "startTime": "105.700s",
                "word": "indicates"
              },
              {
                "endTime": "106.400s",
                "startTime": "106.300s",
                "word": "the"
              },
              {
                "endTime": "107s",
                "startTime": "106.400s",
                "word": "summer"
              },
              {
                "endTime": "107s",
                "startTime": "107s",
                "word": "eye"
              },
              {
                "endTime": "107.100s",
                "startTime": "107s",
                "word": "looks"
              },
              {
                "endTime": "107.400s",
                "startTime": "107.100s",
                "word": "like"
              },
              {
                "endTime": "107.600s",
                "startTime": "107.400s",
                "word": "he"
              },
              {
                "endTime": "107.700s",
                "startTime": "107.600s",
                "word": "has"
              },
              {
                "endTime": "108.100s",
                "startTime": "107.700s",
                "word": "Nathan"
              },
              {
                "endTime": "108.300s",
                "startTime": "108.100s",
                "word": "on"
              },
              {
                "endTime": "108.500s",
                "startTime": "108.300s",
                "word": "she"
              },
              {
                "endTime": "108.800s",
                "startTime": "108.500s",
                "word": "has"
              },
              {
                "endTime": "109.300s",
                "startTime": "108.800s",
                "word": "short"
              },
              {
                "endTime": "109.600s",
                "startTime": "109.300s",
                "word": "hair"
              }
            ]
          }
        ]
      },
      {
        "alternatives": [
          {
            "confidence": 0.93514127,
            "transcript": " she is drawing a dish with a p, plates for the people on the trying to think there are two cups in a place but you go there sometimes and some dishes in the sink two faucets with X-Type handles one on either side in the center faucet she has shoes on with no ties to sort of slip on shoes",
            "words": [
              {
                "endTime": "112s",
                "startTime": "110.900s",
                "word": "she"
              },
              {
                "endTime": "112.400s",
                "startTime": "112s",
                "word": "is"
              },
              {
                "endTime": "112.600s",
                "startTime": "112.400s",
                "word": "drawing"
              },
              {
                "endTime": "112.800s",
                "startTime": "112.600s",
                "word": "a"
              },
              {
                "endTime": "113s",
                "startTime": "112.800s",
                "word": "dish"
              },
              {
                "endTime": "113.200s",
                "startTime": "113s",
                "word": "with"
              },
              {
                "endTime": "113.300s",
                "startTime": "113.200s",
                "word": "a"
              },
              {
                "endTime": "113.700s",
                "startTime": "113.300s",
                "word": "p,"
              },
              {
                "endTime": "114.600s",
                "startTime": "113.700s",
                "word": "plates"
              },
              {
                "endTime": "114.700s",
                "startTime": "114.600s",
                "word": "for"
              },
              {
                "endTime": "114.800s",
                "startTime": "114.700s",
                "word": "the"
              },
              {
                "endTime": "115.200s",
                "startTime": "114.800s",
                "word": "people"
              },
              {
                "endTime": "115.400s",
                "startTime": "115.200s",
                "word": "on"
              },
              {
                "endTime": "117.200s",
                "startTime": "115.400s",
                "word": "the"
              },
              {
                "endTime": "117.500s",
                "startTime": "117.200s",
                "word": "trying"
              },
              {
                "endTime": "117.600s",
                "startTime": "117.500s",
                "word": "to"
              },
              {
                "endTime": "117.700s",
                "startTime": "117.600s",
                "word": "think"
              },
              {
                "endTime": "118s",
                "startTime": "117.700s",
                "word": "there"
              },
              {
                "endTime": "118.100s",
                "startTime": "118s",
                "word": "are"
              },
              {
                "endTime": "118.100s",
                "startTime": "118.100s",
                "word": "two"
              },
              {
                "endTime": "118.600s",
                "startTime": "118.100s",
                "word": "cups"
              },
              {
                "endTime": "118.700s",
                "startTime": "118.600s",
                "word": "in"
              },
              {
                "endTime": "118.900s",
                "startTime": "118.700s",
                "word": "a"
              },
              {
                "endTime": "119.300s",
                "startTime": "118.900s",
                "word": "place"
              },
              {
                "endTime": "120.100s",
                "startTime": "119.300s",
                "word": "but"
              },
              {
                "endTime": "120.200s",
                "startTime": "120.100s",
                "word": "you"
              },
              {
                "endTime": "120.300s",
                "startTime": "120.200s",
                "word": "go"
              },
              {
                "endTime": "120.500s",
                "startTime": "120.300s",
                "word": "there"
              },
              {
                "endTime": "121.100s",
                "startTime": "120.500s",
                "word": "sometimes"
              },
              {
                "endTime": "121.300s",
                "startTime": "121.100s",
                "word": "and"
              },
              {
                "endTime": "121.500s",
                "startTime": "121.300s",
                "word": "some"
              },
              {
                "endTime": "121.800s",
                "startTime": "121.500s",
                "word": "dishes"
              },
              {
                "endTime": "122s",
                "startTime": "121.800s",
                "word": "in"
              },
              {
                "endTime": "122.100s",
                "startTime": "122s",
                "word": "the"
              },
              {
                "endTime": "122.300s",
                "startTime": "122.100s",
                "word": "sink"
              },
              {
                "endTime": "124s",
                "startTime": "122.300s",
                "word": "two"
              },
              {
                "endTime": "124.100s",
                "startTime": "124s",
                "word": "faucets"
              },
              {
                "endTime": "124.700s",
                "startTime": "124.100s",
                "word": "with"
              },
              {
                "endTime": "125.300s",
                "startTime": "124.700s",
                "word": "X-Type"
              },
              {
                "endTime": "126s",
                "startTime": "125.300s",
                "word": "handles"
              },
              {
                "endTime": "126.200s",
                "startTime": "126s",
                "word": "one"
              },
              {
                "endTime": "126.300s",
                "startTime": "126.200s",
                "word": "on"
              },
              {
                "endTime": "126.500s",
                "startTime": "126.300s",
                "word": "either"
              },
              {
                "endTime": "127.100s",
                "startTime": "126.500s",
                "word": "side"
              },
              {
                "endTime": "127.200s",
                "startTime": "127.100s",
                "word": "in"
              },
              {
                "endTime": "127.300s",
                "startTime": "127.200s",
                "word": "the"
              },
              {
                "endTime": "127.700s",
                "startTime": "127.300s",
                "word": "center"
              },
              {
                "endTime": "128.300s",
                "startTime": "127.700s",
                "word": "faucet"
              },
              {
                "endTime": "129.500s",
                "startTime": "128.300s",
                "word": "she"
              },
              {
                "endTime": "129.800s",
                "startTime": "129.500s",
                "word": "has"
              },
              {
                "endTime": "130.200s",
                "startTime": "129.800s",
                "word": "shoes"
              },
              {
                "endTime": "130.300s",
                "startTime": "130.200s",
                "word": "on"
              },
              {
                "endTime": "130.700s",
                "startTime": "130.300s",
                "word": "with"
              },
              {
                "endTime": "130.900s",
                "startTime": "130.700s",
                "word": "no"
              },
              {
                "endTime": "131.700s",
                "startTime": "130.900s",
                "word": "ties"
              },
              {
                "endTime": "131.800s",
                "startTime": "131.700s",
                "word": "to"
              },
              {
                "endTime": "132.200s",
                "startTime": "131.800s",
                "word": "sort"
              },
              {
                "endTime": "132.300s",
                "startTime": "132.200s",
                "word": "of"
              },
              {
                "endTime": "132.700s",
                "startTime": "132.300s",
                "word": "slip"
              },
              {
                "endTime": "133s",
                "startTime": "132.700s",
                "word": "on"
              },
              {
                "endTime": "133.700s",
                "startTime": "133s",
                "word": "shoes"
              }
            ]
          }
        ]
      },
      {
        "alternatives": [
          {
            "confidence": 0.944743,
            "transcript": " there's a little scalloped Valance across the top of the curtain",
            "words": [
              {
                "endTime": "136.200s",
                "startTime": "135.300s",
                "word": "there's"
              },
              {
                "endTime": "136.300s",
                "startTime": "136.200s",
                "word": "a"
              },
              {
                "endTime": "136.500s",
                "startTime": "136.300s",
                "word": "little"
              },
              {
                "endTime": "137.600s",
                "startTime": "136.500s",
                "word": "scalloped"
              },
              {
                "endTime": "138.300s",
                "startTime": "137.600s",
                "word": "Valance"
              },
              {
                "endTime": "138.700s",
                "startTime": "138.300s",
                "word": "across"
              },
              {
                "endTime": "138.900s",
                "startTime": "138.700s",
                "word": "the"
              },
              {
                "endTime": "139.200s",
                "startTime": "138.900s",
                "word": "top"
              },
              {
                "endTime": "139.400s",
                "startTime": "139.200s",
                "word": "of"
              },
              {
                "endTime": "139.600s",
                "startTime": "139.400s",
                "word": "the"
              },
              {
                "endTime": "140.100s",
                "startTime": "139.600s",
                "word": "curtain"
              }
            ]
          }
        ]
      },
      {
        "alternatives": [
          {
            "confidence": 0.9139684,
            "transcript": " tankathon going to tell you about the candles on the door or the kind they're just",
            "words": [
              {
                "endTime": "148.900s",
                "startTime": "147.200s",
                "word": "tankathon"
              },
              {
                "endTime": "149.100s",
                "startTime": "148.900s",
                "word": "going"
              },
              {
                "endTime": "149.200s",
                "startTime": "149.100s",
                "word": "to"
              },
              {
                "endTime": "149.400s",
                "startTime": "149.200s",
                "word": "tell"
              },
              {
                "endTime": "149.500s",
                "startTime": "149.400s",
                "word": "you"
              },
              {
                "endTime": "149.600s",
                "startTime": "149.500s",
                "word": "about"
              },
              {
                "endTime": "149.800s",
                "startTime": "149.600s",
                "word": "the"
              },
              {
                "endTime": "150.200s",
                "startTime": "149.800s",
                "word": "candles"
              },
              {
                "endTime": "150.400s",
                "startTime": "150.200s",
                "word": "on"
              },
              {
                "endTime": "150.400s",
                "startTime": "150.400s",
                "word": "the"
              },
              {
                "endTime": "150.800s",
                "startTime": "150.400s",
                "word": "door"
              },
              {
                "endTime": "150.900s",
                "startTime": "150.800s",
                "word": "or"
              },
              {
                "endTime": "151.100s",
                "startTime": "150.900s",
                "word": "the"
              },
              {
                "endTime": "151.500s",
                "startTime": "151.100s",
                "word": "kind"
              },
              {
                "endTime": "152.300s",
                "startTime": "151.500s",
                "word": "they're"
              },
              {
                "endTime": "152.700s",
                "startTime": "152.300s",
                "word": "just"
              }
            ]
          }
        ]
      },
      {
        "alternatives": [
          {
            "confidence": 0.94754505,
            "transcript": " almost like a round piece of wood that you have to get a hold of to pull a cupboard door open and what's really strange is attempting any handles on my cupboards on the other side of the kitchen",
            "words": [
              {
                "endTime": "155.400s",
                "startTime": "154.700s",
                "word": "almost"
              },
              {
                "endTime": "155.500s",
                "startTime": "155.400s",
                "word": "like"
              },
              {
                "endTime": "155.600s",
                "startTime": "155.500s",
                "word": "a"
              },
              {
                "endTime": "155.900s",
                "startTime": "155.600s",
                "word": "round"
              },
              {
                "endTime": "156.300s",
                "startTime": "155.900s",
                "word": "piece"
              },
              {
                "endTime": "156.300s",
                "startTime": "156.300s",
                "word": "of"
              },
              {
                "endTime": "156.500s",
                "startTime": "156.300s",
                "word": "wood"
              },
              {
                "endTime": "157.100s",
                "startTime": "156.500s",
                "word": "that"
              },
              {
                "endTime": "157.300s",
                "startTime": "157.100s",
                "word": "you"
              },
              {
                "endTime": "157.500s",
                "startTime": "157.300s",
                "word": "have"
              },
              {
                "endTime": "157.700s",
                "startTime": "157.500s",
                "word": "to"
              },
              {
                "endTime": "157.800s",
                "startTime": "157.700s",
                "word": "get"
              },
              {
                "endTime": "157.900s",
                "startTime": "157.800s",
                "word": "a"
              },
              {
                "endTime": "158.100s",
                "startTime": "157.900s",
                "word": "hold"
              },
              {
                "endTime": "158.100s",
                "startTime": "158.100s",
                "word": "of"
              },
              {
                "endTime": "158.400s",
                "startTime": "158.100s",
                "word": "to"
              },
              {
                "endTime": "158.600s",
                "startTime": "158.400s",
                "word": "pull"
              },
              {
                "endTime": "158.700s",
                "startTime": "158.600s",
                "word": "a"
              },
              {
                "endTime": "159s",
                "startTime": "158.700s",
                "word": "cupboard"
              },
              {
                "endTime": "159.200s",
                "startTime": "159s",
                "word": "door"
              },
              {
                "endTime": "159.800s",
                "startTime": "159.200s",
                "word": "open"
              },
              {
                "endTime": "160.600s",
                "startTime": "159.800s",
                "word": "and"
              },
              {
                "endTime": "160.900s",
                "startTime": "160.600s",
                "word": "what's"
              },
              {
                "endTime": "161s",
                "startTime": "160.900s",
                "word": "really"
              },
              {
                "endTime": "161.500s",
                "startTime": "161s",
                "word": "strange"
              },
              {
                "endTime": "161.700s",
                "startTime": "161.500s",
                "word": "is"
              },
              {
                "endTime": "162.400s",
                "startTime": "161.700s",
                "word": "attempting"
              },
              {
                "endTime": "162.700s",
                "startTime": "162.400s",
                "word": "any"
              },
              {
                "endTime": "163.100s",
                "startTime": "162.700s",
                "word": "handles"
              },
              {
                "endTime": "163.200s",
                "startTime": "163.100s",
                "word": "on"
              },
              {
                "endTime": "163.400s",
                "startTime": "163.200s",
                "word": "my"
              },
              {
                "endTime": "164s",
                "startTime": "163.400s",
                "word": "cupboards"
              },
              {
                "endTime": "164.200s",
                "startTime": "164s",
                "word": "on"
              },
              {
                "endTime": "164.300s",
                "startTime": "164.200s",
                "word": "the"
              },
              {
                "endTime": "164.500s",
                "startTime": "164.300s",
                "word": "other"
              },
              {
                "endTime": "164.800s",
                "startTime": "164.500s",
                "word": "side"
              },
              {
                "endTime": "164.900s",
                "startTime": "164.800s",
                "word": "of"
              },
              {
                "endTime": "164.900s",
                "startTime": "164.900s",
                "word": "the"
              },
              {
                "endTime": "165.200s",
                "startTime": "164.900s",
                "word": "kitchen"
              }
            ]
          }
        ]
      },
      {
        "alternatives": [
          {
            "confidence": 0.84416914,
            "transcript": " haircut",
            "words": [
              {
                "endTime": "167.200s",
                "startTime": "166.400s",
                "word": "haircut"
              }
            ]
          }
        ]
      }
    ]
  }
}
