{
  "done": true,
  "metadata": {
    "@type": "type.googleapis.com/google.cloud.speech.v1.LongRunningRecognizeMetadata",
    "lastUpdateTime": "2021-03-10T12:54:13.641719Z",
    "progressPercent": 100,
    "startTime": "2021-03-10T12:53:55.755388Z",
    "uri": "gs://adresso/ADReSSo21-diagnosis-train/diagnosis/train/audio/cn/adrso308.wav"
  },
  "name": "2568093557165958399",
  "response": {
    "@type": "type.googleapis.com/google.cloud.speech.v1.LongRunningRecognizeResponse",
    "results": [
      {
        "alternatives": [
          {
            "confidence": 0.9321314,
            "transcript": "kitchen scene in the mother is doing the dishes the children are trying to get into the cookie jar the stool is falling over the water is running over in the sink",
            "words": [
              {
                "endTime": "4.100s",
                "startTime": "1.200s",
                "word": "kitchen"
              },
              {
                "endTime": "4.600s",
                "startTime": "4.100s",
                "word": "scene"
              },
              {
                "endTime": "5.400s",
                "startTime": "4.600s",
                "word": "in"
              },
              {
                "endTime": "5.500s",
                "startTime": "5.400s",
                "word": "the"
              },
              {
                "endTime": "5.800s",
                "startTime": "5.500s",
                "word": "mother"
              },
              {
                "endTime": "6s",
                "startTime": "5.800s",
                "word": "is"
              },
              {
                "endTime": "6.200s",
                "startTime": "6s",
                "word": "doing"
              },
              {
                "endTime": "6.400s",
                "startTime": "6.200s",
                "word": "the"
              },
              {
                "endTime": "6.600s",
                "startTime": "6.400s",
                "word": "dishes"
              },
              {
                "endTime": "7.600s",
                "startTime": "6.600s",
                "word": "the"
              },
              {
                "endTime": "8.200s",
                "startTime": "7.600s",
                "word": "children"
              },
              {
                "endTime": "8.400s",
                "startTime": "8.200s",
                "word": "are"
              },
              {
                "endTime": "9.600s",
                "startTime": "8.400s",
                "word": "trying"
              },
              {
                "endTime": "9.700s",
                "startTime": "9.600s",
                "word": "to"
              },
              {
                "endTime": "9.800s",
                "startTime": "9.700s",
                "word": "get"
              },
              {
                "endTime": "10s",
                "startTime": "9.800s",
                "word": "into"
              },
              {
                "endTime": "10.200s",
                "startTime": "10s",
                "word": "the"
              },
              {
                "endTime": "10.500s",
                "startTime": "10.200s",
                "word": "cookie"
              },
              {
                "endTime": "10.900s",
                "startTime": "10.500s",
                "word": "jar"
              },
              {
                "endTime": "12.100s",
                "startTime": "10.900s",
                "word": "the"
              },
              {
                "endTime": "12.600s",
                "startTime": "12.100s",
                "word": "stool"
              },
              {
                "endTime": "12.800s",
                "startTime": "12.600s",
                "word": "is"
              },
              {
                "endTime": "13.400s",
                "startTime": "12.800s",
                "word": "falling"
              },
              {
                "endTime": "13.600s",
                "startTime": "13.400s",
                "word": "over"
              },
              {
                "endTime": "15s",
                "startTime": "13.600s",
                "word": "the"
              },
              {
                "endTime": "15.400s",
                "startTime": "15s",
                "word": "water"
              },
              {
                "endTime": "15.500s",
                "startTime": "15.400s",
                "word": "is"
              },
              {
                "endTime": "16.100s",
                "startTime": "15.500s",
                "word": "running"
              },
              {
                "endTime": "16.600s",
                "startTime": "16.100s",
                "word": "over"
              },
              {
                "endTime": "16.700s",
                "startTime": "16.600s",
                "word": "in"
              },
              {
                "endTime": "16.900s",
                "startTime": "16.700s",
                "word": "the"
              },
              {
                "endTime": "17.400s",
                "startTime": "16.900s",
                "word": "sink"
              }
            ]
          }
        ]
      },
      {
        "alternatives": [
          {
            "confidence": 0.83785504,
            "transcript": " I went and looked at the other window is open and there",
            "words": [
              {
                "endTime": "19.100s",
                "startTime": "18.400s",
                "word": "I"
              },
              {
                "endTime": "20.900s",
                "startTime": "19.100s",
                "word": "went"
              },
              {
                "endTime": "21s",
                "startTime": "20.900s",
                "word": "and"
              },
              {
                "endTime": "21.100s",
                "startTime": "21s",
                "word": "looked"
              },
              {
                "endTime": "21.300s",
                "startTime": "21.100s",
                "word": "at"
              },
              {
                "endTime": "21.400s",
                "startTime": "21.300s",
                "word": "the"
              },
              {
                "endTime": "21.700s",
                "startTime": "21.400s",
                "word": "other"
              },
              {
                "endTime": "22s",
                "startTime": "21.700s",
                "word": "window"
              },
              {
                "endTime": "22.100s",
                "startTime": "22s",
                "word": "is"
              },
              {
                "endTime": "22.700s",
                "startTime": "22.100s",
                "word": "open"
              },
              {
                "endTime": "23.300s",
                "startTime": "22.700s",
                "word": "and"
              },
              {
                "endTime": "23.400s",
                "startTime": "23.300s",
                "word": "there"
              }
            ]
          }
        ]
      },
      {
        "alternatives": [
          {
            "confidence": 0.41315874,
            "transcript": " brass",
            "words": [
              {
                "endTime": "26.800s",
                "startTime": "25.300s",
                "word": "brass"
              }
            ]
          }
        ]
      },
      {
        "alternatives": [
          {
            "confidence": 0.9123511,
            "transcript": " what have you crap and trees that died looks like the curtains might be billowing a little",
            "words": [
              {
                "endTime": "28.500s",
                "startTime": "28s",
                "word": "what"
              },
              {
                "endTime": "28.800s",
                "startTime": "28.500s",
                "word": "have"
              },
              {
                "endTime": "29s",
                "startTime": "28.800s",
                "word": "you"
              },
              {
                "endTime": "29.500s",
                "startTime": "29s",
                "word": "crap"
              },
              {
                "endTime": "29.600s",
                "startTime": "29.500s",
                "word": "and"
              },
              {
                "endTime": "30s",
                "startTime": "29.600s",
                "word": "trees"
              },
              {
                "endTime": "30.200s",
                "startTime": "30s",
                "word": "that"
              },
              {
                "endTime": "30.800s",
                "startTime": "30.200s",
                "word": "died"
              },
              {
                "endTime": "31.800s",
                "startTime": "30.800s",
                "word": "looks"
              },
              {
                "endTime": "32s",
                "startTime": "31.800s",
                "word": "like"
              },
              {
                "endTime": "32.100s",
                "startTime": "32s",
                "word": "the"
              },
              {
                "endTime": "32.600s",
                "startTime": "32.100s",
                "word": "curtains"
              },
              {
                "endTime": "32.900s",
                "startTime": "32.600s",
                "word": "might"
              },
              {
                "endTime": "33s",
                "startTime": "32.900s",
                "word": "be"
              },
              {
                "endTime": "33.500s",
                "startTime": "33s",
                "word": "billowing"
              },
              {
                "endTime": "33.600s",
                "startTime": "33.500s",
                "word": "a"
              },
              {
                "endTime": "34s",
                "startTime": "33.600s",
                "word": "little"
              }
            ]
          }
        ]
      },
      {
        "alternatives": [
          {
            "confidence": 0.88752717,
            "transcript": " a little girl dancing away for a cookie",
            "words": [
              {
                "endTime": "35.800s",
                "startTime": "35.500s",
                "word": "a"
              },
              {
                "endTime": "36.100s",
                "startTime": "35.800s",
                "word": "little"
              },
              {
                "endTime": "36.400s",
                "startTime": "36.100s",
                "word": "girl"
              },
              {
                "endTime": "37s",
                "startTime": "36.400s",
                "word": "dancing"
              },
              {
                "endTime": "37.300s",
                "startTime": "37s",
                "word": "away"
              },
              {
                "endTime": "37.600s",
                "startTime": "37.300s",
                "word": "for"
              },
              {
                "endTime": "37.700s",
                "startTime": "37.600s",
                "word": "a"
              },
              {
                "endTime": "38.200s",
                "startTime": "37.700s",
                "word": "cookie"
              }
            ]
          }
        ]
      },
      {
        "alternatives": [
          {
            "confidence": 0.70854425,
            "transcript": " then say the mother's drying the dishes",
            "words": [
              {
                "endTime": "40.900s",
                "startTime": "40s",
                "word": "then"
              },
              {
                "endTime": "41.400s",
                "startTime": "40.900s",
                "word": "say"
              },
              {
                "endTime": "41.600s",
                "startTime": "41.400s",
                "word": "the"
              },
              {
                "endTime": "41.900s",
                "startTime": "41.600s",
                "word": "mother's"
              },
              {
                "endTime": "42.400s",
                "startTime": "41.900s",
                "word": "drying"
              },
              {
                "endTime": "42.500s",
                "startTime": "42.400s",
                "word": "the"
              },
              {
                "endTime": "42.600s",
                "startTime": "42.500s",
                "word": "dishes"
              }
            ]
          }
        ]
      },
      {
        "alternatives": [
          {
            "confidence": 0.82326454,
            "transcript": " and",
            "words": [
              {
                "endTime": "45.900s",
                "startTime": "45.100s",
                "word": "and"
              }
            ]
          }
        ]
      },
      {
        "alternatives": [
          {
            "confidence": 0.96702456,
            "transcript": " standing in the water",
            "words": [
              {
                "endTime": "50.500s",
                "startTime": "48.400s",
                "word": "standing"
              },
              {
                "endTime": "50.600s",
                "startTime": "50.500s",
                "word": "in"
              },
              {
                "endTime": "50.700s",
                "startTime": "50.600s",
                "word": "the"
              },
              {
                "endTime": "51s",
                "startTime": "50.700s",
                "word": "water"
              }
            ]
          }
        ]
      },
      {
        "alternatives": [
          {
            "confidence": 0.9404387,
            "transcript": " biker couple dishes that have already been dried sitting on the sink",
            "words": [
              {
                "endTime": "55.100s",
                "startTime": "54.300s",
                "word": "biker"
              },
              {
                "endTime": "55.400s",
                "startTime": "55.100s",
                "word": "couple"
              },
              {
                "endTime": "56s",
                "startTime": "55.400s",
                "word": "dishes"
              },
              {
                "endTime": "56.300s",
                "startTime": "56s",
                "word": "that"
              },
              {
                "endTime": "56.400s",
                "startTime": "56.300s",
                "word": "have"
              },
              {
                "endTime": "56.600s",
                "startTime": "56.400s",
                "word": "already"
              },
              {
                "endTime": "57s",
                "startTime": "56.600s",
                "word": "been"
              },
              {
                "endTime": "57.300s",
                "startTime": "57s",
                "word": "dried"
              },
              {
                "endTime": "57.900s",
                "startTime": "57.300s",
                "word": "sitting"
              },
              {
                "endTime": "58s",
                "startTime": "57.900s",
                "word": "on"
              },
              {
                "endTime": "58.100s",
                "startTime": "58s",
                "word": "the"
              },
              {
                "endTime": "58.500s",
                "startTime": "58.100s",
                "word": "sink"
              }
            ]
          }
        ]
      },
      {
        "alternatives": [
          {
            "confidence": 0.8260571,
            "transcript": " I guess it's all today",
            "words": [
              {
                "endTime": "62.100s",
                "startTime": "61.400s",
                "word": "I"
              },
              {
                "endTime": "62.400s",
                "startTime": "62.100s",
                "word": "guess"
              },
              {
                "endTime": "62.700s",
                "startTime": "62.400s",
                "word": "it's"
              },
              {
                "endTime": "62.700s",
                "startTime": "62.700s",
                "word": "all"
              },
              {
                "endTime": "63.400s",
                "startTime": "62.700s",
                "word": "today"
              }
            ]
          }
        ]
      },
      {
        "alternatives": [
          {
            "confidence": 0.956267,
            "transcript": " tell me a little boys trying to get some cookies out of the cookie jar little girls asking for a cookie in the stool looks as though it's going to fall over",
            "words": [
              {
                "endTime": "67.900s",
                "startTime": "64.600s",
                "word": "tell"
              },
              {
                "endTime": "68s",
                "startTime": "67.900s",
                "word": "me"
              },
              {
                "endTime": "68s",
                "startTime": "68s",
                "word": "a"
              },
              {
                "endTime": "70.900s",
                "startTime": "68s",
                "word": "little"
              },
              {
                "endTime": "71.200s",
                "startTime": "70.900s",
                "word": "boys"
              },
              {
                "endTime": "71.500s",
                "startTime": "71.200s",
                "word": "trying"
              },
              {
                "endTime": "71.500s",
                "startTime": "71.500s",
                "word": "to"
              },
              {
                "endTime": "71.700s",
                "startTime": "71.500s",
                "word": "get"
              },
              {
                "endTime": "71.900s",
                "startTime": "71.700s",
                "word": "some"
              },
              {
                "endTime": "72.100s",
                "startTime": "71.900s",
                "word": "cookies"
              },
              {
                "endTime": "72.500s",
                "startTime": "72.100s",
                "word": "out"
              },
              {
                "endTime": "72.700s",
                "startTime": "72.500s",
                "word": "of"
              },
              {
                "endTime": "72.800s",
                "startTime": "72.700s",
                "word": "the"
              },
              {
                "endTime": "73s",
                "startTime": "72.800s",
                "word": "cookie"
              },
              {
                "endTime": "73.400s",
                "startTime": "73s",
                "word": "jar"
              },
              {
                "endTime": "73.800s",
                "startTime": "73.400s",
                "word": "little"
              },
              {
                "endTime": "74.200s",
                "startTime": "73.800s",
                "word": "girls"
              },
              {
                "endTime": "74.600s",
                "startTime": "74.200s",
                "word": "asking"
              },
              {
                "endTime": "74.800s",
                "startTime": "74.600s",
                "word": "for"
              },
              {
                "endTime": "74.900s",
                "startTime": "74.800s",
                "word": "a"
              },
              {
                "endTime": "75.300s",
                "startTime": "74.900s",
                "word": "cookie"
              },
              {
                "endTime": "75.500s",
                "startTime": "75.300s",
                "word": "in"
              },
              {
                "endTime": "75.600s",
                "startTime": "75.500s",
                "word": "the"
              },
              {
                "endTime": "76.200s",
                "startTime": "75.600s",
                "word": "stool"
              },
              {
                "endTime": "76.500s",
                "startTime": "76.200s",
                "word": "looks"
              },
              {
                "endTime": "76.600s",
                "startTime": "76.500s",
                "word": "as"
              },
              {
                "endTime": "76.700s",
                "startTime": "76.600s",
                "word": "though"
              },
              {
                "endTime": "76.900s",
                "startTime": "76.700s",
                "word": "it's"
              },
              {
                "endTime": "77s",
                "startTime": "76.900s",
                "word": "going"
              },
              {
                "endTime": "77.200s",
                "startTime": "77s",
                "word": "to"
              },
              {
                "endTime": "77.600s",
                "startTime": "77.200s",
                "word": "fall"
              },
              {
                "endTime": "77.800s",
                "startTime": "77.600s",
                "word": "over"
              }
            ]
          }
        ]
      }
    ]
  }
}
