{
  "done": true,
  "metadata": {
    "@type": "type.googleapis.com/google.cloud.speech.v1.LongRunningRecognizeMetadata",
    "lastUpdateTime": "2021-03-10T12:53:53.709861Z",
    "progressPercent": 100,
    "startTime": "2021-03-10T12:53:39.039322Z",
    "uri": "gs://adresso/ADReSSo21-diagnosis-train/diagnosis/train/audio/cn/adrso285.wav"
  },
  "name": "4922197537315133383",
  "response": {
    "@type": "type.googleapis.com/google.cloud.speech.v1.LongRunningRecognizeResponse",
    "results": [
      {
        "alternatives": [
          {
            "confidence": 0.86061805,
            "transcript": "touching lives raising arm",
            "words": [
              {
                "endTime": "6.300s",
                "startTime": "5.600s",
                "word": "touching"
              },
              {
                "endTime": "6.600s",
                "startTime": "6.300s",
                "word": "lives"
              },
              {
                "endTime": "7.700s",
                "startTime": "6.600s",
                "word": "raising"
              },
              {
                "endTime": "8.200s",
                "startTime": "7.700s",
                "word": "arm"
              }
            ]
          }
        ]
      },
      {
        "alternatives": [
          {
            "confidence": 0.7734466,
            "transcript": " dancing for cooking handing cookie down",
            "words": [
              {
                "endTime": "11.700s",
                "startTime": "9.100s",
                "word": "dancing"
              },
              {
                "endTime": "11.900s",
                "startTime": "11.700s",
                "word": "for"
              },
              {
                "endTime": "12.800s",
                "startTime": "11.900s",
                "word": "cooking"
              },
              {
                "endTime": "14s",
                "startTime": "12.800s",
                "word": "handing"
              },
              {
                "endTime": "14.400s",
                "startTime": "14s",
                "word": "cookie"
              },
              {
                "endTime": "14.600s",
                "startTime": "14.400s",
                "word": "down"
              }
            ]
          }
        ]
      },
      {
        "alternatives": [
          {
            "confidence": 0.6861245,
            "transcript": " slipping from stool still falling over",
            "words": [
              {
                "endTime": "16.500s",
                "startTime": "15.800s",
                "word": "slipping"
              },
              {
                "endTime": "17.900s",
                "startTime": "16.500s",
                "word": "from"
              },
              {
                "endTime": "18.700s",
                "startTime": "17.900s",
                "word": "stool"
              },
              {
                "endTime": "19.600s",
                "startTime": "18.700s",
                "word": "still"
              },
              {
                "endTime": "20.200s",
                "startTime": "19.600s",
                "word": "falling"
              },
              {
                "endTime": "20.600s",
                "startTime": "20.200s",
                "word": "over"
              }
            ]
          }
        ]
      },
      {
        "alternatives": [
          {
            "confidence": 0.5763799,
            "transcript": " Nightingale",
            "words": [
              {
                "endTime": "24.500s",
                "startTime": "23.500s",
                "word": "Nightingale"
              }
            ]
          }
        ]
      },
      {
        "alternatives": [
          {
            "confidence": 0.98371804,
            "transcript": " water running",
            "words": [
              {
                "endTime": "26.400s",
                "startTime": "25.800s",
                "word": "water"
              },
              {
                "endTime": "26.700s",
                "startTime": "26.400s",
                "word": "running"
              }
            ]
          }
        ]
      },
      {
        "alternatives": [
          {
            "confidence": 0.5573825,
            "transcript": " water over Stone",
            "words": [
              {
                "endTime": "28.700s",
                "startTime": "28s",
                "word": "water"
              },
              {
                "endTime": "29s",
                "startTime": "28.700s",
                "word": "over"
              },
              {
                "endTime": "29.400s",
                "startTime": "29s",
                "word": "Stone"
              }
            ]
          }
        ]
      },
      {
        "alternatives": [
          {
            "confidence": 0.803736,
            "transcript": " breathe",
            "words": [
              {
                "endTime": "35.100s",
                "startTime": "34.400s",
                "word": "breathe"
              }
            ]
          }
        ]
      },
      {
        "alternatives": [
          {
            "confidence": 0.89592785,
            "transcript": " stepping out from water",
            "words": [
              {
                "endTime": "40s",
                "startTime": "39.500s",
                "word": "stepping"
              },
              {
                "endTime": "40.300s",
                "startTime": "40s",
                "word": "out"
              },
              {
                "endTime": "40.700s",
                "startTime": "40.300s",
                "word": "from"
              },
              {
                "endTime": "41.100s",
                "startTime": "40.700s",
                "word": "water"
              }
            ]
          }
        ]
      }
    ]
  }
}
