{
  "done": true,
  "metadata": {
    "@type": "type.googleapis.com/google.cloud.speech.v1.LongRunningRecognizeMetadata",
    "lastUpdateTime": "2021-03-10T12:54:05.019224Z",
    "progressPercent": 100,
    "startTime": "2021-03-10T12:53:49.554908Z",
    "uri": "gs://adresso/ADReSSo21-diagnosis-train/diagnosis/train/audio/cn/adrso299.wav"
  },
  "name": "3717383284834796994",
  "response": {
    "@type": "type.googleapis.com/google.cloud.speech.v1.LongRunningRecognizeResponse",
    "results": [
      {
        "alternatives": [
          {
            "confidence": 0.9010475,
            "transcript": "I want to take a look at this picture I don't want you to tell me everything that's happening there everything is going on in that picture",
            "words": [
              {
                "endTime": "0s",
                "startTime": "0s",
                "word": "I"
              },
              {
                "endTime": "0.400s",
                "startTime": "0s",
                "word": "want"
              },
              {
                "endTime": "0.500s",
                "startTime": "0.400s",
                "word": "to"
              },
              {
                "endTime": "0.800s",
                "startTime": "0.500s",
                "word": "take"
              },
              {
                "endTime": "0.800s",
                "startTime": "0.800s",
                "word": "a"
              },
              {
                "endTime": "0.900s",
                "startTime": "0.800s",
                "word": "look"
              },
              {
                "endTime": "1.100s",
                "startTime": "0.900s",
                "word": "at"
              },
              {
                "endTime": "1.200s",
                "startTime": "1.100s",
                "word": "this"
              },
              {
                "endTime": "1.600s",
                "startTime": "1.200s",
                "word": "picture"
              },
              {
                "endTime": "2s",
                "startTime": "1.600s",
                "word": "I"
              },
              {
                "endTime": "2.100s",
                "startTime": "2s",
                "word": "don't"
              },
              {
                "endTime": "2.300s",
                "startTime": "2.100s",
                "word": "want"
              },
              {
                "endTime": "2.500s",
                "startTime": "2.300s",
                "word": "you"
              },
              {
                "endTime": "2.600s",
                "startTime": "2.500s",
                "word": "to"
              },
              {
                "endTime": "2.700s",
                "startTime": "2.600s",
                "word": "tell"
              },
              {
                "endTime": "2.900s",
                "startTime": "2.700s",
                "word": "me"
              },
              {
                "endTime": "3s",
                "startTime": "2.900s",
                "word": "everything"
              },
              {
                "endTime": "3.700s",
                "startTime": "3s",
                "word": "that's"
              },
              {
                "endTime": "4.200s",
                "startTime": "3.700s",
                "word": "happening"
              },
              {
                "endTime": "4.400s",
                "startTime": "4.200s",
                "word": "there"
              },
              {
                "endTime": "5s",
                "startTime": "4.400s",
                "word": "everything"
              },
              {
                "endTime": "5.300s",
                "startTime": "5s",
                "word": "is"
              },
              {
                "endTime": "5.700s",
                "startTime": "5.300s",
                "word": "going"
              },
              {
                "endTime": "5.800s",
                "startTime": "5.700s",
                "word": "on"
              },
              {
                "endTime": "6s",
                "startTime": "5.800s",
                "word": "in"
              },
              {
                "endTime": "6.200s",
                "startTime": "6s",
                "word": "that"
              },
              {
                "endTime": "6.500s",
                "startTime": "6.200s",
                "word": "picture"
              }
            ]
          }
        ]
      },
      {
        "alternatives": [
          {
            "confidence": 0.9078952,
            "transcript": " okay is there a number of things I mean do I have to come up with a certain amount is that the number one the boys stealing some cookies and he's falling over for mature",
            "words": [
              {
                "endTime": "11s",
                "startTime": "10.400s",
                "word": "okay"
              },
              {
                "endTime": "11.100s",
                "startTime": "11s",
                "word": "is"
              },
              {
                "endTime": "11.200s",
                "startTime": "11.100s",
                "word": "there"
              },
              {
                "endTime": "11.300s",
                "startTime": "11.200s",
                "word": "a"
              },
              {
                "endTime": "11.500s",
                "startTime": "11.300s",
                "word": "number"
              },
              {
                "endTime": "11.700s",
                "startTime": "11.500s",
                "word": "of"
              },
              {
                "endTime": "11.800s",
                "startTime": "11.700s",
                "word": "things"
              },
              {
                "endTime": "12.200s",
                "startTime": "11.800s",
                "word": "I"
              },
              {
                "endTime": "12.400s",
                "startTime": "12.200s",
                "word": "mean"
              },
              {
                "endTime": "13s",
                "startTime": "12.400s",
                "word": "do"
              },
              {
                "endTime": "13.100s",
                "startTime": "13s",
                "word": "I"
              },
              {
                "endTime": "13.100s",
                "startTime": "13.100s",
                "word": "have"
              },
              {
                "endTime": "13.300s",
                "startTime": "13.100s",
                "word": "to"
              },
              {
                "endTime": "13.400s",
                "startTime": "13.300s",
                "word": "come"
              },
              {
                "endTime": "13.500s",
                "startTime": "13.400s",
                "word": "up"
              },
              {
                "endTime": "13.600s",
                "startTime": "13.500s",
                "word": "with"
              },
              {
                "endTime": "13.700s",
                "startTime": "13.600s",
                "word": "a"
              },
              {
                "endTime": "14s",
                "startTime": "13.700s",
                "word": "certain"
              },
              {
                "endTime": "14.100s",
                "startTime": "14s",
                "word": "amount"
              },
              {
                "endTime": "14.900s",
                "startTime": "14.100s",
                "word": "is"
              },
              {
                "endTime": "15s",
                "startTime": "14.900s",
                "word": "that"
              },
              {
                "endTime": "15.100s",
                "startTime": "15s",
                "word": "the"
              },
              {
                "endTime": "18.600s",
                "startTime": "15.100s",
                "word": "number"
              },
              {
                "endTime": "18.900s",
                "startTime": "18.600s",
                "word": "one"
              },
              {
                "endTime": "19s",
                "startTime": "18.900s",
                "word": "the"
              },
              {
                "endTime": "19.300s",
                "startTime": "19s",
                "word": "boys"
              },
              {
                "endTime": "19.600s",
                "startTime": "19.300s",
                "word": "stealing"
              },
              {
                "endTime": "19.900s",
                "startTime": "19.600s",
                "word": "some"
              },
              {
                "endTime": "20.300s",
                "startTime": "19.900s",
                "word": "cookies"
              },
              {
                "endTime": "20.300s",
                "startTime": "20.300s",
                "word": "and"
              },
              {
                "endTime": "20.600s",
                "startTime": "20.300s",
                "word": "he's"
              },
              {
                "endTime": "21.200s",
                "startTime": "20.600s",
                "word": "falling"
              },
              {
                "endTime": "21.500s",
                "startTime": "21.200s",
                "word": "over"
              },
              {
                "endTime": "21.700s",
                "startTime": "21.500s",
                "word": "for"
              },
              {
                "endTime": "22.100s",
                "startTime": "21.700s",
                "word": "mature"
              }
            ]
          }
        ]
      },
      {
        "alternatives": [
          {
            "confidence": 0.88997144,
            "transcript": " not setting streets in the sink is overflowing you want to know everything is wrong with the picture or any everything is happening and it looks like it's a nice summer day outside drying the dishes",
            "words": [
              {
                "endTime": "25.100s",
                "startTime": "24.500s",
                "word": "not"
              },
              {
                "endTime": "25.500s",
                "startTime": "25.100s",
                "word": "setting"
              },
              {
                "endTime": "26s",
                "startTime": "25.500s",
                "word": "streets"
              },
              {
                "endTime": "26.300s",
                "startTime": "26s",
                "word": "in"
              },
              {
                "endTime": "26.300s",
                "startTime": "26.300s",
                "word": "the"
              },
              {
                "endTime": "26.600s",
                "startTime": "26.300s",
                "word": "sink"
              },
              {
                "endTime": "26.800s",
                "startTime": "26.600s",
                "word": "is"
              },
              {
                "endTime": "26.900s",
                "startTime": "26.800s",
                "word": "overflowing"
              },
              {
                "endTime": "28.400s",
                "startTime": "26.900s",
                "word": "you"
              },
              {
                "endTime": "28.500s",
                "startTime": "28.400s",
                "word": "want"
              },
              {
                "endTime": "28.600s",
                "startTime": "28.500s",
                "word": "to"
              },
              {
                "endTime": "28.700s",
                "startTime": "28.600s",
                "word": "know"
              },
              {
                "endTime": "29.100s",
                "startTime": "28.700s",
                "word": "everything"
              },
              {
                "endTime": "29.300s",
                "startTime": "29.100s",
                "word": "is"
              },
              {
                "endTime": "29.600s",
                "startTime": "29.300s",
                "word": "wrong"
              },
              {
                "endTime": "29.900s",
                "startTime": "29.600s",
                "word": "with"
              },
              {
                "endTime": "30s",
                "startTime": "29.900s",
                "word": "the"
              },
              {
                "endTime": "30.200s",
                "startTime": "30s",
                "word": "picture"
              },
              {
                "endTime": "30.400s",
                "startTime": "30.200s",
                "word": "or"
              },
              {
                "endTime": "30.600s",
                "startTime": "30.400s",
                "word": "any"
              },
              {
                "endTime": "31.800s",
                "startTime": "30.600s",
                "word": "everything"
              },
              {
                "endTime": "32s",
                "startTime": "31.800s",
                "word": "is"
              },
              {
                "endTime": "32.300s",
                "startTime": "32s",
                "word": "happening"
              },
              {
                "endTime": "33.300s",
                "startTime": "32.300s",
                "word": "and"
              },
              {
                "endTime": "33.300s",
                "startTime": "33.300s",
                "word": "it"
              },
              {
                "endTime": "33.600s",
                "startTime": "33.300s",
                "word": "looks"
              },
              {
                "endTime": "33.600s",
                "startTime": "33.600s",
                "word": "like"
              },
              {
                "endTime": "33.900s",
                "startTime": "33.600s",
                "word": "it's"
              },
              {
                "endTime": "33.900s",
                "startTime": "33.900s",
                "word": "a"
              },
              {
                "endTime": "34.100s",
                "startTime": "33.900s",
                "word": "nice"
              },
              {
                "endTime": "34.500s",
                "startTime": "34.100s",
                "word": "summer"
              },
              {
                "endTime": "34.600s",
                "startTime": "34.500s",
                "word": "day"
              },
              {
                "endTime": "35.100s",
                "startTime": "34.600s",
                "word": "outside"
              },
              {
                "endTime": "37.100s",
                "startTime": "35.100s",
                "word": "drying"
              },
              {
                "endTime": "37.300s",
                "startTime": "37.100s",
                "word": "the"
              },
              {
                "endTime": "37.500s",
                "startTime": "37.300s",
                "word": "dishes"
              }
            ]
          }
        ]
      },
      {
        "alternatives": [
          {
            "confidence": 0.8459346,
            "transcript": " what's happening",
            "words": [
              {
                "endTime": "41.100s",
                "startTime": "39.200s",
                "word": "what's"
              },
              {
                "endTime": "41.600s",
                "startTime": "41.100s",
                "word": "happening"
              }
            ]
          }
        ]
      },
      {
        "alternatives": [
          {
            "confidence": 0.71558344,
            "transcript": " she's standing in the water",
            "words": [
              {
                "endTime": "44.400s",
                "startTime": "43.800s",
                "word": "she's"
              },
              {
                "endTime": "44.600s",
                "startTime": "44.400s",
                "word": "standing"
              },
              {
                "endTime": "44.900s",
                "startTime": "44.600s",
                "word": "in"
              },
              {
                "endTime": "45s",
                "startTime": "44.900s",
                "word": "the"
              },
              {
                "endTime": "45.200s",
                "startTime": "45s",
                "word": "water"
              }
            ]
          }
        ]
      },
      {
        "alternatives": [
          {
            "confidence": 0.8436107,
            "transcript": " the girl seems to be giggling",
            "words": [
              {
                "endTime": "53.800s",
                "startTime": "53.300s",
                "word": "the"
              },
              {
                "endTime": "54s",
                "startTime": "53.800s",
                "word": "girl"
              },
              {
                "endTime": "54.200s",
                "startTime": "54s",
                "word": "seems"
              },
              {
                "endTime": "54.500s",
                "startTime": "54.200s",
                "word": "to"
              },
              {
                "endTime": "54.600s",
                "startTime": "54.500s",
                "word": "be"
              },
              {
                "endTime": "54.900s",
                "startTime": "54.600s",
                "word": "giggling"
              }
            ]
          }
        ]
      },
      {
        "alternatives": [
          {
            "confidence": 0.7766425,
            "transcript": " your mother is a little TN",
            "words": [
              {
                "endTime": "57.500s",
                "startTime": "56.400s",
                "word": "your"
              },
              {
                "endTime": "57.800s",
                "startTime": "57.500s",
                "word": "mother"
              },
              {
                "endTime": "57.900s",
                "startTime": "57.800s",
                "word": "is"
              },
              {
                "endTime": "57.900s",
                "startTime": "57.900s",
                "word": "a"
              },
              {
                "endTime": "57.900s",
                "startTime": "57.900s",
                "word": "little"
              },
              {
                "endTime": "58.700s",
                "startTime": "57.900s",
                "word": "TN"
              }
            ]
          }
        ]
      },
      {
        "alternatives": [
          {
            "confidence": 0.68095374,
            "transcript": " thank you very much",
            "words": [
              {
                "endTime": "71s",
                "startTime": "67.400s",
                "word": "thank"
              },
              {
                "endTime": "71.100s",
                "startTime": "71s",
                "word": "you"
              },
              {
                "endTime": "71.200s",
                "startTime": "71.100s",
                "word": "very"
              },
              {
                "endTime": "71.400s",
                "startTime": "71.200s",
                "word": "much"
              }
            ]
          }
        ]
      }
    ]
  }
}
