{
  "done": true,
  "metadata": {
    "@type": "type.googleapis.com/google.cloud.speech.v1.LongRunningRecognizeMetadata",
    "lastUpdateTime": "2021-03-10T12:53:26.760713Z",
    "progressPercent": 100,
    "startTime": "2021-03-10T12:53:07.336683Z",
    "uri": "gs://adresso/ADReSSo21-diagnosis-train/diagnosis/train/audio/cn/adrso257.wav"
  },
  "name": "4335569265804568654",
  "response": {
    "@type": "type.googleapis.com/google.cloud.speech.v1.LongRunningRecognizeResponse",
    "results": [
      {
        "alternatives": [
          {
            "confidence": 0.7415908,
            "transcript": "look at the picture",
            "words": [
              {
                "endTime": "1.900s",
                "startTime": "0.900s",
                "word": "look"
              },
              {
                "endTime": "2s",
                "startTime": "1.900s",
                "word": "at"
              },
              {
                "endTime": "2.100s",
                "startTime": "2s",
                "word": "the"
              },
              {
                "endTime": "2.300s",
                "startTime": "2.100s",
                "word": "picture"
              }
            ]
          }
        ]
      },
      {
        "alternatives": [
          {
            "confidence": 0.77258056,
            "transcript": " American cookie jar cookie jar store",
            "words": [
              {
                "endTime": "6.700s",
                "startTime": "5.900s",
                "word": "American"
              },
              {
                "endTime": "7s",
                "startTime": "6.700s",
                "word": "cookie"
              },
              {
                "endTime": "7.300s",
                "startTime": "7s",
                "word": "jar"
              },
              {
                "endTime": "7.700s",
                "startTime": "7.300s",
                "word": "cookie"
              },
              {
                "endTime": "8s",
                "startTime": "7.700s",
                "word": "jar"
              },
              {
                "endTime": "9.400s",
                "startTime": "8s",
                "word": "store"
              }
            ]
          }
        ]
      },
      {
        "alternatives": [
          {
            "confidence": 0.79403836,
            "transcript": " look at the window sealing shrubbery",
            "words": [
              {
                "endTime": "25.400s",
                "startTime": "24.200s",
                "word": "look"
              },
              {
                "endTime": "25.500s",
                "startTime": "25.400s",
                "word": "at"
              },
              {
                "endTime": "25.600s",
                "startTime": "25.500s",
                "word": "the"
              },
              {
                "endTime": "26s",
                "startTime": "25.600s",
                "word": "window"
              },
              {
                "endTime": "26.600s",
                "startTime": "26s",
                "word": "sealing"
              },
              {
                "endTime": "27.900s",
                "startTime": "26.600s",
                "word": "shrubbery"
              }
            ]
          }
        ]
      },
      {
        "alternatives": [
          {
            "confidence": 0.843144,
            "transcript": " Sideways from the cookie jar doors open here in a minute",
            "words": [
              {
                "endTime": "32.900s",
                "startTime": "31.200s",
                "word": "Sideways"
              },
              {
                "endTime": "33s",
                "startTime": "32.900s",
                "word": "from"
              },
              {
                "endTime": "33.100s",
                "startTime": "33s",
                "word": "the"
              },
              {
                "endTime": "33.400s",
                "startTime": "33.100s",
                "word": "cookie"
              },
              {
                "endTime": "33.500s",
                "startTime": "33.400s",
                "word": "jar"
              },
              {
                "endTime": "34.800s",
                "startTime": "33.500s",
                "word": "doors"
              },
              {
                "endTime": "35.100s",
                "startTime": "34.800s",
                "word": "open"
              },
              {
                "endTime": "35.300s",
                "startTime": "35.100s",
                "word": "here"
              },
              {
                "endTime": "35.400s",
                "startTime": "35.300s",
                "word": "in"
              },
              {
                "endTime": "35.900s",
                "startTime": "35.400s",
                "word": "a"
              },
              {
                "endTime": "36.100s",
                "startTime": "35.900s",
                "word": "minute"
              }
            ]
          }
        ]
      },
      {
        "alternatives": [
          {
            "confidence": 0.61817235,
            "transcript": " open",
            "words": [
              {
                "endTime": "52.100s",
                "startTime": "51.100s",
                "word": "open"
              }
            ]
          }
        ]
      },
      {
        "alternatives": [
          {
            "confidence": 0.8951323,
            "transcript": " okay",
            "words": [
              {
                "endTime": "56.400s",
                "startTime": "55.800s",
                "word": "okay"
              }
            ]
          }
        ]
      }
    ]
  }
}
