{
  "done": true,
  "metadata": {
    "@type": "type.googleapis.com/google.cloud.speech.v1.LongRunningRecognizeMetadata",
    "lastUpdateTime": "2021-03-10T12:52:49.948203Z",
    "progressPercent": 100,
    "startTime": "2021-03-10T12:52:34.651856Z",
    "uri": "gs://adresso/ADReSSo21-diagnosis-train/diagnosis/train/audio/cn/adrso156.wav"
  },
  "name": "2988963328749847186",
  "response": {
    "@type": "type.googleapis.com/google.cloud.speech.v1.LongRunningRecognizeResponse",
    "results": [
      {
        "alternatives": [
          {
            "confidence": 0.95221555,
            "transcript": "wow",
            "words": [
              {
                "endTime": "3.300s",
                "startTime": "0s",
                "word": "wow"
              }
            ]
          }
        ]
      },
      {
        "alternatives": [
          {
            "confidence": 0.8794797,
            "transcript": " the money must be daydreaming because Lars overflowing sake",
            "words": [
              {
                "endTime": "5.900s",
                "startTime": "5.400s",
                "word": "the"
              },
              {
                "endTime": "6.200s",
                "startTime": "5.900s",
                "word": "money"
              },
              {
                "endTime": "6.400s",
                "startTime": "6.200s",
                "word": "must"
              },
              {
                "endTime": "6.500s",
                "startTime": "6.400s",
                "word": "be"
              },
              {
                "endTime": "6.900s",
                "startTime": "6.500s",
                "word": "daydreaming"
              },
              {
                "endTime": "7.600s",
                "startTime": "6.900s",
                "word": "because"
              },
              {
                "endTime": "8.200s",
                "startTime": "7.600s",
                "word": "Lars"
              },
              {
                "endTime": "8.800s",
                "startTime": "8.200s",
                "word": "overflowing"
              },
              {
                "endTime": "9.500s",
                "startTime": "8.800s",
                "word": "sake"
              }
            ]
          }
        ]
      },
      {
        "alternatives": [
          {
            "confidence": 0.84569997,
            "transcript": " and windows open",
            "words": [
              {
                "endTime": "11.500s",
                "startTime": "10.700s",
                "word": "and"
              },
              {
                "endTime": "13.100s",
                "startTime": "11.500s",
                "word": "windows"
              },
              {
                "endTime": "13.200s",
                "startTime": "13.100s",
                "word": "open"
              }
            ]
          }
        ]
      },
      {
        "alternatives": [
          {
            "confidence": 0.8389953,
            "transcript": " the boys in the cookie jar giving is going in the cookie jar giving a sister in the bath box duel",
            "words": [
              {
                "endTime": "23.600s",
                "startTime": "20.500s",
                "word": "the"
              },
              {
                "endTime": "24.200s",
                "startTime": "23.600s",
                "word": "boys"
              },
              {
                "endTime": "24.300s",
                "startTime": "24.200s",
                "word": "in"
              },
              {
                "endTime": "24.400s",
                "startTime": "24.300s",
                "word": "the"
              },
              {
                "endTime": "24.700s",
                "startTime": "24.400s",
                "word": "cookie"
              },
              {
                "endTime": "24.800s",
                "startTime": "24.700s",
                "word": "jar"
              },
              {
                "endTime": "25.500s",
                "startTime": "24.800s",
                "word": "giving"
              },
              {
                "endTime": "25.600s",
                "startTime": "25.500s",
                "word": "is"
              },
              {
                "endTime": "26s",
                "startTime": "25.600s",
                "word": "going"
              },
              {
                "endTime": "26.100s",
                "startTime": "26s",
                "word": "in"
              },
              {
                "endTime": "26.200s",
                "startTime": "26.100s",
                "word": "the"
              },
              {
                "endTime": "26.500s",
                "startTime": "26.200s",
                "word": "cookie"
              },
              {
                "endTime": "26.500s",
                "startTime": "26.500s",
                "word": "jar"
              },
              {
                "endTime": "26.900s",
                "startTime": "26.500s",
                "word": "giving"
              },
              {
                "endTime": "27s",
                "startTime": "26.900s",
                "word": "a"
              },
              {
                "endTime": "27.400s",
                "startTime": "27s",
                "word": "sister"
              },
              {
                "endTime": "27.500s",
                "startTime": "27.400s",
                "word": "in"
              },
              {
                "endTime": "27.600s",
                "startTime": "27.500s",
                "word": "the"
              },
              {
                "endTime": "28s",
                "startTime": "27.600s",
                "word": "bath"
              },
              {
                "endTime": "28.500s",
                "startTime": "28s",
                "word": "box"
              },
              {
                "endTime": "28.900s",
                "startTime": "28.500s",
                "word": "duel"
              }
            ]
          }
        ]
      },
      {
        "alternatives": [
          {
            "confidence": 0.56093645,
            "transcript": " and just do this",
            "words": [
              {
                "endTime": "30.800s",
                "startTime": "30.100s",
                "word": "and"
              },
              {
                "endTime": "31.100s",
                "startTime": "30.800s",
                "word": "just"
              },
              {
                "endTime": "31.200s",
                "startTime": "31.100s",
                "word": "do"
              },
              {
                "endTime": "31.500s",
                "startTime": "31.200s",
                "word": "this"
              }
            ]
          }
        ]
      },
      {
        "alternatives": [
          {
            "confidence": 0.8774769,
            "transcript": " I don't know girl who turn off the little girl has her finger to her mouth so she's trying to",
            "words": [
              {
                "endTime": "33.200s",
                "startTime": "32.800s",
                "word": "I"
              },
              {
                "endTime": "33.400s",
                "startTime": "33.200s",
                "word": "don't"
              },
              {
                "endTime": "33.400s",
                "startTime": "33.400s",
                "word": "know"
              },
              {
                "endTime": "33.600s",
                "startTime": "33.400s",
                "word": "girl"
              },
              {
                "endTime": "33.900s",
                "startTime": "33.600s",
                "word": "who"
              },
              {
                "endTime": "34.600s",
                "startTime": "33.900s",
                "word": "turn"
              },
              {
                "endTime": "34.700s",
                "startTime": "34.600s",
                "word": "off"
              },
              {
                "endTime": "35s",
                "startTime": "34.700s",
                "word": "the"
              },
              {
                "endTime": "35.200s",
                "startTime": "35s",
                "word": "little"
              },
              {
                "endTime": "35.500s",
                "startTime": "35.200s",
                "word": "girl"
              },
              {
                "endTime": "35.700s",
                "startTime": "35.500s",
                "word": "has"
              },
              {
                "endTime": "35.900s",
                "startTime": "35.700s",
                "word": "her"
              },
              {
                "endTime": "36.600s",
                "startTime": "35.900s",
                "word": "finger"
              },
              {
                "endTime": "36.800s",
                "startTime": "36.600s",
                "word": "to"
              },
              {
                "endTime": "36.800s",
                "startTime": "36.800s",
                "word": "her"
              },
              {
                "endTime": "37s",
                "startTime": "36.800s",
                "word": "mouth"
              },
              {
                "endTime": "37.300s",
                "startTime": "37s",
                "word": "so"
              },
              {
                "endTime": "37.700s",
                "startTime": "37.300s",
                "word": "she's"
              },
              {
                "endTime": "37.900s",
                "startTime": "37.700s",
                "word": "trying"
              },
              {
                "endTime": "38.200s",
                "startTime": "37.900s",
                "word": "to"
              }
            ]
          }
        ]
      },
      {
        "alternatives": [
          {
            "confidence": 0.9661607,
            "transcript": " trying to get him to be quiet",
            "words": [
              {
                "endTime": "42.400s",
                "startTime": "41.900s",
                "word": "trying"
              },
              {
                "endTime": "42.500s",
                "startTime": "42.400s",
                "word": "to"
              },
              {
                "endTime": "42.600s",
                "startTime": "42.500s",
                "word": "get"
              },
              {
                "endTime": "42.800s",
                "startTime": "42.600s",
                "word": "him"
              },
              {
                "endTime": "42.800s",
                "startTime": "42.800s",
                "word": "to"
              },
              {
                "endTime": "43s",
                "startTime": "42.800s",
                "word": "be"
              },
              {
                "endTime": "43.100s",
                "startTime": "43s",
                "word": "quiet"
              }
            ]
          }
        ]
      },
      {
        "alternatives": [
          {
            "confidence": 0.49788985,
            "transcript": " garage or house next door",
            "words": [
              {
                "endTime": "52.100s",
                "startTime": "50.700s",
                "word": "garage"
              },
              {
                "endTime": "52.300s",
                "startTime": "52.100s",
                "word": "or"
              },
              {
                "endTime": "52.600s",
                "startTime": "52.300s",
                "word": "house"
              },
              {
                "endTime": "52.900s",
                "startTime": "52.600s",
                "word": "next"
              },
              {
                "endTime": "53s",
                "startTime": "52.900s",
                "word": "door"
              }
            ]
          }
        ]
      }
    ]
  }
}
