{
  "done": true,
  "metadata": {
    "@type": "type.googleapis.com/google.cloud.speech.v1.LongRunningRecognizeMetadata",
    "lastUpdateTime": "2021-03-10T12:53:39.204952Z",
    "progressPercent": 100,
    "startTime": "2021-03-10T12:53:23.250537Z",
    "uri": "gs://adresso/ADReSSo21-diagnosis-train/diagnosis/train/audio/cn/adrso268.wav"
  },
  "name": "4922197537315134029",
  "response": {
    "@type": "type.googleapis.com/google.cloud.speech.v1.LongRunningRecognizeResponse",
    "results": [
      {
        "alternatives": [
          {
            "confidence": 0.68952227,
            "transcript": "call Riley are the action I see is",
            "words": [
              {
                "endTime": "2.600s",
                "startTime": "0.700s",
                "word": "call"
              },
              {
                "endTime": "3s",
                "startTime": "2.600s",
                "word": "Riley"
              },
              {
                "endTime": "3.300s",
                "startTime": "3s",
                "word": "are"
              },
              {
                "endTime": "3.400s",
                "startTime": "3.300s",
                "word": "the"
              },
              {
                "endTime": "3.900s",
                "startTime": "3.400s",
                "word": "action"
              },
              {
                "endTime": "4s",
                "startTime": "3.900s",
                "word": "I"
              },
              {
                "endTime": "4.400s",
                "startTime": "4s",
                "word": "see"
              },
              {
                "endTime": "5s",
                "startTime": "4.400s",
                "word": "is"
              }
            ]
          }
        ]
      },
      {
        "alternatives": [
          {
            "confidence": 0.9274923,
            "transcript": " little girl",
            "words": [
              {
                "endTime": "7.700s",
                "startTime": "6.800s",
                "word": "little"
              },
              {
                "endTime": "8.200s",
                "startTime": "7.700s",
                "word": "girl"
              }
            ]
          }
        ]
      },
      {
        "alternatives": [
          {
            "confidence": 0.3565416,
            "transcript": " ever",
            "words": [
              {
                "endTime": "29.200s",
                "startTime": "28.200s",
                "word": "ever"
              }
            ]
          }
        ]
      },
      {
        "alternatives": [
          {
            "confidence": 0.5965323,
            "transcript": " definition of water",
            "words": [
              {
                "endTime": "53.900s",
                "startTime": "51.600s",
                "word": "definition"
              },
              {
                "endTime": "54s",
                "startTime": "53.900s",
                "word": "of"
              },
              {
                "endTime": "54.500s",
                "startTime": "54s",
                "word": "water"
              }
            ]
          }
        ]
      }
    ]
  }
}
