{
  "done": true,
  "metadata": {
    "@type": "type.googleapis.com/google.cloud.speech.v1.LongRunningRecognizeMetadata",
    "lastUpdateTime": "2021-03-10T12:54:17.784622Z",
    "progressPercent": 100,
    "startTime": "2021-03-10T12:53:43.749113Z",
    "uri": "gs://adresso/ADReSSo21-diagnosis-train/diagnosis/train/audio/cn/adrso291.wav"
  },
  "name": "3717383284834795577",
  "response": {
    "@type": "type.googleapis.com/google.cloud.speech.v1.LongRunningRecognizeResponse",
    "results": [
      {
        "alternatives": [
          {
            "confidence": 0.94346374,
            "transcript": "we're not going to do here and take a look at this picture and tell me everything that you see happening everything that you see going on",
            "words": [
              {
                "endTime": "0.900s",
                "startTime": "0.500s",
                "word": "we're"
              },
              {
                "endTime": "1.100s",
                "startTime": "0.900s",
                "word": "not"
              },
              {
                "endTime": "1.200s",
                "startTime": "1.100s",
                "word": "going"
              },
              {
                "endTime": "1.300s",
                "startTime": "1.200s",
                "word": "to"
              },
              {
                "endTime": "1.400s",
                "startTime": "1.300s",
                "word": "do"
              },
              {
                "endTime": "1.700s",
                "startTime": "1.400s",
                "word": "here"
              },
              {
                "endTime": "1.800s",
                "startTime": "1.700s",
                "word": "and"
              },
              {
                "endTime": "2s",
                "startTime": "1.800s",
                "word": "take"
              },
              {
                "endTime": "2.100s",
                "startTime": "2s",
                "word": "a"
              },
              {
                "endTime": "2.100s",
                "startTime": "2.100s",
                "word": "look"
              },
              {
                "endTime": "2.300s",
                "startTime": "2.100s",
                "word": "at"
              },
              {
                "endTime": "2.400s",
                "startTime": "2.300s",
                "word": "this"
              },
              {
                "endTime": "2.800s",
                "startTime": "2.400s",
                "word": "picture"
              },
              {
                "endTime": "2.900s",
                "startTime": "2.800s",
                "word": "and"
              },
              {
                "endTime": "3.100s",
                "startTime": "2.900s",
                "word": "tell"
              },
              {
                "endTime": "3.200s",
                "startTime": "3.100s",
                "word": "me"
              },
              {
                "endTime": "3.600s",
                "startTime": "3.200s",
                "word": "everything"
              },
              {
                "endTime": "3.700s",
                "startTime": "3.600s",
                "word": "that"
              },
              {
                "endTime": "3.800s",
                "startTime": "3.700s",
                "word": "you"
              },
              {
                "endTime": "4s",
                "startTime": "3.800s",
                "word": "see"
              },
              {
                "endTime": "4.300s",
                "startTime": "4s",
                "word": "happening"
              },
              {
                "endTime": "5.200s",
                "startTime": "4.300s",
                "word": "everything"
              },
              {
                "endTime": "5.500s",
                "startTime": "5.200s",
                "word": "that"
              },
              {
                "endTime": "5.500s",
                "startTime": "5.500s",
                "word": "you"
              },
              {
                "endTime": "5.700s",
                "startTime": "5.500s",
                "word": "see"
              },
              {
                "endTime": "6s",
                "startTime": "5.700s",
                "word": "going"
              },
              {
                "endTime": "6.300s",
                "startTime": "6s",
                "word": "on"
              }
            ]
          }
        ]
      },
      {
        "alternatives": [
          {
            "confidence": 0.93400156,
            "transcript": " any children are getting into the cookie jar which is on the high above the Adidas think they have the cookie jar of the guys meeting up for the moon and the sun is about to upset with doors opening into the washing dishes and the sink is running over the water splashing down on the floor there are two I suppose dry dishes on the think she has one in the hand of papacy is drying she has on the apron to stand by the sink is it all a window with a half out into a garden there are the strawberry to the left of the past and see beyond that another window and I know what that is",
            "words": [
              {
                "endTime": "10.500s",
                "startTime": "10s",
                "word": "any"
              },
              {
                "endTime": "11s",
                "startTime": "10.500s",
                "word": "children"
              },
              {
                "endTime": "11.200s",
                "startTime": "11s",
                "word": "are"
              },
              {
                "endTime": "11.400s",
                "startTime": "11.200s",
                "word": "getting"
              },
              {
                "endTime": "11.700s",
                "startTime": "11.400s",
                "word": "into"
              },
              {
                "endTime": "11.900s",
                "startTime": "11.700s",
                "word": "the"
              },
              {
                "endTime": "12.400s",
                "startTime": "11.900s",
                "word": "cookie"
              },
              {
                "endTime": "12.700s",
                "startTime": "12.400s",
                "word": "jar"
              },
              {
                "endTime": "12.900s",
                "startTime": "12.700s",
                "word": "which"
              },
              {
                "endTime": "13.100s",
                "startTime": "12.900s",
                "word": "is"
              },
              {
                "endTime": "13.300s",
                "startTime": "13.100s",
                "word": "on"
              },
              {
                "endTime": "13.400s",
                "startTime": "13.300s",
                "word": "the"
              },
              {
                "endTime": "14.300s",
                "startTime": "13.400s",
                "word": "high"
              },
              {
                "endTime": "14.800s",
                "startTime": "14.300s",
                "word": "above"
              },
              {
                "endTime": "15s",
                "startTime": "14.800s",
                "word": "the"
              },
              {
                "endTime": "15.600s",
                "startTime": "15s",
                "word": "Adidas"
              },
              {
                "endTime": "16.100s",
                "startTime": "15.600s",
                "word": "think"
              },
              {
                "endTime": "17.100s",
                "startTime": "16.100s",
                "word": "they"
              },
              {
                "endTime": "17.300s",
                "startTime": "17.100s",
                "word": "have"
              },
              {
                "endTime": "17.400s",
                "startTime": "17.300s",
                "word": "the"
              },
              {
                "endTime": "19.600s",
                "startTime": "17.400s",
                "word": "cookie"
              },
              {
                "endTime": "19.800s",
                "startTime": "19.600s",
                "word": "jar"
              },
              {
                "endTime": "20.100s",
                "startTime": "19.800s",
                "word": "of"
              },
              {
                "endTime": "22.300s",
                "startTime": "20.100s",
                "word": "the"
              },
              {
                "endTime": "22.500s",
                "startTime": "22.300s",
                "word": "guys"
              },
              {
                "endTime": "22.800s",
                "startTime": "22.500s",
                "word": "meeting"
              },
              {
                "endTime": "23s",
                "startTime": "22.800s",
                "word": "up"
              },
              {
                "endTime": "23.100s",
                "startTime": "23s",
                "word": "for"
              },
              {
                "endTime": "23.400s",
                "startTime": "23.100s",
                "word": "the"
              },
              {
                "endTime": "23.500s",
                "startTime": "23.400s",
                "word": "moon"
              },
              {
                "endTime": "23.600s",
                "startTime": "23.500s",
                "word": "and"
              },
              {
                "endTime": "24s",
                "startTime": "23.600s",
                "word": "the"
              },
              {
                "endTime": "26.200s",
                "startTime": "24s",
                "word": "sun"
              },
              {
                "endTime": "26.300s",
                "startTime": "26.200s",
                "word": "is"
              },
              {
                "endTime": "26.500s",
                "startTime": "26.300s",
                "word": "about"
              },
              {
                "endTime": "26.700s",
                "startTime": "26.500s",
                "word": "to"
              },
              {
                "endTime": "26.900s",
                "startTime": "26.700s",
                "word": "upset"
              },
              {
                "endTime": "27.900s",
                "startTime": "26.900s",
                "word": "with"
              },
              {
                "endTime": "28.300s",
                "startTime": "27.900s",
                "word": "doors"
              },
              {
                "endTime": "28.700s",
                "startTime": "28.300s",
                "word": "opening"
              },
              {
                "endTime": "28.800s",
                "startTime": "28.700s",
                "word": "into"
              },
              {
                "endTime": "29.200s",
                "startTime": "28.800s",
                "word": "the"
              },
              {
                "endTime": "34.500s",
                "startTime": "29.200s",
                "word": "washing"
              },
              {
                "endTime": "35.700s",
                "startTime": "34.500s",
                "word": "dishes"
              },
              {
                "endTime": "36.500s",
                "startTime": "35.700s",
                "word": "and"
              },
              {
                "endTime": "36.700s",
                "startTime": "36.500s",
                "word": "the"
              },
              {
                "endTime": "38.400s",
                "startTime": "36.700s",
                "word": "sink"
              },
              {
                "endTime": "38.500s",
                "startTime": "38.400s",
                "word": "is"
              },
              {
                "endTime": "38.600s",
                "startTime": "38.500s",
                "word": "running"
              },
              {
                "endTime": "39s",
                "startTime": "38.600s",
                "word": "over"
              },
              {
                "endTime": "39.100s",
                "startTime": "39s",
                "word": "the"
              },
              {
                "endTime": "39.400s",
                "startTime": "39.100s",
                "word": "water"
              },
              {
                "endTime": "39.900s",
                "startTime": "39.400s",
                "word": "splashing"
              },
              {
                "endTime": "40s",
                "startTime": "39.900s",
                "word": "down"
              },
              {
                "endTime": "40.200s",
                "startTime": "40s",
                "word": "on"
              },
              {
                "endTime": "40.300s",
                "startTime": "40.200s",
                "word": "the"
              },
              {
                "endTime": "40.700s",
                "startTime": "40.300s",
                "word": "floor"
              },
              {
                "endTime": "42.400s",
                "startTime": "40.700s",
                "word": "there"
              },
              {
                "endTime": "42.700s",
                "startTime": "42.400s",
                "word": "are"
              },
              {
                "endTime": "43.100s",
                "startTime": "42.700s",
                "word": "two"
              },
              {
                "endTime": "43.600s",
                "startTime": "43.100s",
                "word": "I"
              },
              {
                "endTime": "44s",
                "startTime": "43.600s",
                "word": "suppose"
              },
              {
                "endTime": "44.300s",
                "startTime": "44s",
                "word": "dry"
              },
              {
                "endTime": "44.700s",
                "startTime": "44.300s",
                "word": "dishes"
              },
              {
                "endTime": "44.900s",
                "startTime": "44.700s",
                "word": "on"
              },
              {
                "endTime": "45s",
                "startTime": "44.900s",
                "word": "the"
              },
              {
                "endTime": "46.300s",
                "startTime": "45s",
                "word": "think"
              },
              {
                "endTime": "46.500s",
                "startTime": "46.300s",
                "word": "she"
              },
              {
                "endTime": "46.700s",
                "startTime": "46.500s",
                "word": "has"
              },
              {
                "endTime": "46.800s",
                "startTime": "46.700s",
                "word": "one"
              },
              {
                "endTime": "47s",
                "startTime": "46.800s",
                "word": "in"
              },
              {
                "endTime": "47.100s",
                "startTime": "47s",
                "word": "the"
              },
              {
                "endTime": "47.200s",
                "startTime": "47.100s",
                "word": "hand"
              },
              {
                "endTime": "47.400s",
                "startTime": "47.200s",
                "word": "of"
              },
              {
                "endTime": "47.900s",
                "startTime": "47.400s",
                "word": "papacy"
              },
              {
                "endTime": "48.100s",
                "startTime": "47.900s",
                "word": "is"
              },
              {
                "endTime": "48.800s",
                "startTime": "48.100s",
                "word": "drying"
              },
              {
                "endTime": "49s",
                "startTime": "48.800s",
                "word": "she"
              },
              {
                "endTime": "49.200s",
                "startTime": "49s",
                "word": "has"
              },
              {
                "endTime": "49.400s",
                "startTime": "49.200s",
                "word": "on"
              },
              {
                "endTime": "49.500s",
                "startTime": "49.400s",
                "word": "the"
              },
              {
                "endTime": "50s",
                "startTime": "49.500s",
                "word": "apron"
              },
              {
                "endTime": "50.400s",
                "startTime": "50s",
                "word": "to"
              },
              {
                "endTime": "50.700s",
                "startTime": "50.400s",
                "word": "stand"
              },
              {
                "endTime": "51s",
                "startTime": "50.700s",
                "word": "by"
              },
              {
                "endTime": "51.300s",
                "startTime": "51s",
                "word": "the"
              },
              {
                "endTime": "51.500s",
                "startTime": "51.300s",
                "word": "sink"
              },
              {
                "endTime": "51.900s",
                "startTime": "51.500s",
                "word": "is"
              },
              {
                "endTime": "53s",
                "startTime": "51.900s",
                "word": "it"
              },
              {
                "endTime": "53.100s",
                "startTime": "53s",
                "word": "all"
              },
              {
                "endTime": "53.200s",
                "startTime": "53.100s",
                "word": "a"
              },
              {
                "endTime": "53.600s",
                "startTime": "53.200s",
                "word": "window"
              },
              {
                "endTime": "54.100s",
                "startTime": "53.600s",
                "word": "with"
              },
              {
                "endTime": "54.300s",
                "startTime": "54.100s",
                "word": "a"
              },
              {
                "endTime": "55.800s",
                "startTime": "54.300s",
                "word": "half"
              },
              {
                "endTime": "56s",
                "startTime": "55.800s",
                "word": "out"
              },
              {
                "endTime": "56.400s",
                "startTime": "56s",
                "word": "into"
              },
              {
                "endTime": "56.500s",
                "startTime": "56.400s",
                "word": "a"
              },
              {
                "endTime": "57.300s",
                "startTime": "56.500s",
                "word": "garden"
              },
              {
                "endTime": "60.500s",
                "startTime": "57.300s",
                "word": "there"
              },
              {
                "endTime": "60.800s",
                "startTime": "60.500s",
                "word": "are"
              },
              {
                "endTime": "61.700s",
                "startTime": "60.800s",
                "word": "the"
              },
              {
                "endTime": "62.200s",
                "startTime": "61.700s",
                "word": "strawberry"
              },
              {
                "endTime": "62.400s",
                "startTime": "62.200s",
                "word": "to"
              },
              {
                "endTime": "62.500s",
                "startTime": "62.400s",
                "word": "the"
              },
              {
                "endTime": "62.800s",
                "startTime": "62.500s",
                "word": "left"
              },
              {
                "endTime": "62.900s",
                "startTime": "62.800s",
                "word": "of"
              },
              {
                "endTime": "62.900s",
                "startTime": "62.900s",
                "word": "the"
              },
              {
                "endTime": "63.500s",
                "startTime": "62.900s",
                "word": "past"
              },
              {
                "endTime": "63.700s",
                "startTime": "63.500s",
                "word": "and"
              },
              {
                "endTime": "64.100s",
                "startTime": "63.700s",
                "word": "see"
              },
              {
                "endTime": "64.500s",
                "startTime": "64.100s",
                "word": "beyond"
              },
              {
                "endTime": "64.600s",
                "startTime": "64.500s",
                "word": "that"
              },
              {
                "endTime": "65.300s",
                "startTime": "64.600s",
                "word": "another"
              },
              {
                "endTime": "65.800s",
                "startTime": "65.300s",
                "word": "window"
              },
              {
                "endTime": "67s",
                "startTime": "65.800s",
                "word": "and"
              },
              {
                "endTime": "67.400s",
                "startTime": "67s",
                "word": "I"
              },
              {
                "endTime": "68s",
                "startTime": "67.400s",
                "word": "know"
              },
              {
                "endTime": "68.200s",
                "startTime": "68s",
                "word": "what"
              },
              {
                "endTime": "68.200s",
                "startTime": "68.200s",
                "word": "that"
              },
              {
                "endTime": "68.600s",
                "startTime": "68.200s",
                "word": "is"
              }
            ]
          }
        ]
      },
      {
        "alternatives": [
          {
            "confidence": 0.7889507,
            "transcript": " and maybe",
            "words": [
              {
                "endTime": "70.800s",
                "startTime": "70.200s",
                "word": "and"
              },
              {
                "endTime": "76.200s",
                "startTime": "70.800s",
                "word": "maybe"
              }
            ]
          }
        ]
      }
    ]
  }
}
