{
  "done": true,
  "metadata": {
    "@type": "type.googleapis.com/google.cloud.speech.v1.LongRunningRecognizeMetadata",
    "lastUpdateTime": "2021-03-10T12:53:12.554333Z",
    "progressPercent": 100,
    "startTime": "2021-03-10T12:52:59.497747Z",
    "uri": "gs://adresso/ADReSSo21-diagnosis-train/diagnosis/train/audio/cn/adrso178.wav"
  },
  "name": "4335569265804570095",
  "response": {
    "@type": "type.googleapis.com/google.cloud.speech.v1.LongRunningRecognizeResponse",
    "results": [
      {
        "alternatives": [
          {
            "confidence": 0.919664,
            "transcript": "but I want you to do to look at this picture and tell me everything that you see going on everything that you see happening picture",
            "words": [
              {
                "endTime": "2s",
                "startTime": "1.600s",
                "word": "but"
              },
              {
                "endTime": "2s",
                "startTime": "2s",
                "word": "I"
              },
              {
                "endTime": "2.200s",
                "startTime": "2s",
                "word": "want"
              },
              {
                "endTime": "2.300s",
                "startTime": "2.200s",
                "word": "you"
              },
              {
                "endTime": "2.400s",
                "startTime": "2.300s",
                "word": "to"
              },
              {
                "endTime": "2.600s",
                "startTime": "2.400s",
                "word": "do"
              },
              {
                "endTime": "3.400s",
                "startTime": "2.600s",
                "word": "to"
              },
              {
                "endTime": "3.500s",
                "startTime": "3.400s",
                "word": "look"
              },
              {
                "endTime": "3.700s",
                "startTime": "3.500s",
                "word": "at"
              },
              {
                "endTime": "3.700s",
                "startTime": "3.700s",
                "word": "this"
              },
              {
                "endTime": "4.100s",
                "startTime": "3.700s",
                "word": "picture"
              },
              {
                "endTime": "5s",
                "startTime": "4.100s",
                "word": "and"
              },
              {
                "endTime": "5.200s",
                "startTime": "5s",
                "word": "tell"
              },
              {
                "endTime": "5.300s",
                "startTime": "5.200s",
                "word": "me"
              },
              {
                "endTime": "5.800s",
                "startTime": "5.300s",
                "word": "everything"
              },
              {
                "endTime": "5.900s",
                "startTime": "5.800s",
                "word": "that"
              },
              {
                "endTime": "6s",
                "startTime": "5.900s",
                "word": "you"
              },
              {
                "endTime": "6.200s",
                "startTime": "6s",
                "word": "see"
              },
              {
                "endTime": "6.400s",
                "startTime": "6.200s",
                "word": "going"
              },
              {
                "endTime": "6.700s",
                "startTime": "6.400s",
                "word": "on"
              },
              {
                "endTime": "7.600s",
                "startTime": "6.700s",
                "word": "everything"
              },
              {
                "endTime": "7.700s",
                "startTime": "7.600s",
                "word": "that"
              },
              {
                "endTime": "7.900s",
                "startTime": "7.700s",
                "word": "you"
              },
              {
                "endTime": "8s",
                "startTime": "7.900s",
                "word": "see"
              },
              {
                "endTime": "8.300s",
                "startTime": "8s",
                "word": "happening"
              },
              {
                "endTime": "9.700s",
                "startTime": "8.300s",
                "word": "picture"
              }
            ]
          }
        ]
      },
      {
        "alternatives": [
          {
            "confidence": 0.87233454,
            "transcript": " boys getting reaching for cookies and stools falling over his sister is reaching out of her cookies woman's wiping the dishes the sink is running over",
            "words": [
              {
                "endTime": "13.100s",
                "startTime": "11.200s",
                "word": "boys"
              },
              {
                "endTime": "13.500s",
                "startTime": "13.100s",
                "word": "getting"
              },
              {
                "endTime": "13.900s",
                "startTime": "13.500s",
                "word": "reaching"
              },
              {
                "endTime": "14.100s",
                "startTime": "13.900s",
                "word": "for"
              },
              {
                "endTime": "14.600s",
                "startTime": "14.100s",
                "word": "cookies"
              },
              {
                "endTime": "14.800s",
                "startTime": "14.600s",
                "word": "and"
              },
              {
                "endTime": "15.300s",
                "startTime": "14.800s",
                "word": "stools"
              },
              {
                "endTime": "15.700s",
                "startTime": "15.300s",
                "word": "falling"
              },
              {
                "endTime": "16s",
                "startTime": "15.700s",
                "word": "over"
              },
              {
                "endTime": "16.200s",
                "startTime": "16s",
                "word": "his"
              },
              {
                "endTime": "16.800s",
                "startTime": "16.200s",
                "word": "sister"
              },
              {
                "endTime": "17s",
                "startTime": "16.800s",
                "word": "is"
              },
              {
                "endTime": "17.500s",
                "startTime": "17s",
                "word": "reaching"
              },
              {
                "endTime": "18.400s",
                "startTime": "17.500s",
                "word": "out"
              },
              {
                "endTime": "18.600s",
                "startTime": "18.400s",
                "word": "of"
              },
              {
                "endTime": "18.700s",
                "startTime": "18.600s",
                "word": "her"
              },
              {
                "endTime": "18.900s",
                "startTime": "18.700s",
                "word": "cookies"
              },
              {
                "endTime": "22.500s",
                "startTime": "18.900s",
                "word": "woman's"
              },
              {
                "endTime": "22.900s",
                "startTime": "22.500s",
                "word": "wiping"
              },
              {
                "endTime": "23s",
                "startTime": "22.900s",
                "word": "the"
              },
              {
                "endTime": "23.500s",
                "startTime": "23s",
                "word": "dishes"
              },
              {
                "endTime": "23.700s",
                "startTime": "23.500s",
                "word": "the"
              },
              {
                "endTime": "24s",
                "startTime": "23.700s",
                "word": "sink"
              },
              {
                "endTime": "24.100s",
                "startTime": "24s",
                "word": "is"
              },
              {
                "endTime": "24.200s",
                "startTime": "24.100s",
                "word": "running"
              },
              {
                "endTime": "24.800s",
                "startTime": "24.200s",
                "word": "over"
              }
            ]
          }
        ]
      },
      {
        "alternatives": [
          {
            "confidence": 0.9431024,
            "transcript": " curtains blowing a little bit but not much",
            "words": [
              {
                "endTime": "30.100s",
                "startTime": "29.300s",
                "word": "curtains"
              },
              {
                "endTime": "31.300s",
                "startTime": "30.100s",
                "word": "blowing"
              },
              {
                "endTime": "31.500s",
                "startTime": "31.300s",
                "word": "a"
              },
              {
                "endTime": "31.700s",
                "startTime": "31.500s",
                "word": "little"
              },
              {
                "endTime": "32s",
                "startTime": "31.700s",
                "word": "bit"
              },
              {
                "endTime": "32.100s",
                "startTime": "32s",
                "word": "but"
              },
              {
                "endTime": "32.300s",
                "startTime": "32.100s",
                "word": "not"
              },
              {
                "endTime": "32.400s",
                "startTime": "32.300s",
                "word": "much"
              }
            ]
          }
        ]
      },
      {
        "alternatives": [
          {
            "confidence": 0.84975827,
            "transcript": " the boy stepping on one of his own toes",
            "words": [
              {
                "endTime": "35s",
                "startTime": "33.900s",
                "word": "the"
              },
              {
                "endTime": "35.100s",
                "startTime": "35s",
                "word": "boy"
              },
              {
                "endTime": "35.700s",
                "startTime": "35.100s",
                "word": "stepping"
              },
              {
                "endTime": "36s",
                "startTime": "35.700s",
                "word": "on"
              },
              {
                "endTime": "36.300s",
                "startTime": "36s",
                "word": "one"
              },
              {
                "endTime": "36.600s",
                "startTime": "36.300s",
                "word": "of"
              },
              {
                "endTime": "36.600s",
                "startTime": "36.600s",
                "word": "his"
              },
              {
                "endTime": "36.900s",
                "startTime": "36.600s",
                "word": "own"
              },
              {
                "endTime": "37.600s",
                "startTime": "36.900s",
                "word": "toes"
              }
            ]
          }
        ]
      },
      {
        "alternatives": [
          {
            "confidence": 0.88648736,
            "transcript": " little girls telling him to be quiet don't let Mommy see",
            "words": [
              {
                "endTime": "41.900s",
                "startTime": "41.300s",
                "word": "little"
              },
              {
                "endTime": "42.300s",
                "startTime": "41.900s",
                "word": "girls"
              },
              {
                "endTime": "42.600s",
                "startTime": "42.300s",
                "word": "telling"
              },
              {
                "endTime": "42.800s",
                "startTime": "42.600s",
                "word": "him"
              },
              {
                "endTime": "43.200s",
                "startTime": "42.800s",
                "word": "to"
              },
              {
                "endTime": "43.300s",
                "startTime": "43.200s",
                "word": "be"
              },
              {
                "endTime": "44.300s",
                "startTime": "43.300s",
                "word": "quiet"
              },
              {
                "endTime": "44.800s",
                "startTime": "44.300s",
                "word": "don't"
              },
              {
                "endTime": "44.900s",
                "startTime": "44.800s",
                "word": "let"
              },
              {
                "endTime": "45.200s",
                "startTime": "44.900s",
                "word": "Mommy"
              },
              {
                "endTime": "45.400s",
                "startTime": "45.200s",
                "word": "see"
              }
            ]
          }
        ]
      },
      {
        "alternatives": [
          {
            "confidence": 0.8249164,
            "transcript": " not everything that's about it now",
            "words": [
              {
                "endTime": "50s",
                "startTime": "49.600s",
                "word": "not"
              },
              {
                "endTime": "50.500s",
                "startTime": "50s",
                "word": "everything"
              },
              {
                "endTime": "51s",
                "startTime": "50.500s",
                "word": "that's"
              },
              {
                "endTime": "51.200s",
                "startTime": "51s",
                "word": "about"
              },
              {
                "endTime": "51.400s",
                "startTime": "51.200s",
                "word": "it"
              },
              {
                "endTime": "51.600s",
                "startTime": "51.400s",
                "word": "now"
              }
            ]
          }
        ]
      }
    ]
  }
}
