{
  "done": true,
  "metadata": {
    "@type": "type.googleapis.com/google.cloud.speech.v1.LongRunningRecognizeMetadata",
    "lastUpdateTime": "2021-03-10T12:53:41.485977Z",
    "progressPercent": 100,
    "startTime": "2021-03-10T12:53:32.833266Z",
    "uri": "gs://adresso/ADReSSo21-diagnosis-train/diagnosis/train/audio/cn/adrso278.wav"
  },
  "name": "4806809229817521256",
  "response": {
    "@type": "type.googleapis.com/google.cloud.speech.v1.LongRunningRecognizeResponse",
    "results": [
      {
        "alternatives": [
          {
            "confidence": 0.900755,
            "transcript": "any action right thing you see the water from the Saints overflowing a ladies washing dishes boys up on the stool schools a falling piece of getting out of cookies out of cooking try the girls reaching up for the cookies",
            "words": [
              {
                "endTime": "0.700s",
                "startTime": "0.100s",
                "word": "any"
              },
              {
                "endTime": "1.400s",
                "startTime": "0.700s",
                "word": "action"
              },
              {
                "endTime": "1.800s",
                "startTime": "1.400s",
                "word": "right"
              },
              {
                "endTime": "2.100s",
                "startTime": "1.800s",
                "word": "thing"
              },
              {
                "endTime": "2.100s",
                "startTime": "2.100s",
                "word": "you"
              },
              {
                "endTime": "2.400s",
                "startTime": "2.100s",
                "word": "see"
              },
              {
                "endTime": "2.500s",
                "startTime": "2.400s",
                "word": "the"
              },
              {
                "endTime": "3.100s",
                "startTime": "2.500s",
                "word": "water"
              },
              {
                "endTime": "3.600s",
                "startTime": "3.100s",
                "word": "from"
              },
              {
                "endTime": "3.700s",
                "startTime": "3.600s",
                "word": "the"
              },
              {
                "endTime": "4.200s",
                "startTime": "3.700s",
                "word": "Saints"
              },
              {
                "endTime": "4.900s",
                "startTime": "4.200s",
                "word": "overflowing"
              },
              {
                "endTime": "5s",
                "startTime": "4.900s",
                "word": "a"
              },
              {
                "endTime": "5.400s",
                "startTime": "5s",
                "word": "ladies"
              },
              {
                "endTime": "5.700s",
                "startTime": "5.400s",
                "word": "washing"
              },
              {
                "endTime": "6.200s",
                "startTime": "5.700s",
                "word": "dishes"
              },
              {
                "endTime": "8.400s",
                "startTime": "6.200s",
                "word": "boys"
              },
              {
                "endTime": "8.600s",
                "startTime": "8.400s",
                "word": "up"
              },
              {
                "endTime": "8.800s",
                "startTime": "8.600s",
                "word": "on"
              },
              {
                "endTime": "8.900s",
                "startTime": "8.800s",
                "word": "the"
              },
              {
                "endTime": "9.200s",
                "startTime": "8.900s",
                "word": "stool"
              },
              {
                "endTime": "10.300s",
                "startTime": "9.200s",
                "word": "schools"
              },
              {
                "endTime": "11.200s",
                "startTime": "10.300s",
                "word": "a"
              },
              {
                "endTime": "12s",
                "startTime": "11.200s",
                "word": "falling"
              },
              {
                "endTime": "12.400s",
                "startTime": "12s",
                "word": "piece"
              },
              {
                "endTime": "12.600s",
                "startTime": "12.400s",
                "word": "of"
              },
              {
                "endTime": "13.200s",
                "startTime": "12.600s",
                "word": "getting"
              },
              {
                "endTime": "13.400s",
                "startTime": "13.200s",
                "word": "out"
              },
              {
                "endTime": "13.500s",
                "startTime": "13.400s",
                "word": "of"
              },
              {
                "endTime": "14.300s",
                "startTime": "13.500s",
                "word": "cookies"
              },
              {
                "endTime": "14.400s",
                "startTime": "14.300s",
                "word": "out"
              },
              {
                "endTime": "14.500s",
                "startTime": "14.400s",
                "word": "of"
              },
              {
                "endTime": "15s",
                "startTime": "14.500s",
                "word": "cooking"
              },
              {
                "endTime": "15.800s",
                "startTime": "15s",
                "word": "try"
              },
              {
                "endTime": "16s",
                "startTime": "15.800s",
                "word": "the"
              },
              {
                "endTime": "16.400s",
                "startTime": "16s",
                "word": "girls"
              },
              {
                "endTime": "16.700s",
                "startTime": "16.400s",
                "word": "reaching"
              },
              {
                "endTime": "17s",
                "startTime": "16.700s",
                "word": "up"
              },
              {
                "endTime": "17.100s",
                "startTime": "17s",
                "word": "for"
              },
              {
                "endTime": "17.300s",
                "startTime": "17.100s",
                "word": "the"
              },
              {
                "endTime": "17.800s",
                "startTime": "17.300s",
                "word": "cookies"
              }
            ]
          }
        ]
      },
      {
        "alternatives": [
          {
            "confidence": 0.84852904,
            "transcript": " when does open",
            "words": [
              {
                "endTime": "22.100s",
                "startTime": "21.600s",
                "word": "when"
              },
              {
                "endTime": "22.300s",
                "startTime": "22.100s",
                "word": "does"
              },
              {
                "endTime": "22.700s",
                "startTime": "22.300s",
                "word": "open"
              }
            ]
          }
        ]
      },
      {
        "alternatives": [
          {
            "confidence": 0.7079808,
            "transcript": " the doors open for the cabin that's about it",
            "words": [
              {
                "endTime": "24.900s",
                "startTime": "24.500s",
                "word": "the"
              },
              {
                "endTime": "25.200s",
                "startTime": "24.900s",
                "word": "doors"
              },
              {
                "endTime": "25.600s",
                "startTime": "25.200s",
                "word": "open"
              },
              {
                "endTime": "25.700s",
                "startTime": "25.600s",
                "word": "for"
              },
              {
                "endTime": "25.700s",
                "startTime": "25.700s",
                "word": "the"
              },
              {
                "endTime": "26.300s",
                "startTime": "25.700s",
                "word": "cabin"
              },
              {
                "endTime": "26.700s",
                "startTime": "26.300s",
                "word": "that's"
              },
              {
                "endTime": "27.100s",
                "startTime": "26.700s",
                "word": "about"
              },
              {
                "endTime": "27.300s",
                "startTime": "27.100s",
                "word": "it"
              }
            ]
          }
        ]
      }
    ]
  }
}
