{
  "metadata": {
    "@type": "type.googleapis.com/google.cloud.speech.v1.LongRunningRecognizeMetadata",
    "lastUpdateTime": "2021-03-11T20:30:55.211718Z",
    "startTime": "2021-03-11T20:30:54.528014Z",
    "uri": "gs://adresso/ADReSSo21-progression-test/progression/test-dist/audio/train/decline/adrsp318.wav"
  },
  "name": "8096138749913873650"
}
