{
  "done": true,
  "metadata": {
    "@type": "type.googleapis.com/google.cloud.speech.v1.LongRunningRecognizeMetadata",
    "lastUpdateTime": "2021-03-11T20:31:01.674005Z",
    "progressPercent": 100,
    "startTime": "2021-03-11T20:30:42.087911Z",
    "uri": "gs://adresso/ADReSSo21-progression-test/progression/test-dist/audio/train/decline/adrsp055.wav"
  },
  "name": "126325437058516946",
  "response": {
    "@type": "type.googleapis.com/google.cloud.speech.v1.LongRunningRecognizeResponse",
    "results": [
      {
        "alternatives": [
          {
            "confidence": 0.96528447,
            "transcript": "hey",
            "words": [
              {
                "endTime": "1.600s",
                "startTime": "0.900s",
                "word": "hey"
              }
            ]
          }
        ]
      },
      {
        "alternatives": [
          {
            "confidence": 0.49066603,
            "transcript": " ear",
            "words": [
              {
                "endTime": "5.400s",
                "startTime": "4.800s",
                "word": "ear"
              }
            ]
          }
        ]
      },
      {
        "alternatives": [
          {
            "confidence": 0.4425286,
            "transcript": " nettle",
            "words": [
              {
                "endTime": "15.800s",
                "startTime": "15.100s",
                "word": "nettle"
              }
            ]
          }
        ]
      },
      {
        "alternatives": [
          {
            "confidence": 0.8806517,
            "transcript": " a lion tiger",
            "words": [
              {
                "endTime": "22.200s",
                "startTime": "21.900s",
                "word": "a"
              },
              {
                "endTime": "22.800s",
                "startTime": "22.200s",
                "word": "lion"
              },
              {
                "endTime": "23.400s",
                "startTime": "22.800s",
                "word": "tiger"
              }
            ]
          }
        ]
      },
      {
        "alternatives": [
          {
            "confidence": 0.6801505,
            "transcript": " can I get a horse",
            "words": [
              {
                "endTime": "35.400s",
                "startTime": "35s",
                "word": "can"
              },
              {
                "endTime": "35.400s",
                "startTime": "35.400s",
                "word": "I"
              },
              {
                "endTime": "35.700s",
                "startTime": "35.400s",
                "word": "get"
              },
              {
                "endTime": "35.800s",
                "startTime": "35.700s",
                "word": "a"
              },
              {
                "endTime": "36.100s",
                "startTime": "35.800s",
                "word": "horse"
              }
            ]
          }
        ]
      },
      {
        "alternatives": [
          {
            "confidence": 0.55449104,
            "transcript": " mule",
            "words": [
              {
                "endTime": "38.900s",
                "startTime": "38.300s",
                "word": "mule"
              }
            ]
          }
        ]
      },
      {
        "alternatives": [
          {
            "confidence": 0.80031186,
            "transcript": " Ryan",
            "words": [
              {
                "endTime": "46.600s",
                "startTime": "45.900s",
                "word": "Ryan"
              }
            ]
          }
        ]
      },
      {
        "alternatives": [
          {
            "confidence": 0.70258266,
            "transcript": " I just did he do that tired",
            "words": [
              {
                "endTime": "49.100s",
                "startTime": "48.800s",
                "word": "I"
              },
              {
                "endTime": "49.400s",
                "startTime": "49.100s",
                "word": "just"
              },
              {
                "endTime": "49.700s",
                "startTime": "49.400s",
                "word": "did"
              },
              {
                "endTime": "49.800s",
                "startTime": "49.700s",
                "word": "he"
              },
              {
                "endTime": "49.900s",
                "startTime": "49.800s",
                "word": "do"
              },
              {
                "endTime": "50s",
                "startTime": "49.900s",
                "word": "that"
              },
              {
                "endTime": "50.700s",
                "startTime": "50s",
                "word": "tired"
              }
            ]
          }
        ]
      },
      {
        "alternatives": [
          {
            "confidence": 0.8581063,
            "transcript": " I haven't seen too many animals lately",
            "words": [
              {
                "endTime": "56.400s",
                "startTime": "56.100s",
                "word": "I"
              },
              {
                "endTime": "56.800s",
                "startTime": "56.400s",
                "word": "haven't"
              },
              {
                "endTime": "57.100s",
                "startTime": "56.800s",
                "word": "seen"
              },
              {
                "endTime": "57.200s",
                "startTime": "57.100s",
                "word": "too"
              },
              {
                "endTime": "57.400s",
                "startTime": "57.200s",
                "word": "many"
              },
              {
                "endTime": "58s",
                "startTime": "57.400s",
                "word": "animals"
              },
              {
                "endTime": "58.500s",
                "startTime": "58s",
                "word": "lately"
              }
            ]
          }
        ]
      },
      {
        "alternatives": [
          {
            "confidence": 0.8601942,
            "transcript": " their tanks",
            "words": [
              {
                "endTime": "63.900s",
                "startTime": "63.300s",
                "word": "their"
              },
              {
                "endTime": "65.700s",
                "startTime": "63.900s",
                "word": "tanks"
              }
            ]
          }
        ]
      },
      {
        "alternatives": [
          {
            "confidence": 0.7841136,
            "transcript": " send",
            "words": [
              {
                "endTime": "70.100s",
                "startTime": "69.400s",
                "word": "send"
              }
            ]
          }
        ]
      },
      {
        "alternatives": [
          {
            "confidence": 0.90109324,
            "transcript": " Annie",
            "words": [
              {
                "endTime": "72.700s",
                "startTime": "72.100s",
                "word": "Annie"
              }
            ]
          }
        ]
      },
      {
        "alternatives": [
          {
            "confidence": 0.6523496,
            "transcript": " best you",
            "words": [
              {
                "endTime": "74.900s",
                "startTime": "74.100s",
                "word": "best"
              },
              {
                "endTime": "76.300s",
                "startTime": "74.900s",
                "word": "you"
              }
            ]
          }
        ]
      },
      {
        "alternatives": [
          {
            "confidence": 0.7405736,
            "transcript": " funny you know that when you can think it",
            "words": [
              {
                "endTime": "81.500s",
                "startTime": "80.800s",
                "word": "funny"
              },
              {
                "endTime": "81.600s",
                "startTime": "81.500s",
                "word": "you"
              },
              {
                "endTime": "81.800s",
                "startTime": "81.600s",
                "word": "know"
              },
              {
                "endTime": "82s",
                "startTime": "81.800s",
                "word": "that"
              },
              {
                "endTime": "82.100s",
                "startTime": "82s",
                "word": "when"
              },
              {
                "endTime": "82.200s",
                "startTime": "82.100s",
                "word": "you"
              },
              {
                "endTime": "82.500s",
                "startTime": "82.200s",
                "word": "can"
              },
              {
                "endTime": "82.800s",
                "startTime": "82.500s",
                "word": "think"
              },
              {
                "endTime": "82.900s",
                "startTime": "82.800s",
                "word": "it"
              }
            ]
          }
        ]
      },
      {
        "alternatives": [
          {
            "confidence": 0.89047366,
            "transcript": " fancy",
            "words": [
              {
                "endTime": "95.400s",
                "startTime": "94.500s",
                "word": "fancy"
              }
            ]
          }
        ]
      },
      {
        "alternatives": [
          {
            "confidence": 0.9703928,
            "transcript": " free",
            "words": [
              {
                "endTime": "97.100s",
                "startTime": "96.700s",
                "word": "free"
              }
            ]
          }
        ]
      },
      {
        "alternatives": [
          {
            "confidence": 0.38920894,
            "transcript": " they say far",
            "words": [
              {
                "endTime": "108.600s",
                "startTime": "108.100s",
                "word": "they"
              },
              {
                "endTime": "108.700s",
                "startTime": "108.600s",
                "word": "say"
              },
              {
                "endTime": "109.200s",
                "startTime": "108.700s",
                "word": "far"
              }
            ]
          }
        ]
      }
    ]
  }
}
