{
  "done": true,
  "metadata": {
    "@type": "type.googleapis.com/google.cloud.speech.v1.LongRunningRecognizeMetadata",
    "lastUpdateTime": "2021-03-11T20:31:28.260052Z",
    "progressPercent": 100,
    "startTime": "2021-03-11T20:30:46.246448Z",
    "uri": "gs://adresso/ADReSSo21-progression-test/progression/test-dist/audio/train/decline/adrsp179.wav"
  },
  "name": "8774162417252336814",
  "response": {
    "@type": "type.googleapis.com/google.cloud.speech.v1.LongRunningRecognizeResponse",
    "results": [
      {
        "alternatives": [
          {
            "confidence": 0.9674682,
            "transcript": "I want you to try and tell me all the animals",
            "words": [
              {
                "endTime": "3.200s",
                "startTime": "2.800s",
                "word": "I"
              },
              {
                "endTime": "3.400s",
                "startTime": "3.200s",
                "word": "want"
              },
              {
                "endTime": "3.600s",
                "startTime": "3.400s",
                "word": "you"
              },
              {
                "endTime": "3.700s",
                "startTime": "3.600s",
                "word": "to"
              },
              {
                "endTime": "4.100s",
                "startTime": "3.700s",
                "word": "try"
              },
              {
                "endTime": "4.600s",
                "startTime": "4.100s",
                "word": "and"
              },
              {
                "endTime": "4.900s",
                "startTime": "4.600s",
                "word": "tell"
              },
              {
                "endTime": "5.200s",
                "startTime": "4.900s",
                "word": "me"
              },
              {
                "endTime": "5.900s",
                "startTime": "5.200s",
                "word": "all"
              },
              {
                "endTime": "6.100s",
                "startTime": "5.900s",
                "word": "the"
              },
              {
                "endTime": "6.300s",
                "startTime": "6.100s",
                "word": "animals"
              }
            ]
          }
        ]
      },
      {
        "alternatives": [
          {
            "confidence": 0.75534034,
            "transcript": " I don't want any food.",
            "words": [
              {
                "endTime": "17.900s",
                "startTime": "17.500s",
                "word": "I"
              },
              {
                "endTime": "18.200s",
                "startTime": "17.900s",
                "word": "don't"
              },
              {
                "endTime": "18.500s",
                "startTime": "18.200s",
                "word": "want"
              },
              {
                "endTime": "19s",
                "startTime": "18.500s",
                "word": "any"
              },
              {
                "endTime": "30.800s",
                "startTime": "19s",
                "word": "food."
              }
            ]
          }
        ]
      },
      {
        "alternatives": [
          {
            "confidence": 0.72316283,
            "transcript": " how many innocent",
            "words": [
              {
                "endTime": "34.500s",
                "startTime": "34.100s",
                "word": "how"
              },
              {
                "endTime": "34.700s",
                "startTime": "34.500s",
                "word": "many"
              },
              {
                "endTime": "35s",
                "startTime": "34.700s",
                "word": "innocent"
              }
            ]
          }
        ]
      },
      {
        "alternatives": [
          {
            "confidence": 0.6219718,
            "transcript": " giraffe",
            "words": [
              {
                "endTime": "39.700s",
                "startTime": "38s",
                "word": "giraffe"
              }
            ]
          }
        ]
      },
      {
        "alternatives": [
          {
            "confidence": 0.71922094,
            "transcript": " hippos",
            "words": [
              {
                "endTime": "41.500s",
                "startTime": "40.700s",
                "word": "hippos"
              }
            ]
          }
        ]
      },
      {
        "alternatives": [
          {
            "confidence": 0.48796982,
            "transcript": " sheep",
            "words": [
              {
                "endTime": "50.100s",
                "startTime": "47.400s",
                "word": "sheep"
              }
            ]
          }
        ]
      },
      {
        "alternatives": [
          {
            "confidence": 0.68881917,
            "transcript": " and bird",
            "words": [
              {
                "endTime": "67.500s",
                "startTime": "66.600s",
                "word": "and"
              },
              {
                "endTime": "68.300s",
                "startTime": "67.500s",
                "word": "bird"
              }
            ]
          }
        ]
      },
      {
        "alternatives": [
          {
            "confidence": 0.8984717,
            "transcript": " snakes alligators",
            "words": [
              {
                "endTime": "77.700s",
                "startTime": "77s",
                "word": "snakes"
              },
              {
                "endTime": "78.500s",
                "startTime": "77.700s",
                "word": "alligators"
              }
            ]
          }
        ]
      },
      {
        "alternatives": [
          {
            "confidence": 0.806433,
            "transcript": " this number one",
            "words": [
              {
                "endTime": "95.900s",
                "startTime": "95.500s",
                "word": "this"
              },
              {
                "endTime": "96.200s",
                "startTime": "95.900s",
                "word": "number"
              },
              {
                "endTime": "96.500s",
                "startTime": "96.200s",
                "word": "one"
              }
            ]
          }
        ]
      },
      {
        "alternatives": [
          {
            "confidence": 0.9234779,
            "transcript": " what if I don't want you to give me the names of any people or places nothing that we have a capital letter Longwood and then give me every form of that word that you can think of so if you gave me the word run I wouldn't want it to stay running",
            "words": [
              {
                "endTime": "105s",
                "startTime": "103.900s",
                "word": "what"
              },
              {
                "endTime": "105.400s",
                "startTime": "105s",
                "word": "if"
              },
              {
                "endTime": "111.600s",
                "startTime": "105.400s",
                "word": "I"
              },
              {
                "endTime": "111.600s",
                "startTime": "111.600s",
                "word": "don't"
              },
              {
                "endTime": "112.100s",
                "startTime": "111.600s",
                "word": "want"
              },
              {
                "endTime": "112.200s",
                "startTime": "112.100s",
                "word": "you"
              },
              {
                "endTime": "112.800s",
                "startTime": "112.200s",
                "word": "to"
              },
              {
                "endTime": "113s",
                "startTime": "112.800s",
                "word": "give"
              },
              {
                "endTime": "113.200s",
                "startTime": "113s",
                "word": "me"
              },
              {
                "endTime": "113.300s",
                "startTime": "113.200s",
                "word": "the"
              },
              {
                "endTime": "113.900s",
                "startTime": "113.300s",
                "word": "names"
              },
              {
                "endTime": "114s",
                "startTime": "113.900s",
                "word": "of"
              },
              {
                "endTime": "114.300s",
                "startTime": "114s",
                "word": "any"
              },
              {
                "endTime": "114.900s",
                "startTime": "114.300s",
                "word": "people"
              },
              {
                "endTime": "115s",
                "startTime": "114.900s",
                "word": "or"
              },
              {
                "endTime": "115.200s",
                "startTime": "115s",
                "word": "places"
              },
              {
                "endTime": "118s",
                "startTime": "115.200s",
                "word": "nothing"
              },
              {
                "endTime": "118.200s",
                "startTime": "118s",
                "word": "that"
              },
              {
                "endTime": "118.300s",
                "startTime": "118.200s",
                "word": "we"
              },
              {
                "endTime": "118.400s",
                "startTime": "118.300s",
                "word": "have"
              },
              {
                "endTime": "118.500s",
                "startTime": "118.400s",
                "word": "a"
              },
              {
                "endTime": "118.900s",
                "startTime": "118.500s",
                "word": "capital"
              },
              {
                "endTime": "119.200s",
                "startTime": "118.900s",
                "word": "letter"
              },
              {
                "endTime": "128.700s",
                "startTime": "119.200s",
                "word": "Longwood"
              },
              {
                "endTime": "129.200s",
                "startTime": "128.700s",
                "word": "and"
              },
              {
                "endTime": "129.600s",
                "startTime": "129.200s",
                "word": "then"
              },
              {
                "endTime": "129.900s",
                "startTime": "129.600s",
                "word": "give"
              },
              {
                "endTime": "130s",
                "startTime": "129.900s",
                "word": "me"
              },
              {
                "endTime": "130.600s",
                "startTime": "130s",
                "word": "every"
              },
              {
                "endTime": "131.100s",
                "startTime": "130.600s",
                "word": "form"
              },
              {
                "endTime": "131.100s",
                "startTime": "131.100s",
                "word": "of"
              },
              {
                "endTime": "131.400s",
                "startTime": "131.100s",
                "word": "that"
              },
              {
                "endTime": "131.700s",
                "startTime": "131.400s",
                "word": "word"
              },
              {
                "endTime": "131.800s",
                "startTime": "131.700s",
                "word": "that"
              },
              {
                "endTime": "131.900s",
                "startTime": "131.800s",
                "word": "you"
              },
              {
                "endTime": "132s",
                "startTime": "131.900s",
                "word": "can"
              },
              {
                "endTime": "132.300s",
                "startTime": "132s",
                "word": "think"
              },
              {
                "endTime": "132.600s",
                "startTime": "132.300s",
                "word": "of"
              },
              {
                "endTime": "133.400s",
                "startTime": "132.600s",
                "word": "so"
              },
              {
                "endTime": "134.200s",
                "startTime": "133.400s",
                "word": "if"
              },
              {
                "endTime": "134.300s",
                "startTime": "134.200s",
                "word": "you"
              },
              {
                "endTime": "134.500s",
                "startTime": "134.300s",
                "word": "gave"
              },
              {
                "endTime": "134.600s",
                "startTime": "134.500s",
                "word": "me"
              },
              {
                "endTime": "134.700s",
                "startTime": "134.600s",
                "word": "the"
              },
              {
                "endTime": "135.200s",
                "startTime": "134.700s",
                "word": "word"
              },
              {
                "endTime": "136s",
                "startTime": "135.200s",
                "word": "run"
              },
              {
                "endTime": "136.700s",
                "startTime": "136s",
                "word": "I"
              },
              {
                "endTime": "137.100s",
                "startTime": "136.700s",
                "word": "wouldn't"
              },
              {
                "endTime": "137.300s",
                "startTime": "137.100s",
                "word": "want"
              },
              {
                "endTime": "137.400s",
                "startTime": "137.300s",
                "word": "it"
              },
              {
                "endTime": "137.400s",
                "startTime": "137.400s",
                "word": "to"
              },
              {
                "endTime": "137.700s",
                "startTime": "137.400s",
                "word": "stay"
              },
              {
                "endTime": "140s",
                "startTime": "137.700s",
                "word": "running"
              }
            ]
          }
        ]
      },
      {
        "alternatives": [
          {
            "confidence": 0.94845676,
            "transcript": " words that begin with the letter A",
            "words": [
              {
                "endTime": "147s",
                "startTime": "145.600s",
                "word": "words"
              },
              {
                "endTime": "147s",
                "startTime": "147s",
                "word": "that"
              },
              {
                "endTime": "147.200s",
                "startTime": "147s",
                "word": "begin"
              },
              {
                "endTime": "147.700s",
                "startTime": "147.200s",
                "word": "with"
              },
              {
                "endTime": "147.900s",
                "startTime": "147.700s",
                "word": "the"
              },
              {
                "endTime": "148.100s",
                "startTime": "147.900s",
                "word": "letter"
              },
              {
                "endTime": "148.500s",
                "startTime": "148.100s",
                "word": "A"
              }
            ]
          }
        ]
      },
      {
        "alternatives": [
          {
            "confidence": 0.9491064,
            "transcript": " and as many of them as you can think of",
            "words": [
              {
                "endTime": "149.400s",
                "startTime": "149s",
                "word": "and"
              },
              {
                "endTime": "149.500s",
                "startTime": "149.400s",
                "word": "as"
              },
              {
                "endTime": "149.700s",
                "startTime": "149.500s",
                "word": "many"
              },
              {
                "endTime": "150s",
                "startTime": "149.700s",
                "word": "of"
              },
              {
                "endTime": "150.100s",
                "startTime": "150s",
                "word": "them"
              },
              {
                "endTime": "150.400s",
                "startTime": "150.100s",
                "word": "as"
              },
              {
                "endTime": "151.100s",
                "startTime": "150.400s",
                "word": "you"
              },
              {
                "endTime": "151.200s",
                "startTime": "151.100s",
                "word": "can"
              },
              {
                "endTime": "151.400s",
                "startTime": "151.200s",
                "word": "think"
              },
              {
                "endTime": "151.700s",
                "startTime": "151.400s",
                "word": "of"
              }
            ]
          }
        ]
      },
      {
        "alternatives": [
          {
            "confidence": 0.7943151,
            "transcript": " like paper you just tell me tell me all the words you can think of",
            "words": [
              {
                "endTime": "157.700s",
                "startTime": "157.200s",
                "word": "like"
              },
              {
                "endTime": "158.100s",
                "startTime": "157.700s",
                "word": "paper"
              },
              {
                "endTime": "159.200s",
                "startTime": "158.100s",
                "word": "you"
              },
              {
                "endTime": "159.500s",
                "startTime": "159.200s",
                "word": "just"
              },
              {
                "endTime": "159.700s",
                "startTime": "159.500s",
                "word": "tell"
              },
              {
                "endTime": "159.900s",
                "startTime": "159.700s",
                "word": "me"
              },
              {
                "endTime": "161.300s",
                "startTime": "159.900s",
                "word": "tell"
              },
              {
                "endTime": "161.400s",
                "startTime": "161.300s",
                "word": "me"
              },
              {
                "endTime": "161.600s",
                "startTime": "161.400s",
                "word": "all"
              },
              {
                "endTime": "161.700s",
                "startTime": "161.600s",
                "word": "the"
              },
              {
                "endTime": "161.900s",
                "startTime": "161.700s",
                "word": "words"
              },
              {
                "endTime": "162.100s",
                "startTime": "161.900s",
                "word": "you"
              },
              {
                "endTime": "162.200s",
                "startTime": "162.100s",
                "word": "can"
              },
              {
                "endTime": "162.300s",
                "startTime": "162.200s",
                "word": "think"
              },
              {
                "endTime": "162.700s",
                "startTime": "162.300s",
                "word": "of"
              }
            ]
          }
        ]
      },
      {
        "alternatives": [
          {
            "confidence": 0.88969886,
            "transcript": " brain",
            "words": [
              {
                "endTime": "170.400s",
                "startTime": "169.800s",
                "word": "brain"
              }
            ]
          }
        ]
      },
      {
        "alternatives": [
          {
            "confidence": 0.7889896,
            "transcript": " Forge",
            "words": [
              {
                "endTime": "173.600s",
                "startTime": "172.900s",
                "word": "Forge"
              }
            ]
          }
        ]
      },
      {
        "alternatives": [
          {
            "confidence": 0.5126875,
            "transcript": " friend",
            "words": [
              {
                "endTime": "199.700s",
                "startTime": "198.900s",
                "word": "friend"
              }
            ]
          }
        ]
      },
      {
        "alternatives": [
          {
            "confidence": 0.78882986,
            "transcript": " free",
            "words": [
              {
                "endTime": "214s",
                "startTime": "213.500s",
                "word": "free"
              }
            ]
          }
        ]
      },
      {
        "alternatives": [
          {
            "confidence": 0.5749547,
            "transcript": " what's up",
            "words": [
              {
                "endTime": "218s",
                "startTime": "217s",
                "word": "what's"
              },
              {
                "endTime": "218.100s",
                "startTime": "218s",
                "word": "up"
              }
            ]
          }
        ]
      }
    ]
  }
}
