{
  "done": true,
  "metadata": {
    "@type": "type.googleapis.com/google.cloud.speech.v1.LongRunningRecognizeMetadata",
    "lastUpdateTime": "2021-03-10T10:04:51.421388Z",
    "progressPercent": 100,
    "startTime": "2021-03-10T10:04:30.293940Z",
    "uri": "gs://adresso/ADReSSo21-diagnosis-train/diagnosis/train/audio/ad/adrso197.wav"
  },
  "name": "3999023695252906405",
  "response": {
    "@type": "type.googleapis.com/google.cloud.speech.v1.LongRunningRecognizeResponse",
    "results": [
      {
        "alternatives": [
          {
            "confidence": 0.6159695,
            "transcript": "what is getting her wand",
            "words": [
              {
                "endTime": "9.600s",
                "startTime": "9.200s",
                "word": "what"
              },
              {
                "endTime": "9.800s",
                "startTime": "9.600s",
                "word": "is"
              },
              {
                "endTime": "10.200s",
                "startTime": "9.800s",
                "word": "getting"
              },
              {
                "endTime": "10.400s",
                "startTime": "10.200s",
                "word": "her"
              },
              {
                "endTime": "11s",
                "startTime": "10.400s",
                "word": "wand"
              }
            ]
          }
        ]
      },
      {
        "alternatives": [
          {
            "confidence": 0.66728216,
            "transcript": " school is going well.",
            "words": [
              {
                "endTime": "12.700s",
                "startTime": "12.100s",
                "word": "school"
              },
              {
                "endTime": "12.800s",
                "startTime": "12.700s",
                "word": "is"
              },
              {
                "endTime": "13s",
                "startTime": "12.800s",
                "word": "going"
              },
              {
                "endTime": "16.800s",
                "startTime": "13s",
                "word": "well."
              }
            ]
          }
        ]
      },
      {
        "alternatives": [
          {
            "confidence": 0.8272064,
            "transcript": " look alive",
            "words": [
              {
                "endTime": "62.400s",
                "startTime": "61.900s",
                "word": "look"
              },
              {
                "endTime": "62.900s",
                "startTime": "62.400s",
                "word": "alive"
              }
            ]
          }
        ]
      }
    ]
  }
}
