{
  "done": true,
  "metadata": {
    "@type": "type.googleapis.com/google.cloud.speech.v1.LongRunningRecognizeMetadata",
    "lastUpdateTime": "2021-03-10T10:03:21.797861Z",
    "progressPercent": 100,
    "startTime": "2021-03-10T10:03:07.729535Z",
    "uri": "gs://adresso/ADReSSo21-diagnosis-train/diagnosis/train/audio/ad/adrso031.wav"
  },
  "name": "697955041232772742",
  "response": {
    "@type": "type.googleapis.com/google.cloud.speech.v1.LongRunningRecognizeResponse",
    "results": [
      {
        "alternatives": [
          {
            "confidence": 0.8944915,
            "transcript": "what do you see going on",
            "words": [
              {
                "endTime": "0.400s",
                "startTime": "0s",
                "word": "what"
              },
              {
                "endTime": "0.500s",
                "startTime": "0.400s",
                "word": "do"
              },
              {
                "endTime": "0.500s",
                "startTime": "0.500s",
                "word": "you"
              },
              {
                "endTime": "0.700s",
                "startTime": "0.500s",
                "word": "see"
              },
              {
                "endTime": "1s",
                "startTime": "0.700s",
                "word": "going"
              },
              {
                "endTime": "1.300s",
                "startTime": "1s",
                "word": "on"
              }
            ]
          }
        ]
      },
      {
        "alternatives": [
          {
            "confidence": 0.8677532,
            "transcript": " from what I can see he's going to upset the cookies",
            "words": [
              {
                "endTime": "13s",
                "startTime": "12.600s",
                "word": "from"
              },
              {
                "endTime": "13.400s",
                "startTime": "13s",
                "word": "what"
              },
              {
                "endTime": "13.500s",
                "startTime": "13.400s",
                "word": "I"
              },
              {
                "endTime": "13.700s",
                "startTime": "13.500s",
                "word": "can"
              },
              {
                "endTime": "13.900s",
                "startTime": "13.700s",
                "word": "see"
              },
              {
                "endTime": "14.400s",
                "startTime": "13.900s",
                "word": "he's"
              },
              {
                "endTime": "14.600s",
                "startTime": "14.400s",
                "word": "going"
              },
              {
                "endTime": "14.700s",
                "startTime": "14.600s",
                "word": "to"
              },
              {
                "endTime": "15s",
                "startTime": "14.700s",
                "word": "upset"
              },
              {
                "endTime": "15.200s",
                "startTime": "15s",
                "word": "the"
              },
              {
                "endTime": "15.700s",
                "startTime": "15.200s",
                "word": "cookies"
              }
            ]
          }
        ]
      },
      {
        "alternatives": [
          {
            "confidence": 0.9818645,
            "transcript": " anything else going on",
            "words": [
              {
                "endTime": "41.800s",
                "startTime": "41.200s",
                "word": "anything"
              },
              {
                "endTime": "42s",
                "startTime": "41.800s",
                "word": "else"
              },
              {
                "endTime": "42.300s",
                "startTime": "42s",
                "word": "going"
              },
              {
                "endTime": "42.400s",
                "startTime": "42.300s",
                "word": "on"
              }
            ]
          }
        ]
      },
      {
        "alternatives": [
          {
            "confidence": 0.59470755,
            "transcript": " okay",
            "words": [
              {
                "endTime": "50.500s",
                "startTime": "49.700s",
                "word": "okay"
              }
            ]
          }
        ]
      },
      {
        "alternatives": [
          {
            "confidence": 0.94631845,
            "transcript": " there's probably some more wrong with that",
            "words": [
              {
                "endTime": "52.700s",
                "startTime": "52.300s",
                "word": "there's"
              },
              {
                "endTime": "52.800s",
                "startTime": "52.700s",
                "word": "probably"
              },
              {
                "endTime": "53.300s",
                "startTime": "52.800s",
                "word": "some"
              },
              {
                "endTime": "53.500s",
                "startTime": "53.300s",
                "word": "more"
              },
              {
                "endTime": "53.900s",
                "startTime": "53.500s",
                "word": "wrong"
              },
              {
                "endTime": "54.100s",
                "startTime": "53.900s",
                "word": "with"
              },
              {
                "endTime": "54.400s",
                "startTime": "54.100s",
                "word": "that"
              }
            ]
          }
        ]
      },
      {
        "alternatives": [
          {
            "confidence": 0.9500798,
            "transcript": " can you see anything else",
            "words": [
              {
                "endTime": "63.800s",
                "startTime": "63.500s",
                "word": "can"
              },
              {
                "endTime": "63.900s",
                "startTime": "63.800s",
                "word": "you"
              },
              {
                "endTime": "64s",
                "startTime": "63.900s",
                "word": "see"
              },
              {
                "endTime": "64.100s",
                "startTime": "64s",
                "word": "anything"
              },
              {
                "endTime": "64.400s",
                "startTime": "64.100s",
                "word": "else"
              }
            ]
          }
        ]
      },
      {
        "alternatives": [
          {
            "confidence": 0.85442084,
            "transcript": " trying to figure out what this is",
            "words": [
              {
                "endTime": "70.300s",
                "startTime": "69.800s",
                "word": "trying"
              },
              {
                "endTime": "70.300s",
                "startTime": "70.300s",
                "word": "to"
              },
              {
                "endTime": "70.500s",
                "startTime": "70.300s",
                "word": "figure"
              },
              {
                "endTime": "70.800s",
                "startTime": "70.500s",
                "word": "out"
              },
              {
                "endTime": "71s",
                "startTime": "70.800s",
                "word": "what"
              },
              {
                "endTime": "71.200s",
                "startTime": "71s",
                "word": "this"
              },
              {
                "endTime": "71.500s",
                "startTime": "71.200s",
                "word": "is"
              }
            ]
          }
        ]
      },
      {
        "alternatives": [
          {
            "confidence": 0.8795425,
            "transcript": " okay well that's fine spine",
            "words": [
              {
                "endTime": "78.800s",
                "startTime": "78.400s",
                "word": "okay"
              },
              {
                "endTime": "78.900s",
                "startTime": "78.800s",
                "word": "well"
              },
              {
                "endTime": "79s",
                "startTime": "78.900s",
                "word": "that's"
              },
              {
                "endTime": "79.800s",
                "startTime": "79s",
                "word": "fine"
              },
              {
                "endTime": "80.200s",
                "startTime": "79.800s",
                "word": "spine"
              }
            ]
          }
        ]
      }
    ]
  }
}
