{
  "done": true,
  "metadata": {
    "@type": "type.googleapis.com/google.cloud.speech.v1.LongRunningRecognizeMetadata",
    "lastUpdateTime": "2021-03-10T10:04:01.741877Z",
    "progressPercent": 100,
    "startTime": "2021-03-10T10:03:51.271772Z",
    "uri": "gs://adresso/ADReSSo21-diagnosis-train/diagnosis/train/audio/ad/adrso089.wav"
  },
  "name": "8396586752080547571",
  "response": {
    "@type": "type.googleapis.com/google.cloud.speech.v1.LongRunningRecognizeResponse",
    "results": [
      {
        "alternatives": [
          {
            "confidence": 0.92203736,
            "transcript": "are there standing on the cookies and the little girl is going to take and 1/2 or he's going to tell his mother in the mother is working over there and doing all that very over there and the kids should be doing that dishes and that's dirty to have it on the floor when they're stealing and he's going to fall down and break them down on his back and I don't think",
            "words": [
              {
                "endTime": "2.400s",
                "startTime": "2s",
                "word": "are"
              },
              {
                "endTime": "2.600s",
                "startTime": "2.400s",
                "word": "there"
              },
              {
                "endTime": "3.300s",
                "startTime": "2.600s",
                "word": "standing"
              },
              {
                "endTime": "3.600s",
                "startTime": "3.300s",
                "word": "on"
              },
              {
                "endTime": "4.100s",
                "startTime": "3.600s",
                "word": "the"
              },
              {
                "endTime": "4.700s",
                "startTime": "4.100s",
                "word": "cookies"
              },
              {
                "endTime": "5.800s",
                "startTime": "4.700s",
                "word": "and"
              },
              {
                "endTime": "5.900s",
                "startTime": "5.800s",
                "word": "the"
              },
              {
                "endTime": "6.300s",
                "startTime": "5.900s",
                "word": "little"
              },
              {
                "endTime": "6.500s",
                "startTime": "6.300s",
                "word": "girl"
              },
              {
                "endTime": "6.800s",
                "startTime": "6.500s",
                "word": "is"
              },
              {
                "endTime": "6.900s",
                "startTime": "6.800s",
                "word": "going"
              },
              {
                "endTime": "7s",
                "startTime": "6.900s",
                "word": "to"
              },
              {
                "endTime": "8.600s",
                "startTime": "7s",
                "word": "take"
              },
              {
                "endTime": "8.800s",
                "startTime": "8.600s",
                "word": "and"
              },
              {
                "endTime": "9.300s",
                "startTime": "8.800s",
                "word": "1/2"
              },
              {
                "endTime": "9.300s",
                "startTime": "9.300s",
                "word": "or"
              },
              {
                "endTime": "9.600s",
                "startTime": "9.300s",
                "word": "he's"
              },
              {
                "endTime": "9.800s",
                "startTime": "9.600s",
                "word": "going"
              },
              {
                "endTime": "9.800s",
                "startTime": "9.800s",
                "word": "to"
              },
              {
                "endTime": "10.100s",
                "startTime": "9.800s",
                "word": "tell"
              },
              {
                "endTime": "10.400s",
                "startTime": "10.100s",
                "word": "his"
              },
              {
                "endTime": "10.500s",
                "startTime": "10.400s",
                "word": "mother"
              },
              {
                "endTime": "11.700s",
                "startTime": "10.500s",
                "word": "in"
              },
              {
                "endTime": "11.700s",
                "startTime": "11.700s",
                "word": "the"
              },
              {
                "endTime": "12.100s",
                "startTime": "11.700s",
                "word": "mother"
              },
              {
                "endTime": "12.400s",
                "startTime": "12.100s",
                "word": "is"
              },
              {
                "endTime": "12.700s",
                "startTime": "12.400s",
                "word": "working"
              },
              {
                "endTime": "13s",
                "startTime": "12.700s",
                "word": "over"
              },
              {
                "endTime": "13.200s",
                "startTime": "13s",
                "word": "there"
              },
              {
                "endTime": "13.400s",
                "startTime": "13.200s",
                "word": "and"
              },
              {
                "endTime": "13.600s",
                "startTime": "13.400s",
                "word": "doing"
              },
              {
                "endTime": "13.900s",
                "startTime": "13.600s",
                "word": "all"
              },
              {
                "endTime": "14s",
                "startTime": "13.900s",
                "word": "that"
              },
              {
                "endTime": "14.600s",
                "startTime": "14s",
                "word": "very"
              },
              {
                "endTime": "14.900s",
                "startTime": "14.600s",
                "word": "over"
              },
              {
                "endTime": "15.100s",
                "startTime": "14.900s",
                "word": "there"
              },
              {
                "endTime": "15.900s",
                "startTime": "15.100s",
                "word": "and"
              },
              {
                "endTime": "15.900s",
                "startTime": "15.900s",
                "word": "the"
              },
              {
                "endTime": "16.100s",
                "startTime": "15.900s",
                "word": "kids"
              },
              {
                "endTime": "16.500s",
                "startTime": "16.100s",
                "word": "should"
              },
              {
                "endTime": "16.600s",
                "startTime": "16.500s",
                "word": "be"
              },
              {
                "endTime": "17.100s",
                "startTime": "16.600s",
                "word": "doing"
              },
              {
                "endTime": "17.200s",
                "startTime": "17.100s",
                "word": "that"
              },
              {
                "endTime": "17.800s",
                "startTime": "17.200s",
                "word": "dishes"
              },
              {
                "endTime": "19s",
                "startTime": "17.800s",
                "word": "and"
              },
              {
                "endTime": "19.200s",
                "startTime": "19s",
                "word": "that's"
              },
              {
                "endTime": "19.600s",
                "startTime": "19.200s",
                "word": "dirty"
              },
              {
                "endTime": "19.800s",
                "startTime": "19.600s",
                "word": "to"
              },
              {
                "endTime": "20s",
                "startTime": "19.800s",
                "word": "have"
              },
              {
                "endTime": "20.200s",
                "startTime": "20s",
                "word": "it"
              },
              {
                "endTime": "20.400s",
                "startTime": "20.200s",
                "word": "on"
              },
              {
                "endTime": "20.500s",
                "startTime": "20.400s",
                "word": "the"
              },
              {
                "endTime": "20.800s",
                "startTime": "20.500s",
                "word": "floor"
              },
              {
                "endTime": "21s",
                "startTime": "20.800s",
                "word": "when"
              },
              {
                "endTime": "21.300s",
                "startTime": "21s",
                "word": "they're"
              },
              {
                "endTime": "21.700s",
                "startTime": "21.300s",
                "word": "stealing"
              },
              {
                "endTime": "22.100s",
                "startTime": "21.700s",
                "word": "and"
              },
              {
                "endTime": "22.200s",
                "startTime": "22.100s",
                "word": "he's"
              },
              {
                "endTime": "22.400s",
                "startTime": "22.200s",
                "word": "going"
              },
              {
                "endTime": "22.500s",
                "startTime": "22.400s",
                "word": "to"
              },
              {
                "endTime": "22.800s",
                "startTime": "22.500s",
                "word": "fall"
              },
              {
                "endTime": "23s",
                "startTime": "22.800s",
                "word": "down"
              },
              {
                "endTime": "23.300s",
                "startTime": "23s",
                "word": "and"
              },
              {
                "endTime": "23.400s",
                "startTime": "23.300s",
                "word": "break"
              },
              {
                "endTime": "23.700s",
                "startTime": "23.400s",
                "word": "them"
              },
              {
                "endTime": "23.900s",
                "startTime": "23.700s",
                "word": "down"
              },
              {
                "endTime": "24.200s",
                "startTime": "23.900s",
                "word": "on"
              },
              {
                "endTime": "24.400s",
                "startTime": "24.200s",
                "word": "his"
              },
              {
                "endTime": "24.800s",
                "startTime": "24.400s",
                "word": "back"
              },
              {
                "endTime": "27.400s",
                "startTime": "24.800s",
                "word": "and"
              },
              {
                "endTime": "27.500s",
                "startTime": "27.400s",
                "word": "I"
              },
              {
                "endTime": "27.700s",
                "startTime": "27.500s",
                "word": "don't"
              },
              {
                "endTime": "28s",
                "startTime": "27.700s",
                "word": "think"
              }
            ]
          }
        ]
      },
      {
        "alternatives": [
          {
            "confidence": 0.85543746,
            "transcript": " it is mother would be very weird being nice to do that",
            "words": [
              {
                "endTime": "29.800s",
                "startTime": "29.400s",
                "word": "it"
              },
              {
                "endTime": "30s",
                "startTime": "29.800s",
                "word": "is"
              },
              {
                "endTime": "30.300s",
                "startTime": "30s",
                "word": "mother"
              },
              {
                "endTime": "30.700s",
                "startTime": "30.300s",
                "word": "would"
              },
              {
                "endTime": "31.300s",
                "startTime": "30.700s",
                "word": "be"
              },
              {
                "endTime": "31.500s",
                "startTime": "31.300s",
                "word": "very"
              },
              {
                "endTime": "32s",
                "startTime": "31.500s",
                "word": "weird"
              },
              {
                "endTime": "32.800s",
                "startTime": "32s",
                "word": "being"
              },
              {
                "endTime": "33.200s",
                "startTime": "32.800s",
                "word": "nice"
              },
              {
                "endTime": "33.800s",
                "startTime": "33.200s",
                "word": "to"
              },
              {
                "endTime": "34s",
                "startTime": "33.800s",
                "word": "do"
              },
              {
                "endTime": "34.200s",
                "startTime": "34s",
                "word": "that"
              }
            ]
          }
        ]
      },
      {
        "alternatives": [
          {
            "confidence": 0.9206864,
            "transcript": " they would rather have all you want because the water is all over the floor now and look at that get there and get done obeng you're done on your back",
            "words": [
              {
                "endTime": "35.800s",
                "startTime": "35.400s",
                "word": "they"
              },
              {
                "endTime": "36.100s",
                "startTime": "35.800s",
                "word": "would"
              },
              {
                "endTime": "36.200s",
                "startTime": "36.100s",
                "word": "rather"
              },
              {
                "endTime": "36.600s",
                "startTime": "36.200s",
                "word": "have"
              },
              {
                "endTime": "36.900s",
                "startTime": "36.600s",
                "word": "all"
              },
              {
                "endTime": "37.100s",
                "startTime": "36.900s",
                "word": "you"
              },
              {
                "endTime": "37.100s",
                "startTime": "37.100s",
                "word": "want"
              },
              {
                "endTime": "37.700s",
                "startTime": "37.100s",
                "word": "because"
              },
              {
                "endTime": "38.100s",
                "startTime": "37.700s",
                "word": "the"
              },
              {
                "endTime": "38.500s",
                "startTime": "38.100s",
                "word": "water"
              },
              {
                "endTime": "38.600s",
                "startTime": "38.500s",
                "word": "is"
              },
              {
                "endTime": "38.900s",
                "startTime": "38.600s",
                "word": "all"
              },
              {
                "endTime": "39.200s",
                "startTime": "38.900s",
                "word": "over"
              },
              {
                "endTime": "39.300s",
                "startTime": "39.200s",
                "word": "the"
              },
              {
                "endTime": "39.400s",
                "startTime": "39.300s",
                "word": "floor"
              },
              {
                "endTime": "39.800s",
                "startTime": "39.400s",
                "word": "now"
              },
              {
                "endTime": "40s",
                "startTime": "39.800s",
                "word": "and"
              },
              {
                "endTime": "40.300s",
                "startTime": "40s",
                "word": "look"
              },
              {
                "endTime": "40.400s",
                "startTime": "40.300s",
                "word": "at"
              },
              {
                "endTime": "40.700s",
                "startTime": "40.400s",
                "word": "that"
              },
              {
                "endTime": "41.900s",
                "startTime": "40.700s",
                "word": "get"
              },
              {
                "endTime": "42.200s",
                "startTime": "41.900s",
                "word": "there"
              },
              {
                "endTime": "42.400s",
                "startTime": "42.200s",
                "word": "and"
              },
              {
                "endTime": "42.600s",
                "startTime": "42.400s",
                "word": "get"
              },
              {
                "endTime": "43s",
                "startTime": "42.600s",
                "word": "done"
              },
              {
                "endTime": "44.400s",
                "startTime": "43s",
                "word": "obeng"
              },
              {
                "endTime": "44.800s",
                "startTime": "44.400s",
                "word": "you're"
              },
              {
                "endTime": "45.200s",
                "startTime": "44.800s",
                "word": "done"
              },
              {
                "endTime": "45.400s",
                "startTime": "45.200s",
                "word": "on"
              },
              {
                "endTime": "45.500s",
                "startTime": "45.400s",
                "word": "your"
              },
              {
                "endTime": "46.100s",
                "startTime": "45.500s",
                "word": "back"
              }
            ]
          }
        ]
      }
    ]
  }
}
