{
  "done": true,
  "metadata": {
    "@type": "type.googleapis.com/google.cloud.speech.v1.LongRunningRecognizeMetadata",
    "lastUpdateTime": "2021-03-10T10:04:04.842122Z",
    "progressPercent": 100,
    "startTime": "2021-03-10T10:03:52.680269Z",
    "uri": "gs://adresso/ADReSSo21-diagnosis-train/diagnosis/train/audio/ad/adrso090.wav"
  },
  "name": "4915449995407146757",
  "response": {
    "@type": "type.googleapis.com/google.cloud.speech.v1.LongRunningRecognizeResponse",
    "results": [
      {
        "alternatives": [
          {
            "confidence": 0.8846369,
            "transcript": "cookie jar",
            "words": [
              {
                "endTime": "6.400s",
                "startTime": "5.900s",
                "word": "cookie"
              },
              {
                "endTime": "6.600s",
                "startTime": "6.400s",
                "word": "jar"
              }
            ]
          }
        ]
      },
      {
        "alternatives": [
          {
            "confidence": 0.9689354,
            "transcript": "anything else",
            "words": [
              {
                "endTime": "43.700s",
                "startTime": "43.100s",
                "word": "anything"
              },
              {
                "endTime": "43.900s",
                "startTime": "43.700s",
                "word": "else"
              }
            ]
          }
        ]
      },
      {
        "alternatives": [
          {
            "confidence": 0.928747,
            "transcript": " anything else",
            "words": [
              {
                "endTime": "62.800s",
                "startTime": "61.900s",
                "word": "anything"
              },
              {
                "endTime": "63s",
                "startTime": "62.800s",
                "word": "else"
              }
            ]
          }
        ]
      },
      {
        "alternatives": [
          {
            "confidence": 0.8253335,
            "transcript": " he told me you think you're through",
            "words": [
              {
                "endTime": "65.500s",
                "startTime": "65.100s",
                "word": "he"
              },
              {
                "endTime": "65.800s",
                "startTime": "65.500s",
                "word": "told"
              },
              {
                "endTime": "65.800s",
                "startTime": "65.800s",
                "word": "me"
              },
              {
                "endTime": "66s",
                "startTime": "65.800s",
                "word": "you"
              },
              {
                "endTime": "66.100s",
                "startTime": "66s",
                "word": "think"
              },
              {
                "endTime": "66.300s",
                "startTime": "66.100s",
                "word": "you're"
              },
              {
                "endTime": "66.700s",
                "startTime": "66.300s",
                "word": "through"
              }
            ]
          }
        ]
      },
      {
        "alternatives": [
          {
            "confidence": 0.89281434,
            "transcript": " tell me if you think your throat",
            "words": [
              {
                "endTime": "85.500s",
                "startTime": "85.100s",
                "word": "tell"
              },
              {
                "endTime": "85.600s",
                "startTime": "85.500s",
                "word": "me"
              },
              {
                "endTime": "85.700s",
                "startTime": "85.600s",
                "word": "if"
              },
              {
                "endTime": "85.800s",
                "startTime": "85.700s",
                "word": "you"
              },
              {
                "endTime": "85.900s",
                "startTime": "85.800s",
                "word": "think"
              },
              {
                "endTime": "86.200s",
                "startTime": "85.900s",
                "word": "your"
              },
              {
                "endTime": "86.700s",
                "startTime": "86.200s",
                "word": "throat"
              }
            ]
          }
        ]
      }
    ]
  }
}
