{
  "done": true,
  "metadata": {
    "@type": "type.googleapis.com/google.cloud.speech.v1.LongRunningRecognizeMetadata",
    "lastUpdateTime": "2021-03-10T10:05:33.266189Z",
    "progressPercent": 100,
    "startTime": "2021-03-10T10:05:12.538595Z",
    "uri": "gs://adresso/ADReSSo21-diagnosis-train/diagnosis/train/audio/ad/adrso250.wav"
  },
  "name": "5573814177558843512",
  "response": {
    "@type": "type.googleapis.com/google.cloud.speech.v1.LongRunningRecognizeResponse",
    "results": [
      {
        "alternatives": [
          {
            "confidence": 0.9139307,
            "transcript": "where do you mean the picture here's the picture I mean everything you see going on in that pic you want me to tell you now we all the kids are up there are getting cookies and she's drying dishes",
            "words": [
              {
                "endTime": "6.500s",
                "startTime": "5.700s",
                "word": "where"
              },
              {
                "endTime": "6.600s",
                "startTime": "6.500s",
                "word": "do"
              },
              {
                "endTime": "6.600s",
                "startTime": "6.600s",
                "word": "you"
              },
              {
                "endTime": "6.800s",
                "startTime": "6.600s",
                "word": "mean"
              },
              {
                "endTime": "7s",
                "startTime": "6.800s",
                "word": "the"
              },
              {
                "endTime": "7.300s",
                "startTime": "7s",
                "word": "picture"
              },
              {
                "endTime": "8.100s",
                "startTime": "7.300s",
                "word": "here's"
              },
              {
                "endTime": "8.300s",
                "startTime": "8.100s",
                "word": "the"
              },
              {
                "endTime": "8.700s",
                "startTime": "8.300s",
                "word": "picture"
              },
              {
                "endTime": "8.900s",
                "startTime": "8.700s",
                "word": "I"
              },
              {
                "endTime": "9s",
                "startTime": "8.900s",
                "word": "mean"
              },
              {
                "endTime": "9.300s",
                "startTime": "9s",
                "word": "everything"
              },
              {
                "endTime": "9.600s",
                "startTime": "9.300s",
                "word": "you"
              },
              {
                "endTime": "9.900s",
                "startTime": "9.600s",
                "word": "see"
              },
              {
                "endTime": "10.400s",
                "startTime": "9.900s",
                "word": "going"
              },
              {
                "endTime": "10.600s",
                "startTime": "10.400s",
                "word": "on"
              },
              {
                "endTime": "10.800s",
                "startTime": "10.600s",
                "word": "in"
              },
              {
                "endTime": "10.900s",
                "startTime": "10.800s",
                "word": "that"
              },
              {
                "endTime": "11.100s",
                "startTime": "10.900s",
                "word": "pic"
              },
              {
                "endTime": "12.400s",
                "startTime": "11.100s",
                "word": "you"
              },
              {
                "endTime": "12.700s",
                "startTime": "12.400s",
                "word": "want"
              },
              {
                "endTime": "12.800s",
                "startTime": "12.700s",
                "word": "me"
              },
              {
                "endTime": "12.900s",
                "startTime": "12.800s",
                "word": "to"
              },
              {
                "endTime": "13s",
                "startTime": "12.900s",
                "word": "tell"
              },
              {
                "endTime": "13.100s",
                "startTime": "13s",
                "word": "you"
              },
              {
                "endTime": "13.200s",
                "startTime": "13.100s",
                "word": "now"
              },
              {
                "endTime": "14.700s",
                "startTime": "13.200s",
                "word": "we"
              },
              {
                "endTime": "14.800s",
                "startTime": "14.700s",
                "word": "all"
              },
              {
                "endTime": "15s",
                "startTime": "14.800s",
                "word": "the"
              },
              {
                "endTime": "15.300s",
                "startTime": "15s",
                "word": "kids"
              },
              {
                "endTime": "15.300s",
                "startTime": "15.300s",
                "word": "are"
              },
              {
                "endTime": "15.500s",
                "startTime": "15.300s",
                "word": "up"
              },
              {
                "endTime": "15.700s",
                "startTime": "15.500s",
                "word": "there"
              },
              {
                "endTime": "16.800s",
                "startTime": "15.700s",
                "word": "are"
              },
              {
                "endTime": "18.300s",
                "startTime": "16.800s",
                "word": "getting"
              },
              {
                "endTime": "18.700s",
                "startTime": "18.300s",
                "word": "cookies"
              },
              {
                "endTime": "19s",
                "startTime": "18.700s",
                "word": "and"
              },
              {
                "endTime": "19.200s",
                "startTime": "19s",
                "word": "she's"
              },
              {
                "endTime": "19.700s",
                "startTime": "19.200s",
                "word": "drying"
              },
              {
                "endTime": "20.100s",
                "startTime": "19.700s",
                "word": "dishes"
              }
            ]
          }
        ]
      },
      {
        "alternatives": [
          {
            "confidence": 0.7312422,
            "transcript": " she's got her curtains all fixed up front window",
            "words": [
              {
                "endTime": "25.100s",
                "startTime": "24.600s",
                "word": "she's"
              },
              {
                "endTime": "25.300s",
                "startTime": "25.100s",
                "word": "got"
              },
              {
                "endTime": "25.300s",
                "startTime": "25.300s",
                "word": "her"
              },
              {
                "endTime": "26.100s",
                "startTime": "25.300s",
                "word": "curtains"
              },
              {
                "endTime": "26.400s",
                "startTime": "26.100s",
                "word": "all"
              },
              {
                "endTime": "27.100s",
                "startTime": "26.400s",
                "word": "fixed"
              },
              {
                "endTime": "27.200s",
                "startTime": "27.100s",
                "word": "up"
              },
              {
                "endTime": "27.400s",
                "startTime": "27.200s",
                "word": "front"
              },
              {
                "endTime": "27.800s",
                "startTime": "27.400s",
                "word": "window"
              }
            ]
          }
        ]
      },
      {
        "alternatives": [
          {
            "confidence": 0.7657556,
            "transcript": " the kid this almost upset on its stool",
            "words": [
              {
                "endTime": "30s",
                "startTime": "29.600s",
                "word": "the"
              },
              {
                "endTime": "30.300s",
                "startTime": "30s",
                "word": "kid"
              },
              {
                "endTime": "30.400s",
                "startTime": "30.300s",
                "word": "this"
              },
              {
                "endTime": "30.900s",
                "startTime": "30.400s",
                "word": "almost"
              },
              {
                "endTime": "31.400s",
                "startTime": "30.900s",
                "word": "upset"
              },
              {
                "endTime": "31.700s",
                "startTime": "31.400s",
                "word": "on"
              },
              {
                "endTime": "32s",
                "startTime": "31.700s",
                "word": "its"
              },
              {
                "endTime": "32.300s",
                "startTime": "32s",
                "word": "stool"
              }
            ]
          }
        ]
      },
      {
        "alternatives": [
          {
            "confidence": 0.9124546,
            "transcript": " I don't know how he could stand like then get a picture taken",
            "words": [
              {
                "endTime": "34.900s",
                "startTime": "34.600s",
                "word": "I"
              },
              {
                "endTime": "35.100s",
                "startTime": "34.900s",
                "word": "don't"
              },
              {
                "endTime": "35.200s",
                "startTime": "35.100s",
                "word": "know"
              },
              {
                "endTime": "35.300s",
                "startTime": "35.200s",
                "word": "how"
              },
              {
                "endTime": "35.500s",
                "startTime": "35.300s",
                "word": "he"
              },
              {
                "endTime": "35.600s",
                "startTime": "35.500s",
                "word": "could"
              },
              {
                "endTime": "35.900s",
                "startTime": "35.600s",
                "word": "stand"
              },
              {
                "endTime": "36.300s",
                "startTime": "35.900s",
                "word": "like"
              },
              {
                "endTime": "36.600s",
                "startTime": "36.300s",
                "word": "then"
              },
              {
                "endTime": "37.600s",
                "startTime": "36.600s",
                "word": "get"
              },
              {
                "endTime": "37.600s",
                "startTime": "37.600s",
                "word": "a"
              },
              {
                "endTime": "38s",
                "startTime": "37.600s",
                "word": "picture"
              },
              {
                "endTime": "38.200s",
                "startTime": "38s",
                "word": "taken"
              }
            ]
          }
        ]
      },
      {
        "alternatives": [
          {
            "confidence": 0.30099127,
            "transcript": " cap",
            "words": [
              {
                "endTime": "44s",
                "startTime": "43.400s",
                "word": "cap"
              }
            ]
          }
        ]
      },
      {
        "alternatives": [
          {
            "confidence": 0.8351818,
            "transcript": " you thinking of going on here",
            "words": [
              {
                "endTime": "46.400s",
                "startTime": "46s",
                "word": "you"
              },
              {
                "endTime": "46.900s",
                "startTime": "46.400s",
                "word": "thinking"
              },
              {
                "endTime": "47s",
                "startTime": "46.900s",
                "word": "of"
              },
              {
                "endTime": "47.200s",
                "startTime": "47s",
                "word": "going"
              },
              {
                "endTime": "47.500s",
                "startTime": "47.200s",
                "word": "on"
              },
              {
                "endTime": "47.700s",
                "startTime": "47.500s",
                "word": "here"
              }
            ]
          }
        ]
      },
      {
        "alternatives": [
          {
            "confidence": 0.88624716,
            "transcript": " seems like there's water source book splattered over is not out of the sink is that water",
            "words": [
              {
                "endTime": "49.500s",
                "startTime": "49s",
                "word": "seems"
              },
              {
                "endTime": "49.600s",
                "startTime": "49.500s",
                "word": "like"
              },
              {
                "endTime": "49.700s",
                "startTime": "49.600s",
                "word": "there's"
              },
              {
                "endTime": "50.100s",
                "startTime": "49.700s",
                "word": "water"
              },
              {
                "endTime": "50.500s",
                "startTime": "50.100s",
                "word": "source"
              },
              {
                "endTime": "50.800s",
                "startTime": "50.500s",
                "word": "book"
              },
              {
                "endTime": "51.600s",
                "startTime": "50.800s",
                "word": "splattered"
              },
              {
                "endTime": "51.600s",
                "startTime": "51.600s",
                "word": "over"
              },
              {
                "endTime": "52.100s",
                "startTime": "51.600s",
                "word": "is"
              },
              {
                "endTime": "52.300s",
                "startTime": "52.100s",
                "word": "not"
              },
              {
                "endTime": "52.700s",
                "startTime": "52.300s",
                "word": "out"
              },
              {
                "endTime": "52.800s",
                "startTime": "52.700s",
                "word": "of"
              },
              {
                "endTime": "52.900s",
                "startTime": "52.800s",
                "word": "the"
              },
              {
                "endTime": "53.200s",
                "startTime": "52.900s",
                "word": "sink"
              },
              {
                "endTime": "53.700s",
                "startTime": "53.200s",
                "word": "is"
              },
              {
                "endTime": "53.900s",
                "startTime": "53.700s",
                "word": "that"
              },
              {
                "endTime": "54.300s",
                "startTime": "53.900s",
                "word": "water"
              }
            ]
          }
        ]
      },
      {
        "alternatives": [
          {
            "confidence": 0.81101257,
            "transcript": " and then I see a big plate and couple soft this life",
            "words": [
              {
                "endTime": "55.700s",
                "startTime": "55.200s",
                "word": "and"
              },
              {
                "endTime": "56s",
                "startTime": "55.700s",
                "word": "then"
              },
              {
                "endTime": "57s",
                "startTime": "56s",
                "word": "I"
              },
              {
                "endTime": "57.300s",
                "startTime": "57s",
                "word": "see"
              },
              {
                "endTime": "57.400s",
                "startTime": "57.300s",
                "word": "a"
              },
              {
                "endTime": "57.800s",
                "startTime": "57.400s",
                "word": "big"
              },
              {
                "endTime": "58.300s",
                "startTime": "57.800s",
                "word": "plate"
              },
              {
                "endTime": "58.600s",
                "startTime": "58.300s",
                "word": "and"
              },
              {
                "endTime": "59.100s",
                "startTime": "58.600s",
                "word": "couple"
              },
              {
                "endTime": "60s",
                "startTime": "59.100s",
                "word": "soft"
              },
              {
                "endTime": "60.300s",
                "startTime": "60s",
                "word": "this"
              },
              {
                "endTime": "60.700s",
                "startTime": "60.300s",
                "word": "life"
              }
            ]
          }
        ]
      },
      {
        "alternatives": [
          {
            "confidence": 0.7727016,
            "transcript": " and I don't know about the curtain the curtains cut",
            "words": [
              {
                "endTime": "63.100s",
                "startTime": "62.700s",
                "word": "and"
              },
              {
                "endTime": "63.200s",
                "startTime": "63.100s",
                "word": "I"
              },
              {
                "endTime": "63.400s",
                "startTime": "63.200s",
                "word": "don't"
              },
              {
                "endTime": "63.500s",
                "startTime": "63.400s",
                "word": "know"
              },
              {
                "endTime": "63.600s",
                "startTime": "63.500s",
                "word": "about"
              },
              {
                "endTime": "63.800s",
                "startTime": "63.600s",
                "word": "the"
              },
              {
                "endTime": "64.300s",
                "startTime": "63.800s",
                "word": "curtain"
              },
              {
                "endTime": "65s",
                "startTime": "64.300s",
                "word": "the"
              },
              {
                "endTime": "65.500s",
                "startTime": "65s",
                "word": "curtains"
              },
              {
                "endTime": "65.800s",
                "startTime": "65.500s",
                "word": "cut"
              }
            ]
          }
        ]
      },
      {
        "alternatives": [
          {
            "confidence": 0.48939726,
            "transcript": " different",
            "words": [
              {
                "endTime": "67.600s",
                "startTime": "66.900s",
                "word": "different"
              }
            ]
          }
        ]
      },
      {
        "alternatives": [
          {
            "confidence": 0.7230518,
            "transcript": " chuckle made there",
            "words": [
              {
                "endTime": "69.700s",
                "startTime": "69.100s",
                "word": "chuckle"
              },
              {
                "endTime": "70s",
                "startTime": "69.700s",
                "word": "made"
              },
              {
                "endTime": "70.200s",
                "startTime": "70s",
                "word": "there"
              }
            ]
          }
        ]
      },
      {
        "alternatives": [
          {
            "confidence": 0.8440365,
            "transcript": " she must have one double apron and the kids are at the cookie jar",
            "words": [
              {
                "endTime": "73.100s",
                "startTime": "72.700s",
                "word": "she"
              },
              {
                "endTime": "73.300s",
                "startTime": "73.100s",
                "word": "must"
              },
              {
                "endTime": "73.300s",
                "startTime": "73.300s",
                "word": "have"
              },
              {
                "endTime": "73.600s",
                "startTime": "73.300s",
                "word": "one"
              },
              {
                "endTime": "74s",
                "startTime": "73.600s",
                "word": "double"
              },
              {
                "endTime": "75s",
                "startTime": "74s",
                "word": "apron"
              },
              {
                "endTime": "75.600s",
                "startTime": "75s",
                "word": "and"
              },
              {
                "endTime": "77.500s",
                "startTime": "75.600s",
                "word": "the"
              },
              {
                "endTime": "77.700s",
                "startTime": "77.500s",
                "word": "kids"
              },
              {
                "endTime": "77.900s",
                "startTime": "77.700s",
                "word": "are"
              },
              {
                "endTime": "78s",
                "startTime": "77.900s",
                "word": "at"
              },
              {
                "endTime": "78.100s",
                "startTime": "78s",
                "word": "the"
              },
              {
                "endTime": "78.500s",
                "startTime": "78.100s",
                "word": "cookie"
              },
              {
                "endTime": "78.800s",
                "startTime": "78.500s",
                "word": "jar"
              }
            ]
          }
        ]
      },
      {
        "alternatives": [
          {
            "confidence": 0.600998,
            "transcript": " okay okay",
            "words": [
              {
                "endTime": "82.100s",
                "startTime": "81.500s",
                "word": "okay"
              },
              {
                "endTime": "83.500s",
                "startTime": "82.100s",
                "word": "okay"
              }
            ]
          }
        ]
      }
    ]
  }
}
