{
  "done": true,
  "metadata": {
    "@type": "type.googleapis.com/google.cloud.speech.v1.LongRunningRecognizeMetadata",
    "lastUpdateTime": "2021-03-10T10:04:23.800936Z",
    "progressPercent": 100,
    "startTime": "2021-03-10T10:04:14.058828Z",
    "uri": "gs://adresso/ADReSSo21-diagnosis-train/diagnosis/train/audio/ad/adrso130.wav"
  },
  "name": "3024129593309448554",
  "response": {
    "@type": "type.googleapis.com/google.cloud.speech.v1.LongRunningRecognizeResponse",
    "results": [
      {
        "alternatives": [
          {
            "confidence": 0.95799047,
            "transcript": "picture that has a lot of action going on if there's a lot of things going on in the picture tell me what you see going on in the picture",
            "words": [
              {
                "endTime": "0.400s",
                "startTime": "0s",
                "word": "picture"
              },
              {
                "endTime": "0.500s",
                "startTime": "0.400s",
                "word": "that"
              },
              {
                "endTime": "0.700s",
                "startTime": "0.500s",
                "word": "has"
              },
              {
                "endTime": "0.800s",
                "startTime": "0.700s",
                "word": "a"
              },
              {
                "endTime": "1.100s",
                "startTime": "0.800s",
                "word": "lot"
              },
              {
                "endTime": "1.100s",
                "startTime": "1.100s",
                "word": "of"
              },
              {
                "endTime": "1.600s",
                "startTime": "1.100s",
                "word": "action"
              },
              {
                "endTime": "1.800s",
                "startTime": "1.600s",
                "word": "going"
              },
              {
                "endTime": "2.100s",
                "startTime": "1.800s",
                "word": "on"
              },
              {
                "endTime": "2.300s",
                "startTime": "2.100s",
                "word": "if"
              },
              {
                "endTime": "2.400s",
                "startTime": "2.300s",
                "word": "there's"
              },
              {
                "endTime": "2.500s",
                "startTime": "2.400s",
                "word": "a"
              },
              {
                "endTime": "2.700s",
                "startTime": "2.500s",
                "word": "lot"
              },
              {
                "endTime": "2.700s",
                "startTime": "2.700s",
                "word": "of"
              },
              {
                "endTime": "2.800s",
                "startTime": "2.700s",
                "word": "things"
              },
              {
                "endTime": "3.600s",
                "startTime": "2.800s",
                "word": "going"
              },
              {
                "endTime": "3.700s",
                "startTime": "3.600s",
                "word": "on"
              },
              {
                "endTime": "3.800s",
                "startTime": "3.700s",
                "word": "in"
              },
              {
                "endTime": "4s",
                "startTime": "3.800s",
                "word": "the"
              },
              {
                "endTime": "4.200s",
                "startTime": "4s",
                "word": "picture"
              },
              {
                "endTime": "4.900s",
                "startTime": "4.200s",
                "word": "tell"
              },
              {
                "endTime": "5s",
                "startTime": "4.900s",
                "word": "me"
              },
              {
                "endTime": "5.200s",
                "startTime": "5s",
                "word": "what"
              },
              {
                "endTime": "5.300s",
                "startTime": "5.200s",
                "word": "you"
              },
              {
                "endTime": "5.600s",
                "startTime": "5.300s",
                "word": "see"
              },
              {
                "endTime": "6s",
                "startTime": "5.600s",
                "word": "going"
              },
              {
                "endTime": "6.200s",
                "startTime": "6s",
                "word": "on"
              },
              {
                "endTime": "6.400s",
                "startTime": "6.200s",
                "word": "in"
              },
              {
                "endTime": "6.400s",
                "startTime": "6.400s",
                "word": "the"
              },
              {
                "endTime": "6.800s",
                "startTime": "6.400s",
                "word": "picture"
              }
            ]
          }
        ]
      },
      {
        "alternatives": [
          {
            "confidence": 0.76677597,
            "transcript": " she still run the world",
            "words": [
              {
                "endTime": "15.600s",
                "startTime": "14s",
                "word": "she"
              },
              {
                "endTime": "15.900s",
                "startTime": "15.600s",
                "word": "still"
              },
              {
                "endTime": "17.700s",
                "startTime": "15.900s",
                "word": "run"
              },
              {
                "endTime": "17.800s",
                "startTime": "17.700s",
                "word": "the"
              },
              {
                "endTime": "18.300s",
                "startTime": "17.800s",
                "word": "world"
              }
            ]
          }
        ]
      },
      {
        "alternatives": [
          {
            "confidence": 0.9761627,
            "transcript": " anything else",
            "words": [
              {
                "endTime": "23.200s",
                "startTime": "22.500s",
                "word": "anything"
              },
              {
                "endTime": "23.500s",
                "startTime": "23.200s",
                "word": "else"
              }
            ]
          }
        ]
      },
      {
        "alternatives": [
          {
            "confidence": 0.86879766,
            "transcript": " that looks like Time Warner",
            "words": [
              {
                "endTime": "28.600s",
                "startTime": "27.500s",
                "word": "that"
              },
              {
                "endTime": "28.900s",
                "startTime": "28.600s",
                "word": "looks"
              },
              {
                "endTime": "28.900s",
                "startTime": "28.900s",
                "word": "like"
              },
              {
                "endTime": "29.400s",
                "startTime": "28.900s",
                "word": "Time"
              },
              {
                "endTime": "29.700s",
                "startTime": "29.400s",
                "word": "Warner"
              }
            ]
          }
        ]
      },
      {
        "alternatives": [
          {
            "confidence": 0.7566706,
            "transcript": " can endure something on word that is okay",
            "words": [
              {
                "endTime": "31.900s",
                "startTime": "31.300s",
                "word": "can"
              },
              {
                "endTime": "32.300s",
                "startTime": "31.900s",
                "word": "endure"
              },
              {
                "endTime": "32.700s",
                "startTime": "32.300s",
                "word": "something"
              },
              {
                "endTime": "32.900s",
                "startTime": "32.700s",
                "word": "on"
              },
              {
                "endTime": "33.200s",
                "startTime": "32.900s",
                "word": "word"
              },
              {
                "endTime": "33.400s",
                "startTime": "33.200s",
                "word": "that"
              },
              {
                "endTime": "33.600s",
                "startTime": "33.400s",
                "word": "is"
              },
              {
                "endTime": "34.200s",
                "startTime": "33.600s",
                "word": "okay"
              }
            ]
          }
        ]
      }
    ]
  }
}
