{
  "done": true,
  "metadata": {
    "@type": "type.googleapis.com/google.cloud.speech.v1.LongRunningRecognizeMetadata",
    "lastUpdateTime": "2021-03-10T10:03:22.671617Z",
    "progressPercent": 100,
    "startTime": "2021-03-10T10:03:09.791090Z",
    "uri": "gs://adresso/ADReSSo21-diagnosis-train/diagnosis/train/audio/ad/adrso032.wav"
  },
  "name": "7066962509167772545",
  "response": {
    "@type": "type.googleapis.com/google.cloud.speech.v1.LongRunningRecognizeResponse",
    "results": [
      {
        "alternatives": [
          {
            "confidence": 0.94010234,
            "transcript": "what's going on",
            "words": [
              {
                "endTime": "0.400s",
                "startTime": "0s",
                "word": "what's"
              },
              {
                "endTime": "0.700s",
                "startTime": "0.400s",
                "word": "going"
              },
              {
                "endTime": "0.800s",
                "startTime": "0.700s",
                "word": "on"
              }
            ]
          }
        ]
      },
      {
        "alternatives": [
          {
            "confidence": 0.61064917,
            "transcript": " be quiet",
            "words": [
              {
                "endTime": "13.400s",
                "startTime": "12s",
                "word": "be"
              },
              {
                "endTime": "13.800s",
                "startTime": "13.400s",
                "word": "quiet"
              }
            ]
          }
        ]
      },
      {
        "alternatives": [
          {
            "confidence": 0.85633165,
            "transcript": " we might just go",
            "words": [
              {
                "endTime": "66.400s",
                "startTime": "66s",
                "word": "we"
              },
              {
                "endTime": "66.700s",
                "startTime": "66.400s",
                "word": "might"
              },
              {
                "endTime": "66.800s",
                "startTime": "66.700s",
                "word": "just"
              },
              {
                "endTime": "67.100s",
                "startTime": "66.800s",
                "word": "go"
              }
            ]
          }
        ]
      },
      {
        "alternatives": [
          {
            "confidence": 0.88998276,
            "transcript": " okay",
            "words": [
              {
                "endTime": "80.600s",
                "startTime": "78.900s",
                "word": "okay"
              }
            ]
          }
        ]
      }
    ]
  }
}
