{
  "done": true,
  "metadata": {
    "@type": "type.googleapis.com/google.cloud.speech.v1.LongRunningRecognizeMetadata",
    "lastUpdateTime": "2021-03-10T10:04:26.337420Z",
    "progressPercent": 100,
    "startTime": "2021-03-10T10:04:12.677863Z",
    "uri": "gs://adresso/ADReSSo21-diagnosis-train/diagnosis/train/audio/ad/adrso128.wav"
  },
  "name": "1498560800400270724",
  "response": {
    "@type": "type.googleapis.com/google.cloud.speech.v1.LongRunningRecognizeResponse",
    "results": [
      {
        "alternatives": [
          {
            "confidence": 0.97334546,
            "transcript": "I just want you to tell me everything that you see happening in that picture everything is going on there",
            "words": [
              {
                "endTime": "0.200s",
                "startTime": "0s",
                "word": "I"
              },
              {
                "endTime": "0.500s",
                "startTime": "0.200s",
                "word": "just"
              },
              {
                "endTime": "0.700s",
                "startTime": "0.500s",
                "word": "want"
              },
              {
                "endTime": "0.800s",
                "startTime": "0.700s",
                "word": "you"
              },
              {
                "endTime": "0.900s",
                "startTime": "0.800s",
                "word": "to"
              },
              {
                "endTime": "1.100s",
                "startTime": "0.900s",
                "word": "tell"
              },
              {
                "endTime": "1.200s",
                "startTime": "1.100s",
                "word": "me"
              },
              {
                "endTime": "1.400s",
                "startTime": "1.200s",
                "word": "everything"
              },
              {
                "endTime": "2.500s",
                "startTime": "1.400s",
                "word": "that"
              },
              {
                "endTime": "2.700s",
                "startTime": "2.500s",
                "word": "you"
              },
              {
                "endTime": "2.900s",
                "startTime": "2.700s",
                "word": "see"
              },
              {
                "endTime": "3.300s",
                "startTime": "2.900s",
                "word": "happening"
              },
              {
                "endTime": "3.700s",
                "startTime": "3.300s",
                "word": "in"
              },
              {
                "endTime": "3.900s",
                "startTime": "3.700s",
                "word": "that"
              },
              {
                "endTime": "4.200s",
                "startTime": "3.900s",
                "word": "picture"
              },
              {
                "endTime": "5.400s",
                "startTime": "4.200s",
                "word": "everything"
              },
              {
                "endTime": "5.700s",
                "startTime": "5.400s",
                "word": "is"
              },
              {
                "endTime": "6.100s",
                "startTime": "5.700s",
                "word": "going"
              },
              {
                "endTime": "6.200s",
                "startTime": "6.100s",
                "word": "on"
              },
              {
                "endTime": "6.600s",
                "startTime": "6.200s",
                "word": "there"
              }
            ]
          }
        ]
      },
      {
        "alternatives": [
          {
            "confidence": 0.7947575,
            "transcript": " John",
            "words": [
              {
                "endTime": "23.700s",
                "startTime": "22.800s",
                "word": "John"
              }
            ]
          }
        ]
      },
      {
        "alternatives": [
          {
            "confidence": 0.8164028,
            "transcript": " and him",
            "words": [
              {
                "endTime": "26.400s",
                "startTime": "25.900s",
                "word": "and"
              },
              {
                "endTime": "26.800s",
                "startTime": "26.400s",
                "word": "him"
              }
            ]
          }
        ]
      },
      {
        "alternatives": [
          {
            "confidence": 0.7635152,
            "transcript": " living on a while he's on the stool that is",
            "words": [
              {
                "endTime": "29.100s",
                "startTime": "28.500s",
                "word": "living"
              },
              {
                "endTime": "29.200s",
                "startTime": "29.100s",
                "word": "on"
              },
              {
                "endTime": "29.300s",
                "startTime": "29.200s",
                "word": "a"
              },
              {
                "endTime": "30.700s",
                "startTime": "29.300s",
                "word": "while"
              },
              {
                "endTime": "30.900s",
                "startTime": "30.700s",
                "word": "he's"
              },
              {
                "endTime": "31.500s",
                "startTime": "30.900s",
                "word": "on"
              },
              {
                "endTime": "31.600s",
                "startTime": "31.500s",
                "word": "the"
              },
              {
                "endTime": "32.100s",
                "startTime": "31.600s",
                "word": "stool"
              },
              {
                "endTime": "33s",
                "startTime": "32.100s",
                "word": "that"
              },
              {
                "endTime": "33.100s",
                "startTime": "33s",
                "word": "is"
              }
            ]
          }
        ]
      },
      {
        "alternatives": [
          {
            "confidence": 0.8934965,
            "transcript": " going overboard",
            "words": [
              {
                "endTime": "35.400s",
                "startTime": "34.200s",
                "word": "going"
              },
              {
                "endTime": "35.800s",
                "startTime": "35.400s",
                "word": "overboard"
              }
            ]
          }
        ]
      },
      {
        "alternatives": [
          {
            "confidence": 0.7394041,
            "transcript": " and the water is running out of the",
            "words": [
              {
                "endTime": "38.800s",
                "startTime": "38.100s",
                "word": "and"
              },
              {
                "endTime": "39.100s",
                "startTime": "38.800s",
                "word": "the"
              },
              {
                "endTime": "40.200s",
                "startTime": "39.100s",
                "word": "water"
              },
              {
                "endTime": "40.300s",
                "startTime": "40.200s",
                "word": "is"
              },
              {
                "endTime": "40.500s",
                "startTime": "40.300s",
                "word": "running"
              },
              {
                "endTime": "40.800s",
                "startTime": "40.500s",
                "word": "out"
              },
              {
                "endTime": "40.900s",
                "startTime": "40.800s",
                "word": "of"
              },
              {
                "endTime": "41.100s",
                "startTime": "40.900s",
                "word": "the"
              }
            ]
          }
        ]
      },
      {
        "alternatives": [
          {
            "confidence": 1,
            "transcript": " thank",
            "words": [
              {
                "endTime": "44.400s",
                "startTime": "43.400s",
                "word": "thank"
              }
            ]
          }
        ]
      },
      {
        "alternatives": [
          {
            "confidence": 0.9622863,
            "transcript": " better things be happening",
            "words": [
              {
                "endTime": "92.200s",
                "startTime": "91s",
                "word": "better"
              },
              {
                "endTime": "92.600s",
                "startTime": "92.200s",
                "word": "things"
              },
              {
                "endTime": "92.800s",
                "startTime": "92.600s",
                "word": "be"
              },
              {
                "endTime": "93.200s",
                "startTime": "92.800s",
                "word": "happening"
              }
            ]
          }
        ]
      }
    ]
  }
}
