{
  "done": true,
  "metadata": {
    "@type": "type.googleapis.com/google.cloud.speech.v1.LongRunningRecognizeMetadata",
    "lastUpdateTime": "2021-03-10T10:04:15.099459Z",
    "progressPercent": 100,
    "startTime": "2021-03-10T10:04:00.213773Z",
    "uri": "gs://adresso/ADReSSo21-diagnosis-train/diagnosis/train/audio/ad/adrso109.wav"
  },
  "name": "3024129593309448573",
  "response": {
    "@type": "type.googleapis.com/google.cloud.speech.v1.LongRunningRecognizeResponse",
    "results": [
      {
        "alternatives": [
          {
            "confidence": 0.93150645,
            "transcript": "just take a look at that picture take a look at that picture and tell me everything that you see happening in that picture",
            "words": [
              {
                "endTime": "0.500s",
                "startTime": "0s",
                "word": "just"
              },
              {
                "endTime": "0.700s",
                "startTime": "0.500s",
                "word": "take"
              },
              {
                "endTime": "0.700s",
                "startTime": "0.700s",
                "word": "a"
              },
              {
                "endTime": "0.800s",
                "startTime": "0.700s",
                "word": "look"
              },
              {
                "endTime": "1.100s",
                "startTime": "0.800s",
                "word": "at"
              },
              {
                "endTime": "1.200s",
                "startTime": "1.100s",
                "word": "that"
              },
              {
                "endTime": "1.800s",
                "startTime": "1.200s",
                "word": "picture"
              },
              {
                "endTime": "2.800s",
                "startTime": "1.800s",
                "word": "take"
              },
              {
                "endTime": "2.800s",
                "startTime": "2.800s",
                "word": "a"
              },
              {
                "endTime": "3s",
                "startTime": "2.800s",
                "word": "look"
              },
              {
                "endTime": "3.100s",
                "startTime": "3s",
                "word": "at"
              },
              {
                "endTime": "3.200s",
                "startTime": "3.100s",
                "word": "that"
              },
              {
                "endTime": "3.600s",
                "startTime": "3.200s",
                "word": "picture"
              },
              {
                "endTime": "3.900s",
                "startTime": "3.600s",
                "word": "and"
              },
              {
                "endTime": "4.400s",
                "startTime": "3.900s",
                "word": "tell"
              },
              {
                "endTime": "4.500s",
                "startTime": "4.400s",
                "word": "me"
              },
              {
                "endTime": "5.400s",
                "startTime": "4.500s",
                "word": "everything"
              },
              {
                "endTime": "5.500s",
                "startTime": "5.400s",
                "word": "that"
              },
              {
                "endTime": "5.700s",
                "startTime": "5.500s",
                "word": "you"
              },
              {
                "endTime": "6s",
                "startTime": "5.700s",
                "word": "see"
              },
              {
                "endTime": "6.500s",
                "startTime": "6s",
                "word": "happening"
              },
              {
                "endTime": "7s",
                "startTime": "6.500s",
                "word": "in"
              },
              {
                "endTime": "7.200s",
                "startTime": "7s",
                "word": "that"
              },
              {
                "endTime": "7.600s",
                "startTime": "7.200s",
                "word": "picture"
              }
            ]
          }
        ]
      },
      {
        "alternatives": [
          {
            "confidence": 0.92843986,
            "transcript": " what do we say everything is going on in that picture is happening there do you want some crust out or just say that lost little boys climbing the cookie jar",
            "words": [
              {
                "endTime": "12.100s",
                "startTime": "11.700s",
                "word": "what"
              },
              {
                "endTime": "12.200s",
                "startTime": "12.100s",
                "word": "do"
              },
              {
                "endTime": "12.300s",
                "startTime": "12.200s",
                "word": "we"
              },
              {
                "endTime": "12.400s",
                "startTime": "12.300s",
                "word": "say"
              },
              {
                "endTime": "12.600s",
                "startTime": "12.400s",
                "word": "everything"
              },
              {
                "endTime": "13s",
                "startTime": "12.600s",
                "word": "is"
              },
              {
                "endTime": "13.500s",
                "startTime": "13s",
                "word": "going"
              },
              {
                "endTime": "13.600s",
                "startTime": "13.500s",
                "word": "on"
              },
              {
                "endTime": "14s",
                "startTime": "13.600s",
                "word": "in"
              },
              {
                "endTime": "14.200s",
                "startTime": "14s",
                "word": "that"
              },
              {
                "endTime": "14.600s",
                "startTime": "14.200s",
                "word": "picture"
              },
              {
                "endTime": "15.600s",
                "startTime": "14.600s",
                "word": "is"
              },
              {
                "endTime": "16.200s",
                "startTime": "15.600s",
                "word": "happening"
              },
              {
                "endTime": "16.400s",
                "startTime": "16.200s",
                "word": "there"
              },
              {
                "endTime": "16.800s",
                "startTime": "16.400s",
                "word": "do"
              },
              {
                "endTime": "16.800s",
                "startTime": "16.800s",
                "word": "you"
              },
              {
                "endTime": "16.900s",
                "startTime": "16.800s",
                "word": "want"
              },
              {
                "endTime": "17.200s",
                "startTime": "16.900s",
                "word": "some"
              },
              {
                "endTime": "17.500s",
                "startTime": "17.200s",
                "word": "crust"
              },
              {
                "endTime": "17.800s",
                "startTime": "17.500s",
                "word": "out"
              },
              {
                "endTime": "17.900s",
                "startTime": "17.800s",
                "word": "or"
              },
              {
                "endTime": "18s",
                "startTime": "17.900s",
                "word": "just"
              },
              {
                "endTime": "18.400s",
                "startTime": "18s",
                "word": "say"
              },
              {
                "endTime": "18.600s",
                "startTime": "18.400s",
                "word": "that"
              },
              {
                "endTime": "19s",
                "startTime": "18.600s",
                "word": "lost"
              },
              {
                "endTime": "21.900s",
                "startTime": "19s",
                "word": "little"
              },
              {
                "endTime": "22.500s",
                "startTime": "21.900s",
                "word": "boys"
              },
              {
                "endTime": "24s",
                "startTime": "22.500s",
                "word": "climbing"
              },
              {
                "endTime": "24.200s",
                "startTime": "24s",
                "word": "the"
              },
              {
                "endTime": "24.800s",
                "startTime": "24.200s",
                "word": "cookie"
              },
              {
                "endTime": "25.200s",
                "startTime": "24.800s",
                "word": "jar"
              }
            ]
          }
        ]
      },
      {
        "alternatives": [
          {
            "confidence": 0.9325788,
            "transcript": " he has the little boy has",
            "words": [
              {
                "endTime": "28.500s",
                "startTime": "28.200s",
                "word": "he"
              },
              {
                "endTime": "28.700s",
                "startTime": "28.500s",
                "word": "has"
              },
              {
                "endTime": "29.100s",
                "startTime": "28.700s",
                "word": "the"
              },
              {
                "endTime": "29.300s",
                "startTime": "29.100s",
                "word": "little"
              },
              {
                "endTime": "29.600s",
                "startTime": "29.300s",
                "word": "boy"
              },
              {
                "endTime": "30.500s",
                "startTime": "29.600s",
                "word": "has"
              }
            ]
          }
        ]
      },
      {
        "alternatives": [
          {
            "confidence": 0.83546156,
            "transcript": " has cookies a cookie in his hand",
            "words": [
              {
                "endTime": "33.100s",
                "startTime": "32.400s",
                "word": "has"
              },
              {
                "endTime": "33.800s",
                "startTime": "33.100s",
                "word": "cookies"
              },
              {
                "endTime": "34.200s",
                "startTime": "33.800s",
                "word": "a"
              },
              {
                "endTime": "34.600s",
                "startTime": "34.200s",
                "word": "cookie"
              },
              {
                "endTime": "34.700s",
                "startTime": "34.600s",
                "word": "in"
              },
              {
                "endTime": "34.800s",
                "startTime": "34.700s",
                "word": "his"
              },
              {
                "endTime": "35.300s",
                "startTime": "34.800s",
                "word": "hand"
              }
            ]
          }
        ]
      },
      {
        "alternatives": [
          {
            "confidence": 0.8678281,
            "transcript": " did he got by climbing the step ladder which is ready to fall",
            "words": [
              {
                "endTime": "37s",
                "startTime": "36.600s",
                "word": "did"
              },
              {
                "endTime": "37.100s",
                "startTime": "37s",
                "word": "he"
              },
              {
                "endTime": "37.300s",
                "startTime": "37.100s",
                "word": "got"
              },
              {
                "endTime": "37.600s",
                "startTime": "37.300s",
                "word": "by"
              },
              {
                "endTime": "38.400s",
                "startTime": "37.600s",
                "word": "climbing"
              },
              {
                "endTime": "38.600s",
                "startTime": "38.400s",
                "word": "the"
              },
              {
                "endTime": "38.900s",
                "startTime": "38.600s",
                "word": "step"
              },
              {
                "endTime": "39.200s",
                "startTime": "38.900s",
                "word": "ladder"
              },
              {
                "endTime": "40.300s",
                "startTime": "39.200s",
                "word": "which"
              },
              {
                "endTime": "40.500s",
                "startTime": "40.300s",
                "word": "is"
              },
              {
                "endTime": "41.300s",
                "startTime": "40.500s",
                "word": "ready"
              },
              {
                "endTime": "41.400s",
                "startTime": "41.300s",
                "word": "to"
              },
              {
                "endTime": "41.700s",
                "startTime": "41.400s",
                "word": "fall"
              }
            ]
          }
        ]
      },
      {
        "alternatives": [
          {
            "confidence": 0.94683117,
            "transcript": " sister is asking for",
            "words": [
              {
                "endTime": "44.100s",
                "startTime": "43.400s",
                "word": "sister"
              },
              {
                "endTime": "44.300s",
                "startTime": "44.100s",
                "word": "is"
              },
              {
                "endTime": "44.500s",
                "startTime": "44.300s",
                "word": "asking"
              },
              {
                "endTime": "45s",
                "startTime": "44.500s",
                "word": "for"
              }
            ]
          }
        ]
      },
      {
        "alternatives": [
          {
            "confidence": 0.9426658,
            "transcript": " something to eat she has started a little and want some more",
            "words": [
              {
                "endTime": "47.100s",
                "startTime": "46.500s",
                "word": "something"
              },
              {
                "endTime": "47.200s",
                "startTime": "47.100s",
                "word": "to"
              },
              {
                "endTime": "47.400s",
                "startTime": "47.200s",
                "word": "eat"
              },
              {
                "endTime": "47.800s",
                "startTime": "47.400s",
                "word": "she"
              },
              {
                "endTime": "48s",
                "startTime": "47.800s",
                "word": "has"
              },
              {
                "endTime": "48.400s",
                "startTime": "48s",
                "word": "started"
              },
              {
                "endTime": "48.600s",
                "startTime": "48.400s",
                "word": "a"
              },
              {
                "endTime": "48.800s",
                "startTime": "48.600s",
                "word": "little"
              },
              {
                "endTime": "49.100s",
                "startTime": "48.800s",
                "word": "and"
              },
              {
                "endTime": "49.300s",
                "startTime": "49.100s",
                "word": "want"
              },
              {
                "endTime": "49.600s",
                "startTime": "49.300s",
                "word": "some"
              },
              {
                "endTime": "49.800s",
                "startTime": "49.600s",
                "word": "more"
              }
            ]
          }
        ]
      },
      {
        "alternatives": [
          {
            "confidence": 0.78583026,
            "transcript": " I want to see no",
            "words": [
              {
                "endTime": "52.500s",
                "startTime": "52.100s",
                "word": "I"
              },
              {
                "endTime": "52.800s",
                "startTime": "52.500s",
                "word": "want"
              },
              {
                "endTime": "52.900s",
                "startTime": "52.800s",
                "word": "to"
              },
              {
                "endTime": "53.100s",
                "startTime": "52.900s",
                "word": "see"
              },
              {
                "endTime": "53.300s",
                "startTime": "53.100s",
                "word": "no"
              }
            ]
          }
        ]
      },
      {
        "alternatives": [
          {
            "confidence": 0.97290736,
            "transcript": " the mother",
            "words": [
              {
                "endTime": "55s",
                "startTime": "54.700s",
                "word": "the"
              },
              {
                "endTime": "55.300s",
                "startTime": "55s",
                "word": "mother"
              }
            ]
          }
        ]
      },
      {
        "alternatives": [
          {
            "confidence": 0.8972753,
            "transcript": " mother has a small mess in the kitchen like it's small",
            "words": [
              {
                "endTime": "59.600s",
                "startTime": "59.100s",
                "word": "mother"
              },
              {
                "endTime": "60.100s",
                "startTime": "59.600s",
                "word": "has"
              },
              {
                "endTime": "60.900s",
                "startTime": "60.100s",
                "word": "a"
              },
              {
                "endTime": "61.400s",
                "startTime": "60.900s",
                "word": "small"
              },
              {
                "endTime": "61.800s",
                "startTime": "61.400s",
                "word": "mess"
              },
              {
                "endTime": "62s",
                "startTime": "61.800s",
                "word": "in"
              },
              {
                "endTime": "62.100s",
                "startTime": "62s",
                "word": "the"
              },
              {
                "endTime": "62.200s",
                "startTime": "62.100s",
                "word": "kitchen"
              },
              {
                "endTime": "63.700s",
                "startTime": "62.200s",
                "word": "like"
              },
              {
                "endTime": "63.800s",
                "startTime": "63.700s",
                "word": "it's"
              },
              {
                "endTime": "64.300s",
                "startTime": "63.800s",
                "word": "small"
              }
            ]
          }
        ]
      },
      {
        "alternatives": [
          {
            "confidence": 0.9303076,
            "transcript": " mother is now washing and yes she's washing and drying the dishes in the kitchen",
            "words": [
              {
                "endTime": "67s",
                "startTime": "65.700s",
                "word": "mother"
              },
              {
                "endTime": "67.400s",
                "startTime": "67s",
                "word": "is"
              },
              {
                "endTime": "67.700s",
                "startTime": "67.400s",
                "word": "now"
              },
              {
                "endTime": "68.200s",
                "startTime": "67.700s",
                "word": "washing"
              },
              {
                "endTime": "68.700s",
                "startTime": "68.200s",
                "word": "and"
              },
              {
                "endTime": "69.600s",
                "startTime": "68.700s",
                "word": "yes"
              },
              {
                "endTime": "69.800s",
                "startTime": "69.600s",
                "word": "she's"
              },
              {
                "endTime": "70.200s",
                "startTime": "69.800s",
                "word": "washing"
              },
              {
                "endTime": "70.400s",
                "startTime": "70.200s",
                "word": "and"
              },
              {
                "endTime": "70.600s",
                "startTime": "70.400s",
                "word": "drying"
              },
              {
                "endTime": "70.800s",
                "startTime": "70.600s",
                "word": "the"
              },
              {
                "endTime": "71s",
                "startTime": "70.800s",
                "word": "dishes"
              },
              {
                "endTime": "71.400s",
                "startTime": "71s",
                "word": "in"
              },
              {
                "endTime": "71.500s",
                "startTime": "71.400s",
                "word": "the"
              },
              {
                "endTime": "71.700s",
                "startTime": "71.500s",
                "word": "kitchen"
              }
            ]
          }
        ]
      },
      {
        "alternatives": [
          {
            "confidence": 0.9604049,
            "transcript": " her water has spilled over terribly bed",
            "words": [
              {
                "endTime": "73.700s",
                "startTime": "73.300s",
                "word": "her"
              },
              {
                "endTime": "73.900s",
                "startTime": "73.700s",
                "word": "water"
              },
              {
                "endTime": "74.300s",
                "startTime": "73.900s",
                "word": "has"
              },
              {
                "endTime": "75.200s",
                "startTime": "74.300s",
                "word": "spilled"
              },
              {
                "endTime": "75.600s",
                "startTime": "75.200s",
                "word": "over"
              },
              {
                "endTime": "77s",
                "startTime": "75.600s",
                "word": "terribly"
              },
              {
                "endTime": "77.400s",
                "startTime": "77s",
                "word": "bed"
              }
            ]
          }
        ]
      },
      {
        "alternatives": [
          {
            "confidence": 0.48797816,
            "transcript": " in",
            "words": [
              {
                "endTime": "80s",
                "startTime": "79.400s",
                "word": "in"
              }
            ]
          }
        ]
      },
      {
        "alternatives": [
          {
            "confidence": 0.92230606,
            "transcript": " looks like sisters back to try for some more cookies",
            "words": [
              {
                "endTime": "84s",
                "startTime": "83.500s",
                "word": "looks"
              },
              {
                "endTime": "84.100s",
                "startTime": "84s",
                "word": "like"
              },
              {
                "endTime": "84.600s",
                "startTime": "84.100s",
                "word": "sisters"
              },
              {
                "endTime": "84.900s",
                "startTime": "84.600s",
                "word": "back"
              },
              {
                "endTime": "85.200s",
                "startTime": "84.900s",
                "word": "to"
              },
              {
                "endTime": "85.800s",
                "startTime": "85.200s",
                "word": "try"
              },
              {
                "endTime": "86.100s",
                "startTime": "85.800s",
                "word": "for"
              },
              {
                "endTime": "86.300s",
                "startTime": "86.100s",
                "word": "some"
              },
              {
                "endTime": "86.600s",
                "startTime": "86.300s",
                "word": "more"
              },
              {
                "endTime": "87.300s",
                "startTime": "86.600s",
                "word": "cookies"
              }
            ]
          }
        ]
      },
      {
        "alternatives": [
          {
            "confidence": 0.857696,
            "transcript": " good k",
            "words": [
              {
                "endTime": "90.900s",
                "startTime": "90.300s",
                "word": "good"
              },
              {
                "endTime": "91.900s",
                "startTime": "90.900s",
                "word": "k"
              }
            ]
          }
        ]
      }
    ]
  }
}
