{
  "done": true,
  "metadata": {
    "@type": "type.googleapis.com/google.cloud.speech.v1.LongRunningRecognizeMetadata",
    "lastUpdateTime": "2021-03-10T10:04:03.879840Z",
    "progressPercent": 100,
    "startTime": "2021-03-10T10:03:44.508101Z",
    "uri": "gs://adresso/ADReSSo21-diagnosis-train/diagnosis/train/audio/ad/adrso074.wav"
  },
  "name": "6126824343179287793",
  "response": {
    "@type": "type.googleapis.com/google.cloud.speech.v1.LongRunningRecognizeResponse",
    "results": [
      {
        "alternatives": [
          {
            "confidence": 0.87834495,
            "transcript": "go to Kidz Bop of the cookie jar one on the stool that is standing on the floor cupboard door is opened",
            "words": [
              {
                "endTime": "7s",
                "startTime": "5.600s",
                "word": "go"
              },
              {
                "endTime": "8.200s",
                "startTime": "7s",
                "word": "to"
              },
              {
                "endTime": "8.700s",
                "startTime": "8.200s",
                "word": "Kidz"
              },
              {
                "endTime": "9.100s",
                "startTime": "8.700s",
                "word": "Bop"
              },
              {
                "endTime": "9.300s",
                "startTime": "9.100s",
                "word": "of"
              },
              {
                "endTime": "9.400s",
                "startTime": "9.300s",
                "word": "the"
              },
              {
                "endTime": "9.800s",
                "startTime": "9.400s",
                "word": "cookie"
              },
              {
                "endTime": "10s",
                "startTime": "9.800s",
                "word": "jar"
              },
              {
                "endTime": "10.300s",
                "startTime": "10s",
                "word": "one"
              },
              {
                "endTime": "10.900s",
                "startTime": "10.300s",
                "word": "on"
              },
              {
                "endTime": "11s",
                "startTime": "10.900s",
                "word": "the"
              },
              {
                "endTime": "11.400s",
                "startTime": "11s",
                "word": "stool"
              },
              {
                "endTime": "12s",
                "startTime": "11.400s",
                "word": "that"
              },
              {
                "endTime": "12.100s",
                "startTime": "12s",
                "word": "is"
              },
              {
                "endTime": "12.600s",
                "startTime": "12.100s",
                "word": "standing"
              },
              {
                "endTime": "12.700s",
                "startTime": "12.600s",
                "word": "on"
              },
              {
                "endTime": "12.900s",
                "startTime": "12.700s",
                "word": "the"
              },
              {
                "endTime": "13.100s",
                "startTime": "12.900s",
                "word": "floor"
              },
              {
                "endTime": "14.700s",
                "startTime": "13.100s",
                "word": "cupboard"
              },
              {
                "endTime": "15.100s",
                "startTime": "14.700s",
                "word": "door"
              },
              {
                "endTime": "15.700s",
                "startTime": "15.100s",
                "word": "is"
              },
              {
                "endTime": "16.400s",
                "startTime": "15.700s",
                "word": "opened"
              }
            ]
          }
        ]
      },
      {
        "alternatives": [
          {
            "confidence": 0.8158207,
            "transcript": " mother's washing the dishes water's running overflowing sink and dish",
            "words": [
              {
                "endTime": "18.600s",
                "startTime": "17.900s",
                "word": "mother's"
              },
              {
                "endTime": "19.200s",
                "startTime": "18.600s",
                "word": "washing"
              },
              {
                "endTime": "19.300s",
                "startTime": "19.200s",
                "word": "the"
              },
              {
                "endTime": "19.600s",
                "startTime": "19.300s",
                "word": "dishes"
              },
              {
                "endTime": "20.900s",
                "startTime": "19.600s",
                "word": "water's"
              },
              {
                "endTime": "21.500s",
                "startTime": "20.900s",
                "word": "running"
              },
              {
                "endTime": "23.300s",
                "startTime": "21.500s",
                "word": "overflowing"
              },
              {
                "endTime": "23.800s",
                "startTime": "23.300s",
                "word": "sink"
              },
              {
                "endTime": "25.900s",
                "startTime": "23.800s",
                "word": "and"
              },
              {
                "endTime": "26.600s",
                "startTime": "25.900s",
                "word": "dish"
              }
            ]
          }
        ]
      },
      {
        "alternatives": [
          {
            "confidence": 0.8990075,
            "transcript": " two cops in a plate on the counter and she's washing holding a plate in your hand",
            "words": [
              {
                "endTime": "28.200s",
                "startTime": "27.700s",
                "word": "two"
              },
              {
                "endTime": "28.700s",
                "startTime": "28.200s",
                "word": "cops"
              },
              {
                "endTime": "29.400s",
                "startTime": "28.700s",
                "word": "in"
              },
              {
                "endTime": "29.700s",
                "startTime": "29.400s",
                "word": "a"
              },
              {
                "endTime": "30.300s",
                "startTime": "29.700s",
                "word": "plate"
              },
              {
                "endTime": "31.200s",
                "startTime": "30.300s",
                "word": "on"
              },
              {
                "endTime": "31.300s",
                "startTime": "31.200s",
                "word": "the"
              },
              {
                "endTime": "32s",
                "startTime": "31.300s",
                "word": "counter"
              },
              {
                "endTime": "32.800s",
                "startTime": "32s",
                "word": "and"
              },
              {
                "endTime": "33.200s",
                "startTime": "32.800s",
                "word": "she's"
              },
              {
                "endTime": "33.700s",
                "startTime": "33.200s",
                "word": "washing"
              },
              {
                "endTime": "34.700s",
                "startTime": "33.700s",
                "word": "holding"
              },
              {
                "endTime": "34.800s",
                "startTime": "34.700s",
                "word": "a"
              },
              {
                "endTime": "35.100s",
                "startTime": "34.800s",
                "word": "plate"
              },
              {
                "endTime": "35.200s",
                "startTime": "35.100s",
                "word": "in"
              },
              {
                "endTime": "35.200s",
                "startTime": "35.200s",
                "word": "your"
              },
              {
                "endTime": "35.800s",
                "startTime": "35.200s",
                "word": "hand"
              }
            ]
          }
        ]
      },
      {
        "alternatives": [
          {
            "confidence": 0.93904227,
            "transcript": " curtains at the windows",
            "words": [
              {
                "endTime": "39.300s",
                "startTime": "36.300s",
                "word": "curtains"
              },
              {
                "endTime": "39.400s",
                "startTime": "39.300s",
                "word": "at"
              },
              {
                "endTime": "39.500s",
                "startTime": "39.400s",
                "word": "the"
              },
              {
                "endTime": "39.600s",
                "startTime": "39.500s",
                "word": "windows"
              }
            ]
          }
        ]
      },
      {
        "alternatives": [
          {
            "confidence": 0.9178053,
            "transcript": " cookie jar has a little",
            "words": [
              {
                "endTime": "43.400s",
                "startTime": "42.900s",
                "word": "cookie"
              },
              {
                "endTime": "43.600s",
                "startTime": "43.400s",
                "word": "jar"
              },
              {
                "endTime": "43.800s",
                "startTime": "43.600s",
                "word": "has"
              },
              {
                "endTime": "43.900s",
                "startTime": "43.800s",
                "word": "a"
              },
              {
                "endTime": "44.300s",
                "startTime": "43.900s",
                "word": "little"
              }
            ]
          }
        ]
      },
      {
        "alternatives": [
          {
            "confidence": 0.79361516,
            "transcript": " got it covered generator sync Iris Indonesia",
            "words": [
              {
                "endTime": "50.800s",
                "startTime": "49.800s",
                "word": "got"
              },
              {
                "endTime": "51.100s",
                "startTime": "50.800s",
                "word": "it"
              },
              {
                "endTime": "51.800s",
                "startTime": "51.100s",
                "word": "covered"
              },
              {
                "endTime": "52.600s",
                "startTime": "51.800s",
                "word": "generator"
              },
              {
                "endTime": "53.100s",
                "startTime": "52.600s",
                "word": "sync"
              },
              {
                "endTime": "53.400s",
                "startTime": "53.100s",
                "word": "Iris"
              },
              {
                "endTime": "53.900s",
                "startTime": "53.400s",
                "word": "Indonesia"
              }
            ]
          }
        ]
      },
      {
        "alternatives": [
          {
            "confidence": 0.89944476,
            "transcript": " other coverage kid falling off the stool",
            "words": [
              {
                "endTime": "56.400s",
                "startTime": "55.900s",
                "word": "other"
              },
              {
                "endTime": "57s",
                "startTime": "56.400s",
                "word": "coverage"
              },
              {
                "endTime": "59.500s",
                "startTime": "57s",
                "word": "kid"
              },
              {
                "endTime": "59.800s",
                "startTime": "59.500s",
                "word": "falling"
              },
              {
                "endTime": "59.900s",
                "startTime": "59.800s",
                "word": "off"
              },
              {
                "endTime": "60.200s",
                "startTime": "59.900s",
                "word": "the"
              },
              {
                "endTime": "60.600s",
                "startTime": "60.200s",
                "word": "stool"
              }
            ]
          }
        ]
      },
      {
        "alternatives": [
          {
            "confidence": 0.89533246,
            "transcript": " girl laughing at him",
            "words": [
              {
                "endTime": "63.500s",
                "startTime": "62.900s",
                "word": "girl"
              },
              {
                "endTime": "63.800s",
                "startTime": "63.500s",
                "word": "laughing"
              },
              {
                "endTime": "64.200s",
                "startTime": "63.800s",
                "word": "at"
              },
              {
                "endTime": "64.400s",
                "startTime": "64.200s",
                "word": "him"
              }
            ]
          }
        ]
      },
      {
        "alternatives": [
          {
            "confidence": 0.8651535,
            "transcript": " cookies in the cookie jar with the lid off",
            "words": [
              {
                "endTime": "66.400s",
                "startTime": "65.800s",
                "word": "cookies"
              },
              {
                "endTime": "66.600s",
                "startTime": "66.400s",
                "word": "in"
              },
              {
                "endTime": "66.600s",
                "startTime": "66.600s",
                "word": "the"
              },
              {
                "endTime": "66.800s",
                "startTime": "66.600s",
                "word": "cookie"
              },
              {
                "endTime": "67.100s",
                "startTime": "66.800s",
                "word": "jar"
              },
              {
                "endTime": "67.600s",
                "startTime": "67.100s",
                "word": "with"
              },
              {
                "endTime": "67.600s",
                "startTime": "67.600s",
                "word": "the"
              },
              {
                "endTime": "67.900s",
                "startTime": "67.600s",
                "word": "lid"
              },
              {
                "endTime": "68s",
                "startTime": "67.900s",
                "word": "off"
              }
            ]
          }
        ]
      },
      {
        "alternatives": [
          {
            "confidence": 0.8902019,
            "transcript": " he has a cookie in his hand",
            "words": [
              {
                "endTime": "70s",
                "startTime": "69.600s",
                "word": "he"
              },
              {
                "endTime": "70.300s",
                "startTime": "70s",
                "word": "has"
              },
              {
                "endTime": "70.400s",
                "startTime": "70.300s",
                "word": "a"
              },
              {
                "endTime": "70.700s",
                "startTime": "70.400s",
                "word": "cookie"
              },
              {
                "endTime": "70.900s",
                "startTime": "70.700s",
                "word": "in"
              },
              {
                "endTime": "71s",
                "startTime": "70.900s",
                "word": "his"
              },
              {
                "endTime": "71.500s",
                "startTime": "71s",
                "word": "hand"
              }
            ]
          }
        ]
      }
    ]
  }
}
