{
  "done": true,
  "metadata": {
    "@type": "type.googleapis.com/google.cloud.speech.v1.LongRunningRecognizeMetadata",
    "lastUpdateTime": "2021-03-10T10:03:25.260266Z",
    "progressPercent": 100,
    "startTime": "2021-03-10T10:03:16.790603Z",
    "uri": "gs://adresso/ADReSSo21-diagnosis-train/diagnosis/train/audio/ad/adrso039.wav"
  },
  "name": "3999023695252909418",
  "response": {
    "@type": "type.googleapis.com/google.cloud.speech.v1.LongRunningRecognizeResponse",
    "results": [
      {
        "alternatives": [
          {
            "confidence": 0.5768398,
            "transcript": "phone",
            "words": [
              {
                "endTime": "3.900s",
                "startTime": "0.800s",
                "word": "phone"
              }
            ]
          }
        ]
      },
      {
        "alternatives": [
          {
            "confidence": 0.6883119,
            "transcript": "anything else",
            "words": [
              {
                "endTime": "46.100s",
                "startTime": "45.300s",
                "word": "anything"
              },
              {
                "endTime": "46.300s",
                "startTime": "46.100s",
                "word": "else"
              }
            ]
          }
        ]
      },
      {
        "alternatives": [
          {
            "confidence": 0.65302813,
            "transcript": " okay",
            "words": [
              {
                "endTime": "70.100s",
                "startTime": "69.200s",
                "word": "okay"
              }
            ]
          }
        ]
      }
    ]
  }
}
