{
  "done": true,
  "metadata": {
    "@type": "type.googleapis.com/google.cloud.speech.v1.LongRunningRecognizeMetadata",
    "lastUpdateTime": "2021-03-10T10:03:42.709015Z",
    "progressPercent": 100,
    "startTime": "2021-03-10T10:03:23.454438Z",
    "uri": "gs://adresso/ADReSSo21-diagnosis-train/diagnosis/train/audio/ad/adrso047.wav"
  },
  "name": "4913703974049213125",
  "response": {
    "@type": "type.googleapis.com/google.cloud.speech.v1.LongRunningRecognizeResponse",
    "results": [
      {
        "alternatives": [
          {
            "confidence": 0.9389839,
            "transcript": "but yeah she's washing dishes pleaded right here to wash the dishes this man here he's he's trying to put the food in that and that proper job and this young lady here she know he's taking it out he was taking it out and we can reach it to her but he's falling",
            "words": [
              {
                "endTime": "1s",
                "startTime": "0.600s",
                "word": "but"
              },
              {
                "endTime": "1.100s",
                "startTime": "1s",
                "word": "yeah"
              },
              {
                "endTime": "1.400s",
                "startTime": "1.100s",
                "word": "she's"
              },
              {
                "endTime": "2s",
                "startTime": "1.400s",
                "word": "washing"
              },
              {
                "endTime": "2.400s",
                "startTime": "2s",
                "word": "dishes"
              },
              {
                "endTime": "3.700s",
                "startTime": "2.400s",
                "word": "pleaded"
              },
              {
                "endTime": "3.800s",
                "startTime": "3.700s",
                "word": "right"
              },
              {
                "endTime": "4s",
                "startTime": "3.800s",
                "word": "here"
              },
              {
                "endTime": "4.200s",
                "startTime": "4s",
                "word": "to"
              },
              {
                "endTime": "4.300s",
                "startTime": "4.200s",
                "word": "wash"
              },
              {
                "endTime": "4.500s",
                "startTime": "4.300s",
                "word": "the"
              },
              {
                "endTime": "4.600s",
                "startTime": "4.500s",
                "word": "dishes"
              },
              {
                "endTime": "5.700s",
                "startTime": "4.600s",
                "word": "this"
              },
              {
                "endTime": "6.300s",
                "startTime": "5.700s",
                "word": "man"
              },
              {
                "endTime": "6.600s",
                "startTime": "6.300s",
                "word": "here"
              },
              {
                "endTime": "7.400s",
                "startTime": "6.600s",
                "word": "he's"
              },
              {
                "endTime": "8.200s",
                "startTime": "7.400s",
                "word": "he's"
              },
              {
                "endTime": "8.600s",
                "startTime": "8.200s",
                "word": "trying"
              },
              {
                "endTime": "8.700s",
                "startTime": "8.600s",
                "word": "to"
              },
              {
                "endTime": "8.900s",
                "startTime": "8.700s",
                "word": "put"
              },
              {
                "endTime": "10.400s",
                "startTime": "8.900s",
                "word": "the"
              },
              {
                "endTime": "10.600s",
                "startTime": "10.400s",
                "word": "food"
              },
              {
                "endTime": "11s",
                "startTime": "10.600s",
                "word": "in"
              },
              {
                "endTime": "11.200s",
                "startTime": "11s",
                "word": "that"
              },
              {
                "endTime": "11.700s",
                "startTime": "11.200s",
                "word": "and"
              },
              {
                "endTime": "11.800s",
                "startTime": "11.700s",
                "word": "that"
              },
              {
                "endTime": "12.200s",
                "startTime": "11.800s",
                "word": "proper"
              },
              {
                "endTime": "12.600s",
                "startTime": "12.200s",
                "word": "job"
              },
              {
                "endTime": "13.500s",
                "startTime": "12.600s",
                "word": "and"
              },
              {
                "endTime": "13.600s",
                "startTime": "13.500s",
                "word": "this"
              },
              {
                "endTime": "13.800s",
                "startTime": "13.600s",
                "word": "young"
              },
              {
                "endTime": "14.100s",
                "startTime": "13.800s",
                "word": "lady"
              },
              {
                "endTime": "14.300s",
                "startTime": "14.100s",
                "word": "here"
              },
              {
                "endTime": "15.300s",
                "startTime": "14.300s",
                "word": "she"
              },
              {
                "endTime": "15.700s",
                "startTime": "15.300s",
                "word": "know"
              },
              {
                "endTime": "16s",
                "startTime": "15.700s",
                "word": "he's"
              },
              {
                "endTime": "16.300s",
                "startTime": "16s",
                "word": "taking"
              },
              {
                "endTime": "16.400s",
                "startTime": "16.300s",
                "word": "it"
              },
              {
                "endTime": "16.600s",
                "startTime": "16.400s",
                "word": "out"
              },
              {
                "endTime": "17.700s",
                "startTime": "16.600s",
                "word": "he"
              },
              {
                "endTime": "17.900s",
                "startTime": "17.700s",
                "word": "was"
              },
              {
                "endTime": "18.100s",
                "startTime": "17.900s",
                "word": "taking"
              },
              {
                "endTime": "18.200s",
                "startTime": "18.100s",
                "word": "it"
              },
              {
                "endTime": "18.300s",
                "startTime": "18.200s",
                "word": "out"
              },
              {
                "endTime": "19.400s",
                "startTime": "18.300s",
                "word": "and"
              },
              {
                "endTime": "24.800s",
                "startTime": "19.400s",
                "word": "we"
              },
              {
                "endTime": "24.800s",
                "startTime": "24.800s",
                "word": "can"
              },
              {
                "endTime": "25.400s",
                "startTime": "24.800s",
                "word": "reach"
              },
              {
                "endTime": "25.500s",
                "startTime": "25.400s",
                "word": "it"
              },
              {
                "endTime": "25.500s",
                "startTime": "25.500s",
                "word": "to"
              },
              {
                "endTime": "25.700s",
                "startTime": "25.500s",
                "word": "her"
              },
              {
                "endTime": "26.400s",
                "startTime": "25.700s",
                "word": "but"
              },
              {
                "endTime": "26.700s",
                "startTime": "26.400s",
                "word": "he's"
              },
              {
                "endTime": "27.300s",
                "startTime": "26.700s",
                "word": "falling"
              }
            ]
          }
        ]
      },
      {
        "alternatives": [
          {
            "confidence": 0.863083,
            "transcript": " he's falling.",
            "words": [
              {
                "endTime": "29.200s",
                "startTime": "28.700s",
                "word": "he's"
              },
              {
                "endTime": "30.400s",
                "startTime": "29.200s",
                "word": "falling."
              }
            ]
          }
        ]
      },
      {
        "alternatives": [
          {
            "confidence": 0.935385,
            "transcript": " anything else",
            "words": [
              {
                "endTime": "36.300s",
                "startTime": "35.600s",
                "word": "anything"
              },
              {
                "endTime": "36.500s",
                "startTime": "36.300s",
                "word": "else"
              }
            ]
          }
        ]
      },
      {
        "alternatives": [
          {
            "confidence": 0.6599194,
            "transcript": " did Lily water speak dead running",
            "words": [
              {
                "endTime": "39.700s",
                "startTime": "39.300s",
                "word": "did"
              },
              {
                "endTime": "39.900s",
                "startTime": "39.700s",
                "word": "Lily"
              },
              {
                "endTime": "40.400s",
                "startTime": "39.900s",
                "word": "water"
              },
              {
                "endTime": "40.700s",
                "startTime": "40.400s",
                "word": "speak"
              },
              {
                "endTime": "40.900s",
                "startTime": "40.700s",
                "word": "dead"
              },
              {
                "endTime": "41.200s",
                "startTime": "40.900s",
                "word": "running"
              }
            ]
          }
        ]
      },
      {
        "alternatives": [
          {
            "confidence": 0.590776,
            "transcript": " indicating any shades",
            "words": [
              {
                "endTime": "47.700s",
                "startTime": "46.700s",
                "word": "indicating"
              },
              {
                "endTime": "49.200s",
                "startTime": "47.700s",
                "word": "any"
              },
              {
                "endTime": "50s",
                "startTime": "49.200s",
                "word": "shades"
              }
            ]
          }
        ]
      },
      {
        "alternatives": [
          {
            "confidence": 0.5150161,
            "transcript": " cups place door",
            "words": [
              {
                "endTime": "51.400s",
                "startTime": "50.800s",
                "word": "cups"
              },
              {
                "endTime": "52.500s",
                "startTime": "51.400s",
                "word": "place"
              },
              {
                "endTime": "53.500s",
                "startTime": "52.500s",
                "word": "door"
              }
            ]
          }
        ]
      },
      {
        "alternatives": [
          {
            "confidence": 0.8955276,
            "transcript": " closet doors",
            "words": [
              {
                "endTime": "56.500s",
                "startTime": "55.400s",
                "word": "closet"
              },
              {
                "endTime": "57s",
                "startTime": "56.500s",
                "word": "doors"
              }
            ]
          }
        ]
      },
      {
        "alternatives": [
          {
            "confidence": 0.9229243,
            "transcript": " okay",
            "words": [
              {
                "endTime": "59.400s",
                "startTime": "58.600s",
                "word": "okay"
              }
            ]
          }
        ]
      }
    ]
  }
}
