{
  "done": true,
  "metadata": {
    "@type": "type.googleapis.com/google.cloud.speech.v1.LongRunningRecognizeMetadata",
    "lastUpdateTime": "2021-03-10T10:03:47.401628Z",
    "progressPercent": 100,
    "startTime": "2021-03-10T10:03:36.656139Z",
    "uri": "gs://adresso/ADReSSo21-diagnosis-train/diagnosis/train/audio/ad/adrso063.wav"
  },
  "name": "8540126014908587790",
  "response": {
    "@type": "type.googleapis.com/google.cloud.speech.v1.LongRunningRecognizeResponse",
    "results": [
      {
        "alternatives": [
          {
            "confidence": 0.93368006,
            "transcript": "tell me what's going on",
            "words": [
              {
                "endTime": "2.700s",
                "startTime": "0s",
                "word": "tell"
              },
              {
                "endTime": "2.900s",
                "startTime": "2.700s",
                "word": "me"
              },
              {
                "endTime": "3.100s",
                "startTime": "2.900s",
                "word": "what's"
              },
              {
                "endTime": "3.300s",
                "startTime": "3.100s",
                "word": "going"
              },
              {
                "endTime": "3.500s",
                "startTime": "3.300s",
                "word": "on"
              }
            ]
          }
        ]
      },
      {
        "alternatives": [
          {
            "confidence": 0.7057867,
            "transcript": " please tell me what you see happening with the",
            "words": [
              {
                "endTime": "6.400s",
                "startTime": "6s",
                "word": "please"
              },
              {
                "endTime": "6.600s",
                "startTime": "6.400s",
                "word": "tell"
              },
              {
                "endTime": "6.700s",
                "startTime": "6.600s",
                "word": "me"
              },
              {
                "endTime": "7s",
                "startTime": "6.700s",
                "word": "what"
              },
              {
                "endTime": "7s",
                "startTime": "7s",
                "word": "you"
              },
              {
                "endTime": "7.200s",
                "startTime": "7s",
                "word": "see"
              },
              {
                "endTime": "7.500s",
                "startTime": "7.200s",
                "word": "happening"
              },
              {
                "endTime": "7.900s",
                "startTime": "7.500s",
                "word": "with"
              },
              {
                "endTime": "8s",
                "startTime": "7.900s",
                "word": "the"
              }
            ]
          }
        ]
      },
      {
        "alternatives": [
          {
            "confidence": 0.8694662,
            "transcript": " cookie jar",
            "words": [
              {
                "endTime": "16.700s",
                "startTime": "14.900s",
                "word": "cookie"
              },
              {
                "endTime": "16.900s",
                "startTime": "16.700s",
                "word": "jar"
              }
            ]
          }
        ]
      },
      {
        "alternatives": [
          {
            "confidence": 0.7872502,
            "transcript": " they or he is tough we know",
            "words": [
              {
                "endTime": "19.600s",
                "startTime": "19s",
                "word": "they"
              },
              {
                "endTime": "20.600s",
                "startTime": "19.600s",
                "word": "or"
              },
              {
                "endTime": "20.800s",
                "startTime": "20.600s",
                "word": "he"
              },
              {
                "endTime": "21s",
                "startTime": "20.800s",
                "word": "is"
              },
              {
                "endTime": "21.700s",
                "startTime": "21s",
                "word": "tough"
              },
              {
                "endTime": "21.900s",
                "startTime": "21.700s",
                "word": "we"
              },
              {
                "endTime": "22.100s",
                "startTime": "21.900s",
                "word": "know"
              }
            ]
          }
        ]
      },
      {
        "alternatives": [
          {
            "confidence": 0.8148704,
            "transcript": " they stole",
            "words": [
              {
                "endTime": "25.100s",
                "startTime": "24.700s",
                "word": "they"
              },
              {
                "endTime": "25.400s",
                "startTime": "25.100s",
                "word": "stole"
              }
            ]
          }
        ]
      },
      {
        "alternatives": [
          {
            "confidence": 0.96802247,
            "transcript": " and they",
            "words": [
              {
                "endTime": "27.600s",
                "startTime": "27.100s",
                "word": "and"
              },
              {
                "endTime": "27.800s",
                "startTime": "27.600s",
                "word": "they"
              }
            ]
          }
        ]
      },
      {
        "alternatives": [
          {
            "confidence": 0.8883727,
            "transcript": " mother",
            "words": [
              {
                "endTime": "31s",
                "startTime": "30.400s",
                "word": "mother"
              }
            ]
          }
        ]
      },
      {
        "alternatives": [
          {
            "confidence": 0.75377053,
            "transcript": " distilling Lee water",
            "words": [
              {
                "endTime": "33.700s",
                "startTime": "32.700s",
                "word": "distilling"
              },
              {
                "endTime": "34.100s",
                "startTime": "33.700s",
                "word": "Lee"
              },
              {
                "endTime": "34.900s",
                "startTime": "34.100s",
                "word": "water"
              }
            ]
          }
        ]
      },
      {
        "alternatives": [
          {
            "confidence": 0.83828557,
            "transcript": " and the",
            "words": [
              {
                "endTime": "38.900s",
                "startTime": "38.200s",
                "word": "and"
              },
              {
                "endTime": "39.700s",
                "startTime": "38.900s",
                "word": "the"
              }
            ]
          }
        ]
      }
    ]
  }
}
