{
  "done": true,
  "metadata": {
    "@type": "type.googleapis.com/google.cloud.speech.v1.LongRunningRecognizeMetadata",
    "lastUpdateTime": "2021-03-10T10:05:16.109123Z",
    "progressPercent": 100,
    "startTime": "2021-03-10T10:04:56.460805Z",
    "uri": "gs://adresso/ADReSSo21-diagnosis-train/diagnosis/train/audio/ad/adrso232.wav"
  },
  "name": "3540588741353178498",
  "response": {
    "@type": "type.googleapis.com/google.cloud.speech.v1.LongRunningRecognizeResponse",
    "results": [
      {
        "alternatives": [
          {
            "confidence": 0.8996163,
            "transcript": "I would like for you to take a look at this picture",
            "words": [
              {
                "endTime": "0.500s",
                "startTime": "0.400s",
                "word": "I"
              },
              {
                "endTime": "0.800s",
                "startTime": "0.500s",
                "word": "would"
              },
              {
                "endTime": "1s",
                "startTime": "0.800s",
                "word": "like"
              },
              {
                "endTime": "1.200s",
                "startTime": "1s",
                "word": "for"
              },
              {
                "endTime": "1.400s",
                "startTime": "1.200s",
                "word": "you"
              },
              {
                "endTime": "1.400s",
                "startTime": "1.400s",
                "word": "to"
              },
              {
                "endTime": "1.700s",
                "startTime": "1.400s",
                "word": "take"
              },
              {
                "endTime": "1.800s",
                "startTime": "1.700s",
                "word": "a"
              },
              {
                "endTime": "2s",
                "startTime": "1.800s",
                "word": "look"
              },
              {
                "endTime": "2.200s",
                "startTime": "2s",
                "word": "at"
              },
              {
                "endTime": "2.300s",
                "startTime": "2.200s",
                "word": "this"
              },
              {
                "endTime": "2.800s",
                "startTime": "2.300s",
                "word": "picture"
              }
            ]
          }
        ]
      },
      {
        "alternatives": [
          {
            "confidence": 0.96950054,
            "transcript": " I want you to tell me everything that you see happening in there everything is going on in that picture",
            "words": [
              {
                "endTime": "4.500s",
                "startTime": "4.100s",
                "word": "I"
              },
              {
                "endTime": "4.700s",
                "startTime": "4.500s",
                "word": "want"
              },
              {
                "endTime": "4.900s",
                "startTime": "4.700s",
                "word": "you"
              },
              {
                "endTime": "5s",
                "startTime": "4.900s",
                "word": "to"
              },
              {
                "endTime": "5.300s",
                "startTime": "5s",
                "word": "tell"
              },
              {
                "endTime": "5.400s",
                "startTime": "5.300s",
                "word": "me"
              },
              {
                "endTime": "5.500s",
                "startTime": "5.400s",
                "word": "everything"
              },
              {
                "endTime": "6.100s",
                "startTime": "5.500s",
                "word": "that"
              },
              {
                "endTime": "6.200s",
                "startTime": "6.100s",
                "word": "you"
              },
              {
                "endTime": "6.500s",
                "startTime": "6.200s",
                "word": "see"
              },
              {
                "endTime": "6.900s",
                "startTime": "6.500s",
                "word": "happening"
              },
              {
                "endTime": "7.300s",
                "startTime": "6.900s",
                "word": "in"
              },
              {
                "endTime": "7.500s",
                "startTime": "7.300s",
                "word": "there"
              },
              {
                "endTime": "8.300s",
                "startTime": "7.500s",
                "word": "everything"
              },
              {
                "endTime": "8.500s",
                "startTime": "8.300s",
                "word": "is"
              },
              {
                "endTime": "8.900s",
                "startTime": "8.500s",
                "word": "going"
              },
              {
                "endTime": "9s",
                "startTime": "8.900s",
                "word": "on"
              },
              {
                "endTime": "9.300s",
                "startTime": "9s",
                "word": "in"
              },
              {
                "endTime": "9.500s",
                "startTime": "9.300s",
                "word": "that"
              },
              {
                "endTime": "9.800s",
                "startTime": "9.500s",
                "word": "picture"
              }
            ]
          }
        ]
      },
      {
        "alternatives": [
          {
            "confidence": 0.88622266,
            "transcript": " really it looks like a woman I assume she's drying dish",
            "words": [
              {
                "endTime": "12.300s",
                "startTime": "11.600s",
                "word": "really"
              },
              {
                "endTime": "12.600s",
                "startTime": "12.300s",
                "word": "it"
              },
              {
                "endTime": "12.800s",
                "startTime": "12.600s",
                "word": "looks"
              },
              {
                "endTime": "13.100s",
                "startTime": "12.800s",
                "word": "like"
              },
              {
                "endTime": "13.200s",
                "startTime": "13.100s",
                "word": "a"
              },
              {
                "endTime": "13.400s",
                "startTime": "13.200s",
                "word": "woman"
              },
              {
                "endTime": "15s",
                "startTime": "13.400s",
                "word": "I"
              },
              {
                "endTime": "16s",
                "startTime": "15s",
                "word": "assume"
              },
              {
                "endTime": "16.700s",
                "startTime": "16s",
                "word": "she's"
              },
              {
                "endTime": "17.100s",
                "startTime": "16.700s",
                "word": "drying"
              },
              {
                "endTime": "17.600s",
                "startTime": "17.100s",
                "word": "dish"
              }
            ]
          }
        ]
      },
      {
        "alternatives": [
          {
            "confidence": 0.82846844,
            "transcript": " there's a window open",
            "words": [
              {
                "endTime": "22.100s",
                "startTime": "20.200s",
                "word": "there's"
              },
              {
                "endTime": "22.200s",
                "startTime": "22.100s",
                "word": "a"
              },
              {
                "endTime": "22.900s",
                "startTime": "22.200s",
                "word": "window"
              },
              {
                "endTime": "23.400s",
                "startTime": "22.900s",
                "word": "open"
              }
            ]
          }
        ]
      },
      {
        "alternatives": [
          {
            "confidence": 0.7863554,
            "transcript": " the kitchen it is efficient",
            "words": [
              {
                "endTime": "25.100s",
                "startTime": "24.600s",
                "word": "the"
              },
              {
                "endTime": "25.600s",
                "startTime": "25.100s",
                "word": "kitchen"
              },
              {
                "endTime": "26.200s",
                "startTime": "25.600s",
                "word": "it"
              },
              {
                "endTime": "26.400s",
                "startTime": "26.200s",
                "word": "is"
              },
              {
                "endTime": "27s",
                "startTime": "26.400s",
                "word": "efficient"
              }
            ]
          }
        ]
      },
      {
        "alternatives": [
          {
            "confidence": 0.9570077,
            "transcript": " there is a child reaching for a cookie from the cookie jar",
            "words": [
              {
                "endTime": "30.300s",
                "startTime": "28.700s",
                "word": "there"
              },
              {
                "endTime": "30.400s",
                "startTime": "30.300s",
                "word": "is"
              },
              {
                "endTime": "30.500s",
                "startTime": "30.400s",
                "word": "a"
              },
              {
                "endTime": "30.700s",
                "startTime": "30.500s",
                "word": "child"
              },
              {
                "endTime": "32.500s",
                "startTime": "30.700s",
                "word": "reaching"
              },
              {
                "endTime": "32.900s",
                "startTime": "32.500s",
                "word": "for"
              },
              {
                "endTime": "33.100s",
                "startTime": "32.900s",
                "word": "a"
              },
              {
                "endTime": "34.100s",
                "startTime": "33.100s",
                "word": "cookie"
              },
              {
                "endTime": "34.500s",
                "startTime": "34.100s",
                "word": "from"
              },
              {
                "endTime": "34.600s",
                "startTime": "34.500s",
                "word": "the"
              },
              {
                "endTime": "34.900s",
                "startTime": "34.600s",
                "word": "cookie"
              },
              {
                "endTime": "35s",
                "startTime": "34.900s",
                "word": "jar"
              }
            ]
          }
        ]
      },
      {
        "alternatives": [
          {
            "confidence": 0.642218,
            "transcript": " me",
            "words": [
              {
                "endTime": "37.100s",
                "startTime": "36.700s",
                "word": "me"
              }
            ]
          }
        ]
      },
      {
        "alternatives": [
          {
            "confidence": 0.7384822,
            "transcript": " ladder that is standing on is beginning to crawl",
            "words": [
              {
                "endTime": "40s",
                "startTime": "38.600s",
                "word": "ladder"
              },
              {
                "endTime": "40.400s",
                "startTime": "40s",
                "word": "that"
              },
              {
                "endTime": "40.500s",
                "startTime": "40.400s",
                "word": "is"
              },
              {
                "endTime": "41s",
                "startTime": "40.500s",
                "word": "standing"
              },
              {
                "endTime": "41.200s",
                "startTime": "41s",
                "word": "on"
              },
              {
                "endTime": "41.700s",
                "startTime": "41.200s",
                "word": "is"
              },
              {
                "endTime": "42.200s",
                "startTime": "41.700s",
                "word": "beginning"
              },
              {
                "endTime": "42.600s",
                "startTime": "42.200s",
                "word": "to"
              },
              {
                "endTime": "42.800s",
                "startTime": "42.600s",
                "word": "crawl"
              }
            ]
          }
        ]
      },
      {
        "alternatives": [
          {
            "confidence": 0.8851158,
            "transcript": " is little girl in the house",
            "words": [
              {
                "endTime": "47.100s",
                "startTime": "46.700s",
                "word": "is"
              },
              {
                "endTime": "47.400s",
                "startTime": "47.100s",
                "word": "little"
              },
              {
                "endTime": "47.800s",
                "startTime": "47.400s",
                "word": "girl"
              },
              {
                "endTime": "48.400s",
                "startTime": "47.800s",
                "word": "in"
              },
              {
                "endTime": "49.500s",
                "startTime": "48.400s",
                "word": "the"
              },
              {
                "endTime": "50s",
                "startTime": "49.500s",
                "word": "house"
              }
            ]
          }
        ]
      },
      {
        "alternatives": [
          {
            "confidence": 0.91292524,
            "transcript": " looks like mother has something",
            "words": [
              {
                "endTime": "55.300s",
                "startTime": "54.900s",
                "word": "looks"
              },
              {
                "endTime": "55.500s",
                "startTime": "55.300s",
                "word": "like"
              },
              {
                "endTime": "55.800s",
                "startTime": "55.500s",
                "word": "mother"
              },
              {
                "endTime": "56.100s",
                "startTime": "55.800s",
                "word": "has"
              },
              {
                "endTime": "56.500s",
                "startTime": "56.100s",
                "word": "something"
              }
            ]
          }
        ]
      },
      {
        "alternatives": [
          {
            "confidence": 0.89986277,
            "transcript": " text for dinner I guess it is",
            "words": [
              {
                "endTime": "58.200s",
                "startTime": "57.600s",
                "word": "text"
              },
              {
                "endTime": "58.400s",
                "startTime": "58.200s",
                "word": "for"
              },
              {
                "endTime": "59.400s",
                "startTime": "58.400s",
                "word": "dinner"
              },
              {
                "endTime": "59.600s",
                "startTime": "59.400s",
                "word": "I"
              },
              {
                "endTime": "59.800s",
                "startTime": "59.600s",
                "word": "guess"
              },
              {
                "endTime": "60s",
                "startTime": "59.800s",
                "word": "it"
              },
              {
                "endTime": "60s",
                "startTime": "60s",
                "word": "is"
              }
            ]
          }
        ]
      },
      {
        "alternatives": [
          {
            "confidence": 0.7229071,
            "transcript": " can you do that in the dishes she's dried I'm not sure",
            "words": [
              {
                "endTime": "63.900s",
                "startTime": "63.400s",
                "word": "can"
              },
              {
                "endTime": "64.100s",
                "startTime": "63.900s",
                "word": "you"
              },
              {
                "endTime": "64.400s",
                "startTime": "64.100s",
                "word": "do"
              },
              {
                "endTime": "64.600s",
                "startTime": "64.400s",
                "word": "that"
              },
              {
                "endTime": "64.800s",
                "startTime": "64.600s",
                "word": "in"
              },
              {
                "endTime": "65s",
                "startTime": "64.800s",
                "word": "the"
              },
              {
                "endTime": "65.600s",
                "startTime": "65s",
                "word": "dishes"
              },
              {
                "endTime": "65.900s",
                "startTime": "65.600s",
                "word": "she's"
              },
              {
                "endTime": "66.400s",
                "startTime": "65.900s",
                "word": "dried"
              },
              {
                "endTime": "66.600s",
                "startTime": "66.400s",
                "word": "I'm"
              },
              {
                "endTime": "66.800s",
                "startTime": "66.600s",
                "word": "not"
              },
              {
                "endTime": "67.100s",
                "startTime": "66.800s",
                "word": "sure"
              }
            ]
          }
        ]
      },
      {
        "alternatives": [
          {
            "confidence": 0.97552294,
            "transcript": " there's water running over the sink",
            "words": [
              {
                "endTime": "69.400s",
                "startTime": "68.900s",
                "word": "there's"
              },
              {
                "endTime": "69.600s",
                "startTime": "69.400s",
                "word": "water"
              },
              {
                "endTime": "70s",
                "startTime": "69.600s",
                "word": "running"
              },
              {
                "endTime": "70.200s",
                "startTime": "70s",
                "word": "over"
              },
              {
                "endTime": "71.100s",
                "startTime": "70.200s",
                "word": "the"
              },
              {
                "endTime": "71.500s",
                "startTime": "71.100s",
                "word": "sink"
              }
            ]
          }
        ]
      },
      {
        "alternatives": [
          {
            "confidence": 0.75781834,
            "transcript": " I guess that's not here",
            "words": [
              {
                "endTime": "84.500s",
                "startTime": "83.600s",
                "word": "I"
              },
              {
                "endTime": "84.800s",
                "startTime": "84.500s",
                "word": "guess"
              },
              {
                "endTime": "85s",
                "startTime": "84.800s",
                "word": "that's"
              },
              {
                "endTime": "85.100s",
                "startTime": "85s",
                "word": "not"
              },
              {
                "endTime": "85.500s",
                "startTime": "85.100s",
                "word": "here"
              }
            ]
          }
        ]
      }
    ]
  }
}
