{
  "done": true,
  "metadata": {
    "@type": "type.googleapis.com/google.cloud.speech.v1.LongRunningRecognizeMetadata",
    "lastUpdateTime": "2021-03-10T10:04:31.909776Z",
    "progressPercent": 100,
    "startTime": "2021-03-10T10:04:16.923964Z",
    "uri": "gs://adresso/ADReSSo21-diagnosis-train/diagnosis/train/audio/ad/adrso138.wav"
  },
  "name": "3722732364827842843",
  "response": {
    "@type": "type.googleapis.com/google.cloud.speech.v1.LongRunningRecognizeResponse",
    "results": [
      {
        "alternatives": [
          {
            "confidence": 0.9213877,
            "transcript": "and tell me everything that you see happening in that picture everything that is going on in there",
            "words": [
              {
                "endTime": "1.100s",
                "startTime": "0s",
                "word": "and"
              },
              {
                "endTime": "1.200s",
                "startTime": "1.100s",
                "word": "tell"
              },
              {
                "endTime": "1.500s",
                "startTime": "1.200s",
                "word": "me"
              },
              {
                "endTime": "2s",
                "startTime": "1.500s",
                "word": "everything"
              },
              {
                "endTime": "2s",
                "startTime": "2s",
                "word": "that"
              },
              {
                "endTime": "2.300s",
                "startTime": "2s",
                "word": "you"
              },
              {
                "endTime": "2.500s",
                "startTime": "2.300s",
                "word": "see"
              },
              {
                "endTime": "2.900s",
                "startTime": "2.500s",
                "word": "happening"
              },
              {
                "endTime": "3.300s",
                "startTime": "2.900s",
                "word": "in"
              },
              {
                "endTime": "3.400s",
                "startTime": "3.300s",
                "word": "that"
              },
              {
                "endTime": "3.800s",
                "startTime": "3.400s",
                "word": "picture"
              },
              {
                "endTime": "4.500s",
                "startTime": "3.800s",
                "word": "everything"
              },
              {
                "endTime": "4.700s",
                "startTime": "4.500s",
                "word": "that"
              },
              {
                "endTime": "4.800s",
                "startTime": "4.700s",
                "word": "is"
              },
              {
                "endTime": "5s",
                "startTime": "4.800s",
                "word": "going"
              },
              {
                "endTime": "5.400s",
                "startTime": "5s",
                "word": "on"
              },
              {
                "endTime": "5.700s",
                "startTime": "5.400s",
                "word": "in"
              },
              {
                "endTime": "6s",
                "startTime": "5.700s",
                "word": "there"
              }
            ]
          }
        ]
      },
      {
        "alternatives": [
          {
            "confidence": 0.9325381,
            "transcript": " what do you see happening do you want me to bite the mother is doing washing the dishes and little boy is trying to get the cookies up the cookie jar of the cookie jar girl with him",
            "words": [
              {
                "endTime": "15.200s",
                "startTime": "14.800s",
                "word": "what"
              },
              {
                "endTime": "15.200s",
                "startTime": "15.200s",
                "word": "do"
              },
              {
                "endTime": "15.300s",
                "startTime": "15.200s",
                "word": "you"
              },
              {
                "endTime": "15.500s",
                "startTime": "15.300s",
                "word": "see"
              },
              {
                "endTime": "15.800s",
                "startTime": "15.500s",
                "word": "happening"
              },
              {
                "endTime": "16.300s",
                "startTime": "15.800s",
                "word": "do"
              },
              {
                "endTime": "16.500s",
                "startTime": "16.300s",
                "word": "you"
              },
              {
                "endTime": "16.600s",
                "startTime": "16.500s",
                "word": "want"
              },
              {
                "endTime": "16.700s",
                "startTime": "16.600s",
                "word": "me"
              },
              {
                "endTime": "16.800s",
                "startTime": "16.700s",
                "word": "to"
              },
              {
                "endTime": "20.100s",
                "startTime": "16.800s",
                "word": "bite"
              },
              {
                "endTime": "20.300s",
                "startTime": "20.100s",
                "word": "the"
              },
              {
                "endTime": "20.600s",
                "startTime": "20.300s",
                "word": "mother"
              },
              {
                "endTime": "20.800s",
                "startTime": "20.600s",
                "word": "is"
              },
              {
                "endTime": "21s",
                "startTime": "20.800s",
                "word": "doing"
              },
              {
                "endTime": "22.200s",
                "startTime": "21s",
                "word": "washing"
              },
              {
                "endTime": "22.500s",
                "startTime": "22.200s",
                "word": "the"
              },
              {
                "endTime": "22.800s",
                "startTime": "22.500s",
                "word": "dishes"
              },
              {
                "endTime": "24.200s",
                "startTime": "22.800s",
                "word": "and"
              },
              {
                "endTime": "25.200s",
                "startTime": "24.200s",
                "word": "little"
              },
              {
                "endTime": "25.500s",
                "startTime": "25.200s",
                "word": "boy"
              },
              {
                "endTime": "25.900s",
                "startTime": "25.500s",
                "word": "is"
              },
              {
                "endTime": "28.500s",
                "startTime": "25.900s",
                "word": "trying"
              },
              {
                "endTime": "28.700s",
                "startTime": "28.500s",
                "word": "to"
              },
              {
                "endTime": "28.900s",
                "startTime": "28.700s",
                "word": "get"
              },
              {
                "endTime": "29s",
                "startTime": "28.900s",
                "word": "the"
              },
              {
                "endTime": "29.600s",
                "startTime": "29s",
                "word": "cookies"
              },
              {
                "endTime": "29.800s",
                "startTime": "29.600s",
                "word": "up"
              },
              {
                "endTime": "30.200s",
                "startTime": "29.800s",
                "word": "the"
              },
              {
                "endTime": "30.700s",
                "startTime": "30.200s",
                "word": "cookie"
              },
              {
                "endTime": "31s",
                "startTime": "30.700s",
                "word": "jar"
              },
              {
                "endTime": "31.500s",
                "startTime": "31s",
                "word": "of"
              },
              {
                "endTime": "31.600s",
                "startTime": "31.500s",
                "word": "the"
              },
              {
                "endTime": "32.100s",
                "startTime": "31.600s",
                "word": "cookie"
              },
              {
                "endTime": "32.300s",
                "startTime": "32.100s",
                "word": "jar"
              },
              {
                "endTime": "34.700s",
                "startTime": "32.300s",
                "word": "girl"
              },
              {
                "endTime": "34.900s",
                "startTime": "34.700s",
                "word": "with"
              },
              {
                "endTime": "35.200s",
                "startTime": "34.900s",
                "word": "him"
              }
            ]
          }
        ]
      },
      {
        "alternatives": [
          {
            "confidence": 0.8506119,
            "transcript": " and the other video",
            "words": [
              {
                "endTime": "36.800s",
                "startTime": "36.200s",
                "word": "and"
              },
              {
                "endTime": "37s",
                "startTime": "36.800s",
                "word": "the"
              },
              {
                "endTime": "37.200s",
                "startTime": "37s",
                "word": "other"
              },
              {
                "endTime": "38.300s",
                "startTime": "37.200s",
                "word": "video"
              }
            ]
          }
        ]
      },
      {
        "alternatives": [
          {
            "confidence": 0.8612599,
            "transcript": " the band sure what do you call it when his looks like it's going to fall",
            "words": [
              {
                "endTime": "41.100s",
                "startTime": "40.600s",
                "word": "the"
              },
              {
                "endTime": "43.500s",
                "startTime": "41.100s",
                "word": "band"
              },
              {
                "endTime": "43.700s",
                "startTime": "43.500s",
                "word": "sure"
              },
              {
                "endTime": "44.200s",
                "startTime": "43.700s",
                "word": "what"
              },
              {
                "endTime": "44.200s",
                "startTime": "44.200s",
                "word": "do"
              },
              {
                "endTime": "44.300s",
                "startTime": "44.200s",
                "word": "you"
              },
              {
                "endTime": "44.600s",
                "startTime": "44.300s",
                "word": "call"
              },
              {
                "endTime": "44.700s",
                "startTime": "44.600s",
                "word": "it"
              },
              {
                "endTime": "44.900s",
                "startTime": "44.700s",
                "word": "when"
              },
              {
                "endTime": "46.100s",
                "startTime": "44.900s",
                "word": "his"
              },
              {
                "endTime": "47.100s",
                "startTime": "46.100s",
                "word": "looks"
              },
              {
                "endTime": "47.100s",
                "startTime": "47.100s",
                "word": "like"
              },
              {
                "endTime": "47.400s",
                "startTime": "47.100s",
                "word": "it's"
              },
              {
                "endTime": "47.600s",
                "startTime": "47.400s",
                "word": "going"
              },
              {
                "endTime": "47.600s",
                "startTime": "47.600s",
                "word": "to"
              },
              {
                "endTime": "47.700s",
                "startTime": "47.600s",
                "word": "fall"
              }
            ]
          }
        ]
      },
      {
        "alternatives": [
          {
            "confidence": 0.52266943,
            "transcript": " LOL",
            "words": [
              {
                "endTime": "50.500s",
                "startTime": "49.400s",
                "word": "LOL"
              }
            ]
          }
        ]
      },
      {
        "alternatives": [
          {
            "confidence": 0.7263803,
            "transcript": " but all I can see I'm his biggest",
            "words": [
              {
                "endTime": "57.300s",
                "startTime": "56.600s",
                "word": "but"
              },
              {
                "endTime": "57.500s",
                "startTime": "57.300s",
                "word": "all"
              },
              {
                "endTime": "57.600s",
                "startTime": "57.500s",
                "word": "I"
              },
              {
                "endTime": "57.800s",
                "startTime": "57.600s",
                "word": "can"
              },
              {
                "endTime": "58.100s",
                "startTime": "57.800s",
                "word": "see"
              },
              {
                "endTime": "58.600s",
                "startTime": "58.100s",
                "word": "I'm"
              },
              {
                "endTime": "59s",
                "startTime": "58.600s",
                "word": "his"
              },
              {
                "endTime": "59.300s",
                "startTime": "59s",
                "word": "biggest"
              }
            ]
          }
        ]
      },
      {
        "alternatives": [
          {
            "confidence": 0.98762906,
            "transcript": " breakfast",
            "words": [
              {
                "endTime": "62.800s",
                "startTime": "61.900s",
                "word": "breakfast"
              }
            ]
          }
        ]
      },
      {
        "alternatives": [
          {
            "confidence": 0.8895059,
            "transcript": " KFI",
            "words": [
              {
                "endTime": "68.900s",
                "startTime": "66.100s",
                "word": "KFI"
              }
            ]
          }
        ]
      }
    ]
  }
}
