{
  "done": true,
  "metadata": {
    "@type": "type.googleapis.com/google.cloud.speech.v1.LongRunningRecognizeMetadata",
    "lastUpdateTime": "2021-03-10T10:03:52.619894Z",
    "progressPercent": 100,
    "startTime": "2021-03-10T10:03:42.898052Z",
    "uri": "gs://adresso/ADReSSo21-diagnosis-train/diagnosis/train/audio/ad/adrso072.wav"
  },
  "name": "4682465414870896071",
  "response": {
    "@type": "type.googleapis.com/google.cloud.speech.v1.LongRunningRecognizeResponse",
    "results": [
      {
        "alternatives": [
          {
            "confidence": 0.9330518,
            "transcript": "tell me what's going on all the kids are taking cookies out of the cookie jar the other ones are holding her hand the jar is going to fall she's washing dishes and forgot to turn the sink off water is born all over the floor",
            "words": [
              {
                "endTime": "0.700s",
                "startTime": "0.300s",
                "word": "tell"
              },
              {
                "endTime": "0.800s",
                "startTime": "0.700s",
                "word": "me"
              },
              {
                "endTime": "1s",
                "startTime": "0.800s",
                "word": "what's"
              },
              {
                "endTime": "1.200s",
                "startTime": "1s",
                "word": "going"
              },
              {
                "endTime": "1.500s",
                "startTime": "1.200s",
                "word": "on"
              },
              {
                "endTime": "2.100s",
                "startTime": "1.500s",
                "word": "all"
              },
              {
                "endTime": "2.300s",
                "startTime": "2.100s",
                "word": "the"
              },
              {
                "endTime": "2.500s",
                "startTime": "2.300s",
                "word": "kids"
              },
              {
                "endTime": "2.600s",
                "startTime": "2.500s",
                "word": "are"
              },
              {
                "endTime": "3s",
                "startTime": "2.600s",
                "word": "taking"
              },
              {
                "endTime": "3.300s",
                "startTime": "3s",
                "word": "cookies"
              },
              {
                "endTime": "3.500s",
                "startTime": "3.300s",
                "word": "out"
              },
              {
                "endTime": "3.500s",
                "startTime": "3.500s",
                "word": "of"
              },
              {
                "endTime": "3.600s",
                "startTime": "3.500s",
                "word": "the"
              },
              {
                "endTime": "3.800s",
                "startTime": "3.600s",
                "word": "cookie"
              },
              {
                "endTime": "4.200s",
                "startTime": "3.800s",
                "word": "jar"
              },
              {
                "endTime": "4.400s",
                "startTime": "4.200s",
                "word": "the"
              },
              {
                "endTime": "4.600s",
                "startTime": "4.400s",
                "word": "other"
              },
              {
                "endTime": "4.800s",
                "startTime": "4.600s",
                "word": "ones"
              },
              {
                "endTime": "4.800s",
                "startTime": "4.800s",
                "word": "are"
              },
              {
                "endTime": "5.400s",
                "startTime": "4.800s",
                "word": "holding"
              },
              {
                "endTime": "5.500s",
                "startTime": "5.400s",
                "word": "her"
              },
              {
                "endTime": "5.900s",
                "startTime": "5.500s",
                "word": "hand"
              },
              {
                "endTime": "6.200s",
                "startTime": "5.900s",
                "word": "the"
              },
              {
                "endTime": "6.600s",
                "startTime": "6.200s",
                "word": "jar"
              },
              {
                "endTime": "6.700s",
                "startTime": "6.600s",
                "word": "is"
              },
              {
                "endTime": "6.900s",
                "startTime": "6.700s",
                "word": "going"
              },
              {
                "endTime": "6.900s",
                "startTime": "6.900s",
                "word": "to"
              },
              {
                "endTime": "7.400s",
                "startTime": "6.900s",
                "word": "fall"
              },
              {
                "endTime": "7.700s",
                "startTime": "7.400s",
                "word": "she's"
              },
              {
                "endTime": "8s",
                "startTime": "7.700s",
                "word": "washing"
              },
              {
                "endTime": "8.300s",
                "startTime": "8s",
                "word": "dishes"
              },
              {
                "endTime": "8.500s",
                "startTime": "8.300s",
                "word": "and"
              },
              {
                "endTime": "8.800s",
                "startTime": "8.500s",
                "word": "forgot"
              },
              {
                "endTime": "8.900s",
                "startTime": "8.800s",
                "word": "to"
              },
              {
                "endTime": "9.100s",
                "startTime": "8.900s",
                "word": "turn"
              },
              {
                "endTime": "9.300s",
                "startTime": "9.100s",
                "word": "the"
              },
              {
                "endTime": "9.600s",
                "startTime": "9.300s",
                "word": "sink"
              },
              {
                "endTime": "9.700s",
                "startTime": "9.600s",
                "word": "off"
              },
              {
                "endTime": "10.200s",
                "startTime": "9.700s",
                "word": "water"
              },
              {
                "endTime": "10.300s",
                "startTime": "10.200s",
                "word": "is"
              },
              {
                "endTime": "10.600s",
                "startTime": "10.300s",
                "word": "born"
              },
              {
                "endTime": "10.800s",
                "startTime": "10.600s",
                "word": "all"
              },
              {
                "endTime": "10.900s",
                "startTime": "10.800s",
                "word": "over"
              },
              {
                "endTime": "11.200s",
                "startTime": "10.900s",
                "word": "the"
              },
              {
                "endTime": "11.700s",
                "startTime": "11.200s",
                "word": "floor"
              }
            ]
          }
        ]
      },
      {
        "alternatives": [
          {
            "confidence": 0.8636452,
            "transcript": " the dishes are on sink that looks like a face laying in the yard where the grass is",
            "words": [
              {
                "endTime": "13.600s",
                "startTime": "13.200s",
                "word": "the"
              },
              {
                "endTime": "13.900s",
                "startTime": "13.600s",
                "word": "dishes"
              },
              {
                "endTime": "14s",
                "startTime": "13.900s",
                "word": "are"
              },
              {
                "endTime": "14.200s",
                "startTime": "14s",
                "word": "on"
              },
              {
                "endTime": "14.800s",
                "startTime": "14.200s",
                "word": "sink"
              },
              {
                "endTime": "15s",
                "startTime": "14.800s",
                "word": "that"
              },
              {
                "endTime": "15.200s",
                "startTime": "15s",
                "word": "looks"
              },
              {
                "endTime": "15.400s",
                "startTime": "15.200s",
                "word": "like"
              },
              {
                "endTime": "15.500s",
                "startTime": "15.400s",
                "word": "a"
              },
              {
                "endTime": "15.800s",
                "startTime": "15.500s",
                "word": "face"
              },
              {
                "endTime": "16.200s",
                "startTime": "15.800s",
                "word": "laying"
              },
              {
                "endTime": "16.300s",
                "startTime": "16.200s",
                "word": "in"
              },
              {
                "endTime": "16.400s",
                "startTime": "16.300s",
                "word": "the"
              },
              {
                "endTime": "16.500s",
                "startTime": "16.400s",
                "word": "yard"
              },
              {
                "endTime": "17.300s",
                "startTime": "16.500s",
                "word": "where"
              },
              {
                "endTime": "17.400s",
                "startTime": "17.300s",
                "word": "the"
              },
              {
                "endTime": "17.800s",
                "startTime": "17.400s",
                "word": "grass"
              },
              {
                "endTime": "17.900s",
                "startTime": "17.800s",
                "word": "is"
              }
            ]
          }
        ]
      },
      {
        "alternatives": [
          {
            "confidence": 0.8427094,
            "transcript": " every tell me everything is going on in the picture to call me when you're finished your hand up after it mom is washing dishes sinks running over",
            "words": [
              {
                "endTime": "21.700s",
                "startTime": "21.200s",
                "word": "every"
              },
              {
                "endTime": "21.900s",
                "startTime": "21.700s",
                "word": "tell"
              },
              {
                "endTime": "22s",
                "startTime": "21.900s",
                "word": "me"
              },
              {
                "endTime": "22.400s",
                "startTime": "22s",
                "word": "everything"
              },
              {
                "endTime": "22.500s",
                "startTime": "22.400s",
                "word": "is"
              },
              {
                "endTime": "22.700s",
                "startTime": "22.500s",
                "word": "going"
              },
              {
                "endTime": "23s",
                "startTime": "22.700s",
                "word": "on"
              },
              {
                "endTime": "23.200s",
                "startTime": "23s",
                "word": "in"
              },
              {
                "endTime": "23.300s",
                "startTime": "23.200s",
                "word": "the"
              },
              {
                "endTime": "23.500s",
                "startTime": "23.300s",
                "word": "picture"
              },
              {
                "endTime": "23.900s",
                "startTime": "23.500s",
                "word": "to"
              },
              {
                "endTime": "24s",
                "startTime": "23.900s",
                "word": "call"
              },
              {
                "endTime": "24.100s",
                "startTime": "24s",
                "word": "me"
              },
              {
                "endTime": "24.300s",
                "startTime": "24.100s",
                "word": "when"
              },
              {
                "endTime": "24.400s",
                "startTime": "24.300s",
                "word": "you're"
              },
              {
                "endTime": "24.500s",
                "startTime": "24.400s",
                "word": "finished"
              },
              {
                "endTime": "30.600s",
                "startTime": "24.500s",
                "word": "your"
              },
              {
                "endTime": "31s",
                "startTime": "30.600s",
                "word": "hand"
              },
              {
                "endTime": "31.100s",
                "startTime": "31s",
                "word": "up"
              },
              {
                "endTime": "31.600s",
                "startTime": "31.100s",
                "word": "after"
              },
              {
                "endTime": "31.700s",
                "startTime": "31.600s",
                "word": "it"
              },
              {
                "endTime": "32.800s",
                "startTime": "31.700s",
                "word": "mom"
              },
              {
                "endTime": "32.900s",
                "startTime": "32.800s",
                "word": "is"
              },
              {
                "endTime": "33.200s",
                "startTime": "32.900s",
                "word": "washing"
              },
              {
                "endTime": "33.500s",
                "startTime": "33.200s",
                "word": "dishes"
              },
              {
                "endTime": "34.500s",
                "startTime": "33.500s",
                "word": "sinks"
              },
              {
                "endTime": "34.700s",
                "startTime": "34.500s",
                "word": "running"
              },
              {
                "endTime": "35.200s",
                "startTime": "34.700s",
                "word": "over"
              }
            ]
          }
        ]
      },
      {
        "alternatives": [
          {
            "confidence": 0.92314243,
            "transcript": " not yet when did windows open",
            "words": [
              {
                "endTime": "37.100s",
                "startTime": "36.600s",
                "word": "not"
              },
              {
                "endTime": "37.500s",
                "startTime": "37.100s",
                "word": "yet"
              },
              {
                "endTime": "38.900s",
                "startTime": "37.500s",
                "word": "when"
              },
              {
                "endTime": "39s",
                "startTime": "38.900s",
                "word": "did"
              },
              {
                "endTime": "39.400s",
                "startTime": "39s",
                "word": "windows"
              },
              {
                "endTime": "39.800s",
                "startTime": "39.400s",
                "word": "open"
              }
            ]
          }
        ]
      }
    ]
  }
}
